{
"autoplayBgm":true,"autoplayBgs":false,"battleback1Name":"RockCave","battleback2Name":"DirtCave","bgm":{"name":"Dungeon2","pan":0,"pitch":100,"volume":90},"bgs":{"name":"","pan":0,"pitch":100,"volume":90},"disableDashing":false,"displayName":"Auridi Cave B6","encounterList":[{"troopId":118,"weight":5,"regionSet":[]},{"troopId":119,"weight":5,"regionSet":[]},{"troopId":117,"weight":5,"regionSet":[]},{"troopId":78,"weight":5,"regionSet":[]},{"troopId":80,"weight":5,"regionSet":[]},{"troopId":82,"weight":5,"regionSet":[]},{"troopId":81,"weight":5,"regionSet":[]}],"encounterStep":25,"height":30,"note":"<Filter:bloom#1,bloom,FullScreen>\n<SetFilter:bloom#1,8,2,0.5,2>\nweather : 0 : 5 : 10 : 50 : 1 : Light_01A : 1 : 40 : 40 : 20","parallaxLoopX":false,"parallaxLoopY":false,"parallaxName":"","parallaxShow":true,"parallaxSx":0,"parallaxSy":0,"scrollType":0,"specifyBattleback":true,"tilesetId":4,"width":30,
"data":[5936,5940,5964,5944,5940,5974,6323,6322,6322,6322,6322,6322,6322,6322,6326,5952,5936,5936,5936,5936,5936,5936,5936,5936,5936,5936,5936,5936,5936,5936,5940,5974,6330,5976,5974,6326,6329,6328,6328,6328,6328,6328,6328,6328,6332,5952,5936,5936,5936,5936,5936,5936,5936,5936,5936,5936,5936,5936,5936,5936,5960,6334,3242,6331,6334,6332,3234,3236,3339,3329,3329,3329,3329,3329,3333,5954,5964,5964,5964,5964,5964,5944,5936,5936,5936,5936,5936,5936,5936,5936,5960,3234,3226,5970,5972,3243,3209,3202,3220,3221,3233,3245,5979,5981,3328,5980,6322,6322,6322,6322,6322,5976,5944,5936,5936,5936,5936,5936,5936,5936,5960,3216,3224,5952,5938,5972,3240,3208,3204,3238,5970,5972,6331,6334,3328,6327,6328,6328,6328,6328,6328,6323,5976,5944,5936,5936,5936,5936,5936,5936,5960,3216,3224,5952,5936,5938,5972,3240,3238,5970,5937,5942,5969,5981,3328,6333,3235,3233,3233,3233,3237,6329,6323,5952,5936,5936,5936,5936,5936,5936,5960,3216,3224,5976,5944,5936,5960,3342,5970,5937,5940,5974,6330,6334,3340,3243,3239,5970,5956,5972,3241,3237,6329,5952,5936,5936,5936,5936,5936,5936,5960,3216,3224,6331,5976,5964,5966,5969,5965,5964,5974,6334,3235,3233,3245,5979,5958,5937,5940,5966,5981,3217,3236,5952,5936,5936,5936,5936,5936,5936,5960,3216,3202,3236,6331,6330,6330,6330,6330,6330,6334,3235,3239,5970,5972,6331,5976,5948,5974,6322,6326,3218,3238,5952,5936,5936,5936,5936,5936,5936,5960,3240,3208,3202,3220,3220,3220,3220,3220,3221,3233,3239,5970,5937,5938,5972,6330,5980,6326,6328,6332,3232,5979,5945,5936,5936,5936,5936,5936,5936,5938,5972,3240,3208,3204,3228,3208,3204,3228,3238,5970,5956,5937,5936,5940,5966,5981,6327,6332,3234,3221,3239,6323,5976,5964,5964,5944,5936,5936,5936,5936,5938,5972,3240,3238,5978,3240,3225,5979,5969,5945,5936,5940,5964,5974,6330,6334,6333,3234,3201,3224,5982,6329,6323,6322,6322,5952,5936,5936,5936,5936,5936,5938,5956,5956,5939,5972,3232,6331,6330,5976,5964,5974,6330,6334,3235,3233,3233,3229,3228,3225,6335,3242,6329,6328,6328,5976,5944,5936,5936,5936,5936,5936,5936,5936,5940,5974,3217,3220,3236,6331,6330,6334,3235,3233,3239,5970,5956,5956,5972,3241,3222,3203,3220,3220,3236,6323,5952,5936,5936,5936,5936,5936,5936,5940,5974,6334,3216,3200,3202,3221,3233,3233,3239,5979,5958,5937,5936,5936,5938,5972,3216,3200,3200,3200,3224,6329,5952,5936,5936,5936,5936,5940,5964,5974,6334,3234,3201,3200,3204,3238,5970,5956,5972,6331,5976,5944,5936,5936,5936,5960,3240,3208,3200,3200,3206,3245,5952,5936,5936,5936,5940,5974,6330,6334,3234,3201,3200,3200,3224,5970,5937,5936,5938,5972,6330,5976,5964,5964,5964,5966,5981,3216,3200,3200,3224,5970,5937,5936,5936,5936,5960,6334,3234,3220,3201,3200,3204,3228,3238,5954,5964,5964,5964,5966,5981,6323,6322,6322,6322,6322,6326,3216,3200,3204,3238,5952,5936,5936,5936,5936,5960,3234,3201,3200,3200,3200,3224,5979,5969,5975,6330,6330,6330,6330,6334,6329,6328,6328,6328,6328,6332,3216,3200,3224,5970,5937,5936,5936,5936,5936,5960,3216,3200,3200,3200,3200,3224,6331,6330,6334,3235,3233,3233,3233,3233,3233,3233,3223,3233,3233,3233,3229,3228,3238,5952,5936,5936,5936,5936,5936,5960,3216,3200,3200,3200,3204,3230,3233,3233,3233,3239,5970,5956,5956,5956,5957,5981,3232,5970,5956,5956,5956,5956,5956,5937,5936,5936,5936,5936,5936,5960,3216,3200,3200,3200,3224,5970,5956,5956,5956,5956,5937,5936,5936,5936,5960,6326,3244,5952,5936,5936,5936,5936,5936,5936,5936,5936,5936,5936,5936,5960,3240,3208,3204,3228,3238,5952,5936,5936,5936,5936,5936,5936,5940,5964,5974,6332,5970,5937,5936,5936,5936,5936,5936,5936,5936,5936,5936,5936,5936,5938,5972,3240,3225,5979,5969,5945,5936,5936,5940,5964,5948,5964,5974,6322,6334,3246,5952,5936,5936,5936,5936,5936,5936,5936,5936,5936,5936,5936,5936,5936,5938,5972,3244,6331,6326,5976,5944,5940,5974,6322,5980,6322,6330,6328,5970,5956,5937,5936,5936,5936,5936,5936,5936,5936,5936,5936,5936,5936,5936,5936,5936,5938,5956,5972,6328,6322,5976,5974,6322,6328,6330,6328,5970,5956,5937,5936,5936,5936,5936,5936,5936,5936,5936,5936,5936,5936,5936,5936,5936,5936,5936,5936,5936,5938,5972,6328,6322,6322,6328,5970,5956,5956,5937,5936,5936,5936,5936,5936,5936,5936,5936,5936,5936,5936,5936,5936,5936,5936,5936,5936,5936,5936,5936,5936,5938,5972,6328,6332,5970,5937,5936,5936,5936,5936,5936,5936,5936,5936,5936,5936,5936,5936,5936,5936,5936,5936,5936,5936,5936,5936,5936,5936,5936,5936,5936,5938,5956,5956,5937,5936,5936,5936,5936,5936,5936,5936,5936,5936,5936,5936,5936,5936,5936,5936,5936,5936,5936,5936,5936,5936,5936,5936,5936,5936,5936,5936,5936,5936,5936,5936,5936,5936,5936,5936,5936,5936,5936,5936,5936,5936,5936,5936,5936,5936,5936,5936,5936,5936,0,0,0,0,0,0,0,0,0,0,0,0,0,0,0,0,0,0,0,0,0,0,0,5976,5964,5944,5936,5936,5936,5936,0,0,0,0,0,0,0,0,0,0,0,514,0,0,0,0,0,0,0,0,0,0,0,6323,6322,5976,5944,5936,5936,5936,0,0,0,0,522,523,0,0,0,0,522,531,0,0,0,0,0,0,0,0,0,0,0,6321,6320,6323,5976,5944,5936,5936,0,0,0,0,6327,531,0,0,0,522,515,531,0,0,0,0,0,0,0,0,0,0,0,6329,6328,6321,6323,5952,5936,5936,0,0,0,0,6325,6327,0,0,0,6327,531,6327,0,0,0,0,0,0,0,0,0,0,0,0,0,6329,6321,5976,5944,5936,0,0,0,0,6333,6325,0,0,0,6333,6327,6333,0,0,0,0,0,0,0,0,0,0,0,0,0,0,6329,6323,5952,5936,0,0,0,0,0,6333,0,0,0,0,6333,0,0,0,0,0,0,0,0,0,0,0,0,0,0,0,0,6321,5976,5944,0,0,0,0,0,0,0,0,0,0,0,0,0,0,0,0,0,0,0,0,0,0,0,0,0,0,0,6329,6323,5952,0,0,0,0,0,0,0,0,0,0,0,0,0,0,0,0,0,0,0,0,0,0,0,0,0,0,0,0,6321,5952,0,0,0,0,0,0,0,0,0,0,0,0,0,0,0,0,0,0,0,0,0,0,0,0,0,0,0,0,6329,5976,0,0,0,0,0,0,0,0,0,0,0,0,0,0,0,0,0,0,0,0,0,0,0,0,0,0,0,0,0,6327,0,0,5970,5972,0,0,0,0,0,0,0,0,0,0,0,0,0,0,0,0,0,0,0,0,0,0,0,0,0,6325,0,0,5976,5974,0,0,0,0,0,0,0,0,0,0,0,0,0,0,0,0,0,0,0,0,0,0,0,0,0,6333,0,0,6323,6326,0,0,0,0,0,0,0,0,0,0,0,0,0,0,0,0,0,0,0,0,0,0,0,0,0,0,0,0,6329,6332,0,0,0,0,0,0,0,0,0,0,0,0,0,0,0,0,0,0,0,0,0,0,0,0,0,0,0,0,0,0,0,0,0,0,0,0,0,0,0,0,0,0,0,0,0,0,0,0,0,0,0,0,0,0,0,5970,0,0,0,0,0,0,0,0,0,0,0,0,0,0,0,0,0,0,0,0,0,0,0,0,0,0,0,0,0,5952,0,0,0,0,0,0,0,0,0,0,0,0,0,514,0,0,0,0,0,0,0,0,0,0,0,0,0,0,5970,5937,0,0,0,0,0,0,0,0,0,0,0,0,522,515,523,0,0,0,0,0,0,0,0,0,0,0,0,0,5976,5944,0,0,0,0,0,0,0,0,0,0,0,0,530,515,531,0,0,0,0,0,0,0,0,0,0,0,0,0,6323,5952,0,0,0,0,0,0,0,0,0,0,0,0,6327,515,6327,0,0,0,0,0,0,0,0,0,0,0,5979,5973,6329,5976,0,0,0,0,0,0,0,0,0,0,0,0,6325,6327,6325,0,0,0,0,0,0,0,0,0,0,0,6323,5977,5973,6326,0,0,0,0,0,0,0,0,0,0,0,0,6333,6325,6333,0,0,0,0,0,0,0,0,0,0,0,6321,6323,5980,6332,0,0,0,0,0,0,0,0,0,0,0,0,0,6333,0,0,0,0,0,0,0,0,5979,5969,5981,0,6329,6321,6323,5979,0,0,0,0,0,0,0,0,0,0,0,0,0,0,0,0,0,0,0,0,0,0,6331,6330,6334,5978,0,6329,6321,6327,0,0,0,0,0,0,0,0,0,0,0,0,0,0,0,0,0,0,0,0,0,5970,5956,5957,5969,5975,0,0,6321,6325,0,5970,5956,5972,0,0,0,0,0,0,0,0,0,0,0,0,0,0,0,5970,5957,5965,5944,5960,6326,6326,0,0,6329,6325,0,5976,5964,5974,0,0,0,0,0,0,0,0,0,0,0,0,0,0,0,5976,5974,6327,5976,5961,6320,6324,0,0,0,6325,0,6323,6322,6326,0,0,0,0,0,0,0,0,0,0,0,0,0,0,0,6323,6326,6325,6327,5980,6328,6332,0,0,0,6333,0,6329,6328,6332,0,0,0,0,0,0,0,0,0,0,0,0,0,0,0,6329,6332,6333,6333,6335,0,0,0,0,0,0,0,0,0,0,0,0,0,0,0,0,0,0,0,3168,3152,3152,3176,0,0,0,3168,3176,0,0,0,0,3192,3160,3152,3152,0,0,0,0,0,0,0,0,0,0,0,0,0,3192,3180,3180,3182,3185,3185,3185,3181,3162,3188,0,0,0,0,3168,3152,3152,0,0,0,0,0,0,0,0,0,0,0,0,0,0,0,0,0,0,0,0,0,3192,3190,0,0,0,0,3192,3180,3160,0,0,0,0,0,0,0,0,0,0,3198,0,0,0,0,0,0,0,0,0,0,0,0,0,0,0,0,0,0,3192,0,0,0,0,0,0,0,0,0,0,0,0,0,0,0,0,0,0,0,0,0,0,0,0,0,0,0,0,0,0,0,0,0,0,0,0,0,0,0,0,0,0,0,0,0,0,0,0,0,0,0,0,0,0,0,0,0,0,0,0,3197,0,0,0,0,0,0,0,0,0,0,0,0,0,0,0,0,0,0,0,0,0,0,0,0,0,0,0,0,0,0,0,0,0,0,3195,3185,3197,0,3198,0,0,0,0,0,0,0,3195,3197,0,0,0,0,0,0,0,0,0,0,0,0,0,0,0,0,0,0,0,0,0,0,0,0,0,0,0,0,0,0,0,0,0,0,0,0,3195,3197,0,0,0,3197,0,0,0,0,0,0,0,0,0,0,0,0,0,3194,0,0,0,0,0,0,0,0,0,0,0,0,0,0,0,0,0,0,0,0,0,0,0,0,0,0,3186,3172,3173,3191,0,0,0,0,0,0,0,0,0,0,0,0,0,0,0,0,0,0,0,0,0,0,0,0,0,0,3192,3180,3190,0,0,0,0,0,0,0,0,0,0,0,0,0,0,3198,0,3197,0,0,0,0,0,0,0,0,0,0,0,0,0,0,0,0,0,0,0,0,0,0,0,0,0,0,3198,0,0,0,0,0,0,0,0,0,0,0,0,0,0,0,0,0,0,0,0,0,0,0,0,0,0,0,0,0,0,3194,0,3188,0,0,0,0,0,0,0,0,0,0,0,0,0,0,0,0,3186,3188,0,0,0,0,0,0,0,0,0,3193,3185,3176,0,0,0,0,0,0,0,0,0,0,0,0,0,0,0,0,3168,3154,3188,0,0,0,0,0,0,0,0,0,0,3190,0,0,0,0,0,0,0,0,0,0,0,3195,3197,0,0,0,3192,3180,3190,0,0,0,0,0,0,0,0,0,0,0,0,0,0,0,0,0,0,0,0,0,0,0,0,0,0,0,0,0,0,0,0,0,0,0,0,0,0,0,0,0,0,0,0,0,0,0,0,0,0,0,0,0,0,0,0,0,0,0,0,0,0,0,0,0,0,0,0,0,0,0,0,0,0,0,0,0,0,0,0,0,0,0,0,0,0,0,0,0,0,0,0,0,0,0,0,0,0,0,0,0,0,0,0,0,0,0,0,0,0,0,0,0,0,0,0,0,0,0,0,0,0,0,0,0,0,0,0,0,0,0,0,0,0,0,0,0,0,0,0,0,0,0,0,0,0,0,0,0,0,0,3187,3185,3185,3185,3197,0,0,0,0,0,0,0,0,0,0,0,0,3186,3172,3188,0,0,0,0,0,0,0,0,3186,3172,3178,0,0,0,0,0,0,0,0,3172,3188,0,0,0,0,0,0,3192,3180,3190,0,0,0,0,0,0,0,0,3192,3180,3190,0,0,0,0,0,0,0,0,3180,3190,0,0,0,0,0,0,0,0,0,0,0,0,0,0,0,0,0,0,0,0,0,0,0,0,0,0,0,0,0,0,0,0,0,0,0,0,0,0,0,0,0,0,0,0,0,3194,0,0,0,0,0,0,0,0,0,0,0,0,0,0,0,0,0,0,0,0,0,0,0,0,0,0,0,3186,3172,3178,0,0,0,0,0,0,0,0,0,0,0,0,0,0,0,0,0,0,0,0,0,0,0,0,0,0,0,3192,3180,3190,0,0,0,0,0,0,0,0,0,0,0,0,0,0,0,0,0,0,0,0,0,0,0,0,0,0,0,0,0,0,0,0,0,0,0,0,0,0,0,0,0,0,0,0,0,0,0,0,0,0,0,0,0,0,0,0,0,0,0,0,0,0,0,0,0,0,0,0,0,0,0,0,0,0,0,0,0,0,0,0,0,0,0,0,514,514,514,514,514,514,514,514,0,0,0,0,0,0,0,0,0,0,0,0,0,0,0,0,0,0,165,0,0,0,514,514,514,514,514,514,514,0,0,0,0,0,0,0,0,0,0,0,0,0,0,0,0,0,0,0,0,0,0,0,514,514,514,514,0,0,0,0,0,0,0,0,0,0,0,0,0,0,0,0,0,0,0,0,0,0,0,0,0,0,0,0,515,0,0,0,0,0,0,0,0,0,0,0,0,0,0,0,0,0,0,0,0,0,0,0,0,0,0,0,0,0,539,0,0,0,0,0,0,0,0,0,0,0,0,0,0,0,0,0,0,0,0,0,0,0,0,0,0,0,0,0,778,0,0,0,0,0,0,0,0,0,0,0,0,0,0,0,0,0,0,0,0,0,0,0,0,0,0,0,0,0,0,0,0,0,0,0,0,0,0,0,0,0,0,0,0,0,0,0,0,0,0,0,0,0,0,0,0,0,0,0,0,0,0,0,0,0,0,0,0,0,0,0,0,0,0,0,0,0,0,0,0,0,0,0,0,0,0,0,0,0,0,0,0,0,0,0,0,0,0,0,0,0,0,0,0,0,0,0,0,0,0,0,0,0,0,0,0,0,0,0,0,0,0,0,0,0,0,0,0,0,0,0,0,0,0,0,0,0,0,0,0,0,0,0,0,0,0,0,0,0,0,0,0,0,0,0,0,0,0,0,0,0,0,0,0,0,0,0,0,0,0,0,0,0,0,0,0,0,0,0,0,0,0,0,0,0,0,0,0,0,0,0,0,0,0,0,0,0,0,0,0,0,0,0,0,0,0,0,0,0,0,0,0,0,0,0,0,0,0,0,0,0,0,0,0,0,0,0,0,0,0,0,0,0,0,0,0,0,0,0,0,0,0,0,0,0,0,0,0,0,0,0,0,0,0,0,0,0,0,0,0,0,0,0,0,0,0,0,0,0,0,0,0,0,0,0,0,0,0,0,0,0,0,0,0,0,0,0,0,0,0,0,0,0,0,0,0,0,0,0,0,0,0,0,0,0,0,0,0,0,0,0,0,0,0,0,0,0,0,0,0,0,0,0,0,0,0,0,0,0,0,0,0,0,0,0,0,0,0,0,0,0,0,0,0,0,0,0,0,0,0,0,0,0,0,0,0,0,0,0,0,0,0,0,0,0,0,0,0,0,0,0,0,0,0,0,0,0,0,0,0,0,0,0,0,0,0,0,0,0,0,0,0,0,0,0,0,0,0,0,0,0,0,0,0,0,0,0,0,0,0,0,0,0,0,0,0,0,0,0,0,0,0,0,0,0,0,0,0,0,0,0,0,0,0,0,0,0,0,0,0,0,0,0,0,0,0,0,0,0,0,0,0,0,0,0,0,0,0,0,0,0,0,0,0,0,0,0,0,0,0,0,0,0,0,0,0,0,0,0,0,0,0,0,0,0,0,0,0,0,0,0,0,0,0,0,0,0,0,0,0,0,0,0,0,0,0,0,0,0,0,0,0,0,0,0,0,0,0,0,0,0,0,0,0,0,0,0,0,0,0,0,0,0,0,0,0,0,0,0,0,0,0,0,0,0,0,0,0,0,0,0,0,0,0,0,0,0,0,0,0,0,0,0,0,0,0,0,0,0,0,0,0,0,0,0,0,0,0,0,0,0,0,0,0,0,0,0,0,0,0,0,0,0,0,0,0,0,0,0,0,0,0,0,0,0,0,0,0,0,0,0,0,0,0,0,0,0,0,0,0,0,0,0,0,0,0,0,0,0,0,0,0,0,0,0,0,0,0,0,0,0,0,0,0,0,0,0,0,0,0,0,0,0,0,0,0,0,0,0,0,0,0,0,0,0,0,0,0,0,0,0,0,0,0,0,0,0,0,0,0,0,0,0,0,0,0,0,0,0,0,0,0,0,0,0,0,0,0,0,0,0,0,0,0,0,0,0,0,0,0,0,0,0,0,0,0,0,0,0,0,0,0,0,0,0,0,0,0,0,0,0,0,0,0,0,0,0,0,0,0,0,0,0,0,0,0,0,0,0,0,0,0,0,0,0,0,0,0,0,0,0,0,0,0,0,0,0,0,0,0,0,0,0,0,0,0,0,0,0,0,0,0,0,0,0,0,0,0,0,0,0,0,0,0,0,0,0,5,0,0,0,5,0,0,0,0,0,0,0,0,0,0,0,0,0,0,0,0,0,0,0,0,0,0,0,0,5,0,0,0,5,0,0,0,0,0,0,0,0,0,0,0,0,0,0,0,0,0,0,0,0,0,0,0,0,0,5,0,0,0,0,0,0,0,0,0,0,0,0,5,0,0,0,0,0,0,0,0,0,0,0,0,0,0,0,0,5,0,0,0,0,5,0,0,0,0,0,0,0,15,0,5,0,0,0,0,0,0,0,0,0,0,0,0,0,0,5,0,0,0,0,5,5,0,0,0,5,0,0,5,0,0,0,0,0,0,0,0,0,0,0,0,0,0,0,0,5,0,0,0,0,0,0,0,0,0,0,5,0,0,0,0,0,0,0,0,0,0,0,0,0,0,0,0,0,0,5,0,0,0,0,0,0,0,0,0,5,0,0,0,0,0,0,0,0,0,5,0,0,0,0,0,0,0,0,0,5,0,0,0,0,0,0,0,0,0,0,0,0,0,0,0,0,0,0,0,5,0,0,0,0,0,0,0,0,0,0,0,0,0,0,0,0,0,0,0,0,0,0,0,0,0,0,0,5,0,0,0,0,0,0,0,0,0,0,0,0,0,0,0,0,0,0,0,0,0,0,0,0,0,0,0,0,5,0,0,0,0,0,0,0,0,0,0,0,0,0,0,0,5,0,0,0,0,0,0,0,0,0,0,5,0,0,0,0,0,0,5,0,0,0,0,0,0,0,0,0,0,0,5,0,0,5,0,0,0,0,0,5,0,0,0,0,0,0,0,0,0,0,0,0,0,0,0,0,0,0,0,0,5,0,0,5,0,0,0,0,0,0,0,0,0,0,0,0,0,0,0,0,0,0,0,0,0,0,0,0,0,0,0,0,5,0,0,0,0,0,0,0,0,0,0,0,0,0,0,5,0,0,0,0,0,0,0,0,0,0,0,0,0,5,0,0,0,0,0,0,0,0,0,0,0,0,0,0,0,0,0,0,0,0,0,0,0,0,0,0,0,5,0,0,0,0,0,0,0,0,0,0,0,0,0,0,0,0,0,0,5,0,0,0,0,0,0,0,0,0,5,0,0,0,0,0,0,0,0,0,0,0,0,0,0,0,0,0,0,0,5,0,0,0,0,0,0,0,0,0,5,0,0,0,0,0,0,0,0,5,0,0,0,0,0,0,0,0,0,0,0,0,0,0,0,0,0,0,0,0,5,0,0,0,0,0,0,0,0,0,0,0,0,5,0,0,0,0,0,0,0,0,0,0,0,0,0,0,0,0,5,0,0,0,0,0,0,0,0,0,0,0,5,5,0,0,5,0,0,0,0,0,0,0,0,0,0,0,0,0,5,0,0,0,0,0,0,0,0,0,0,0,5,5,0,0,0,0,0,0,0,0,0,0,0,0,0,0,0,0,0,0,0,0,0,0,0,0,0,0,0,0,5,0,0,5,0,0,0,0,0,0,0,0,0,0,0,0,0,0,0,0,0,0,0,0,0,0,0,0,0,0,0,0,5,0,0,0,0,0,0,0,0,0,0,0,0,0,0,0,0,0,0,0,0,0,0,0,0,0,0,0,5,0,0,0,0,0,0,0,0,0,0,0,0,0,0,0,0,0,0,0,0,0,0,0,0,0,0,5,0,0,0,0,0,0,0,0,0,0,0,0,0,0,5,0,0,0,0,0,0,0,0,0,0,0,0,0,5,0,0,0,0,0,0,0,0,0,0,0,0,0,5,0,5,0,0,0,0,0,0,0,5,0,0,0,0,0,0,0,0,0,0,0,0,0,0,0,0,5,0,0,5,0,5,0,0,0,0,0,0,0,5,0,0,0,0,0,0,0,0,0,0,0,0,0,0,0,0,5,0,0,5,0,0,0,0,0,0,0,0,0,0,0,0,0,0,0,0,0,0,0,0,0,0,0,0,0,0,0,0,0,0,0,0,0,0,0,0,0,0,0,0,0,0,0,0,0,0,0,0,0,0,0,0,0,0,0,0,0,0,0,0,0,0,0,0,0,0,0,0,0,0,0,0,0,0,0,0,0,0,0,0,0,0,0,0,0,0,0,0,0,0,0,0,0,0,0,0,0,0,0,0,0,0,0,0,0,0,0,0,0,0,0,0,0,0,0,0,0,0,0,0,0,0,0,0,0,0,0,0,0,0,0,0,0,0,0,0,0,0,0,0,0,0,0,0,0,0,0,0,0,0,0,0,0,0,0,0,0,0,0,0,0,0,0,0,0,0,0,0,0,0,0,0,0,0,0,0,0,0,0,0,0,0,0,0,0,0,0,0,0,0,0,0,0,0,0,0,0,0,0,0,0,0,0,0,0,0,0,0,0,0,0,0,0,0,0,0,0,0,0,0,0,0,0,0,0,0,0,0,0,0,0,0,0,0,0,0,0,0,0,0,0,0,0,0,0,0,0,0,0,0,0,0,0,0,0,0,0,0,0,0,0,0,0,0,0,0,0,0,0,0,0,0,0,0,0,0,0,0,0,0,0,0,0,0,0,0,0,0,0,0,0,0,0,0,0,0,0,0,0,0,0,0,0,0,0,0,0,0,0,0,0,0,0,0,0,0,0,0,0,0,0,0,0,0,0,0,0,0,0,0,0,0,0,0,0,0,0,0,0,0,0,0,0,0,0,0,0,0,0,0,0,0,0,0,0,0,0,0,0,0,0,0,0,0,0,0,0,0,0,0,0,0,0,0,0,0,0,0,0,0,0,0,0,0,0,0,0,0,0,0,0,0,0,0,0,0,0,0,0,0,0,0,0,0,0,0,0,0,0,0,0,0,0,0,0,0,0,0,0,0,0,0,0,0,0,0,0,0,0,0,0,0,0,0,0,0,0,0,0,0,0,0,0,0,0,0,0,0,0,0,0,0,0,0,0,0,0,0,0,0,0,0,0,0,0,0,0,0,0,0,0,0,0,0,0,0,0,0,0,0,0,0,0,0,0,0,0,0,0,0,0,0,0,0,0,0,0,0,0,0,0,0,0,0,0,0,0,0,0,0,0,0,0,0,0,0,0,0,0,0,0,0,0,0,0,0,0,0,0,0,0,0,0,0,0,0,0,0,0,0,0,0,0,0,0,0,0,0,0,0,0,0,0,0,0,0,0,0,0,0,0,0,0,0,0,0,0,0,0,0,0,0,0,0,0,0,0,0,0,0,0,0,0,0,0,0,0,0,0,0,0,0,0,0,0,0,0,0,0,0,0,0,0,0,0,0,0,0,0,0,0,0,0,0,0,0,0,0,0,0,0,0,0,0,0,0,0,0,0,0,0,0,0,0,0,0,0,0,0,0,0,0,0,0,0,0,0,0,0,0,0,0,0,0,0,0,0,0,0,0,0,0,0,0,0,0,0,0,0,0,0,0,0,0,0,0,0,0,0,0,0,0,0,0,0,0,0,0,0,0,0,0,0,0,0,0,0,0,0,0,0,0,0,0,0,0,0,0,0,0,0,0,0,0,0,0,0,0,0,0,0,0,0,0,0,0,0,0,0,0,0,0,0,0,0,0,0,0,0,0,0,0,0,0,0,0,0,0,0,0,0,0,0,0,0,0,0,0,0,0,0,0,0,0,0,0,0,0,0,0,0,0,0,0,0,0,0,0,0,0,0,0,0,0,0,0,0,0,0,0,0,0,0,0,0,0,0,0,0,0,0,0,0,0,0,0,0,0,0,0,0,0,0,0,0,0,0,0,0,0,0,0,0,0,0,0,0,0,0,0,0,0,0,0,0,0,0,0,0,0,0,0,0,0,0,0,0,0,0,0,0,0,0,0,0,0,0,0,0,0,0,0,0,0,0,0,0,0,0,0,0,0,0,0,0,0,0,0,0,0,0,0,0,0,0,0,0,0,0,0,0,0,0,0,0,0,0,0,0,0,0,0,0,0,0],
"events":[
null,
{"id":1,"name":"Transfer (cave B7)","note":"","pages":[{"conditions":{"actorId":1,"actorValid":false,"itemId":1,"itemValid":false,"selfSwitchCh":"A","selfSwitchValid":false,"switch1Id":1,"switch1Valid":false,"switch2Id":1,"switch2Valid":false,"variableId":1,"variableValid":false,"variableValue":0},"directionFix":false,"image":{"tileId":28,"characterName":"","characterIndex":0,"direction":2,"pattern":0},"list":[{"code":250,"indent":0,"parameters":[{"name":"Move1","volume":90,"pitch":100,"pan":0}]},{"code":201,"indent":0,"parameters":[0,80,6,1,2,0]},{"code":0,"indent":0,"parameters":[]}],"moveFrequency":3,"moveRoute":{"list":[{"code":0,"parameters":[]}],"repeat":true,"skippable":false,"wait":false},"moveSpeed":3,"moveType":0,"priorityType":0,"stepAnime":false,"through":false,"trigger":1,"walkAnime":true}],"x":18,"y":21},
{"id":2,"name":"EV002","note":"<cl: fire 100 #fff0e0>","pages":[{"conditions":{"actorId":1,"actorValid":false,"itemId":1,"itemValid":false,"selfSwitchCh":"A","selfSwitchValid":false,"switch1Id":1,"switch1Valid":false,"switch2Id":1,"switch2Valid":false,"variableId":1,"variableValid":false,"variableValue":0},"directionFix":true,"image":{"tileId":0,"characterName":"!Flame","direction":2,"pattern":0,"characterIndex":0},"list":[{"code":0,"indent":0,"parameters":[]}],"moveFrequency":3,"moveRoute":{"list":[{"code":0,"parameters":[]}],"repeat":true,"skippable":false,"wait":false},"moveSpeed":3,"moveType":0,"priorityType":1,"stepAnime":true,"through":false,"trigger":0,"walkAnime":false}],"x":18,"y":17},
{"id":3,"name":"EV003","note":"<cl: fire 100 #fff0e0>","pages":[{"conditions":{"actorId":1,"actorValid":false,"itemId":1,"itemValid":false,"selfSwitchCh":"A","selfSwitchValid":false,"switch1Id":1,"switch1Valid":false,"switch2Id":1,"switch2Valid":false,"variableId":1,"variableValid":false,"variableValue":0},"directionFix":true,"image":{"tileId":0,"characterName":"!Flame","direction":2,"pattern":0,"characterIndex":0},"list":[{"code":0,"indent":0,"parameters":[]}],"moveFrequency":3,"moveRoute":{"list":[{"code":0,"parameters":[]}],"repeat":true,"skippable":false,"wait":false},"moveSpeed":3,"moveType":0,"priorityType":1,"stepAnime":true,"through":false,"trigger":0,"walkAnime":false}],"x":24,"y":11},
{"id":4,"name":"EV004","note":"<cl: fire 100 #fff0e0>","pages":[{"conditions":{"actorId":1,"actorValid":false,"itemId":1,"itemValid":false,"selfSwitchCh":"A","selfSwitchValid":false,"switch1Id":1,"switch1Valid":false,"switch2Id":1,"switch2Valid":false,"variableId":1,"variableValid":false,"variableValue":0},"directionFix":true,"image":{"tileId":0,"characterName":"!Flame","direction":2,"pattern":0,"characterIndex":0},"list":[{"code":0,"indent":0,"parameters":[]}],"moveFrequency":3,"moveRoute":{"list":[{"code":0,"parameters":[]}],"repeat":true,"skippable":false,"wait":false},"moveSpeed":3,"moveType":0,"priorityType":1,"stepAnime":true,"through":false,"trigger":0,"walkAnime":false}],"x":11,"y":13},
{"id":5,"name":"EV005","note":"<cl: fire 100 #fff0e0>","pages":[{"conditions":{"actorId":1,"actorValid":false,"itemId":1,"itemValid":false,"selfSwitchCh":"A","selfSwitchValid":false,"switch1Id":1,"switch1Valid":false,"switch2Id":1,"switch2Valid":false,"variableId":1,"variableValid":false,"variableValue":0},"directionFix":true,"image":{"tileId":0,"characterName":"!Flame","direction":2,"pattern":0,"characterIndex":0},"list":[{"code":0,"indent":0,"parameters":[]}],"moveFrequency":3,"moveRoute":{"list":[{"code":0,"parameters":[]}],"repeat":true,"skippable":false,"wait":false},"moveSpeed":3,"moveType":0,"priorityType":1,"stepAnime":true,"through":false,"trigger":0,"walkAnime":false}],"x":7,"y":8},
{"id":6,"name":"EV006","note":"<cl: fire 100 #fff0e0>","pages":[{"conditions":{"actorId":1,"actorValid":false,"itemId":1,"itemValid":false,"selfSwitchCh":"A","selfSwitchValid":false,"switch1Id":1,"switch1Valid":false,"switch2Id":1,"switch2Valid":false,"variableId":1,"variableValid":false,"variableValue":0},"directionFix":true,"image":{"tileId":0,"characterName":"!Flame","direction":2,"pattern":0,"characterIndex":0},"list":[{"code":0,"indent":0,"parameters":[]}],"moveFrequency":3,"moveRoute":{"list":[{"code":0,"parameters":[]}],"repeat":true,"skippable":false,"wait":false},"moveSpeed":3,"moveType":0,"priorityType":1,"stepAnime":true,"through":false,"trigger":0,"walkAnime":false}],"x":9,"y":0},
{"id":7,"name":"EV007","note":"<cl: fire 100 #fff0e0>","pages":[{"conditions":{"actorId":1,"actorValid":false,"itemId":1,"itemValid":false,"selfSwitchCh":"A","selfSwitchValid":false,"switch1Id":1,"switch1Valid":false,"switch2Id":1,"switch2Valid":false,"variableId":1,"variableValid":false,"variableValue":0},"directionFix":true,"image":{"tileId":0,"characterName":"!Flame","direction":2,"pattern":0,"characterIndex":0},"list":[{"code":0,"indent":0,"parameters":[]}],"moveFrequency":3,"moveRoute":{"list":[{"code":0,"parameters":[]}],"repeat":true,"skippable":false,"wait":false},"moveSpeed":3,"moveType":0,"priorityType":1,"stepAnime":true,"through":false,"trigger":0,"walkAnime":false}],"x":15,"y":4},
{"id":8,"name":"EV008","note":"","pages":[{"conditions":{"actorId":1,"actorValid":false,"itemId":1,"itemValid":false,"selfSwitchCh":"A","selfSwitchValid":false,"switch1Id":1,"switch1Valid":false,"switch2Id":1,"switch2Valid":false,"variableId":1,"variableValid":false,"variableValue":0},"directionFix":false,"image":{"characterIndex":0,"characterName":"","direction":2,"pattern":0,"tileId":0},"list":[{"code":223,"indent":0,"parameters":[[-102,-68,0,34],1,false]},{"code":357,"indent":0,"parameters":["Community_Lighting_MZ","playerLightRadius","Player Light Radius",{"radius":"250","color":"#ffefe0","brightness":"2","fadeSpeed":"1"}]},{"code":657,"indent":0,"parameters":["Radius = 250"]},{"code":657,"indent":0,"parameters":["Color = #ffefe0"]},{"code":657,"indent":0,"parameters":["Brightness = 2"]},{"code":657,"indent":0,"parameters":["fadeSpeed = 1"]},{"code":0,"indent":0,"parameters":[]}],"moveFrequency":3,"moveRoute":{"list":[{"code":0,"parameters":[]}],"repeat":true,"skippable":false,"wait":false},"moveSpeed":3,"moveType":0,"priorityType":0,"stepAnime":false,"through":false,"trigger":4,"walkAnime":true}],"x":0,"y":0},
{"id":9,"name":"Transfer (cave B7)","note":"","pages":[{"conditions":{"actorId":1,"actorValid":false,"itemId":1,"itemValid":false,"selfSwitchCh":"A","selfSwitchValid":false,"switch1Id":1,"switch1Valid":false,"switch2Id":1,"switch2Valid":false,"variableId":1,"variableValid":false,"variableValue":0},"directionFix":false,"image":{"tileId":10,"characterName":"","characterIndex":0,"direction":2,"pattern":0},"list":[{"code":250,"indent":0,"parameters":[{"name":"Move1","volume":90,"pitch":100,"pan":0}]},{"code":201,"indent":0,"parameters":[0,80,8,8,4,0]},{"code":0,"indent":0,"parameters":[]}],"moveFrequency":3,"moveRoute":{"list":[{"code":0,"parameters":[]}],"repeat":true,"skippable":false,"wait":false},"moveSpeed":3,"moveType":0,"priorityType":0,"stepAnime":false,"through":false,"trigger":1,"walkAnime":true}],"x":2,"y":2},
{"id":10,"name":"Transfer (goblin fisher's cave)","note":"","pages":[{"conditions":{"actorId":1,"actorValid":false,"itemId":1,"itemValid":false,"selfSwitchCh":"A","selfSwitchValid":false,"switch1Id":1,"switch1Valid":false,"switch2Id":1,"switch2Valid":false,"variableId":1,"variableValid":false,"variableValue":0},"directionFix":false,"image":{"characterIndex":0,"characterName":"","direction":2,"pattern":0,"tileId":0},"list":[{"code":250,"indent":0,"parameters":[{"name":"Move1","volume":90,"pitch":100,"pan":0}]},{"code":201,"indent":0,"parameters":[0,83,15,22,8,0]},{"code":0,"indent":0,"parameters":[]}],"moveFrequency":3,"moveRoute":{"list":[{"code":0,"parameters":[]}],"repeat":true,"skippable":false,"wait":false},"moveSpeed":3,"moveType":0,"priorityType":0,"stepAnime":false,"through":false,"trigger":1,"walkAnime":true}],"x":8,"y":1}
]
}