{
"autoplayBgm":true,"autoplayBgs":false,"battleback1Name":"Grassland","battleback2Name":"Cliff","bgm":{"name":"Dungeon2","pan":0,"pitch":100,"volume":90},"bgs":{"name":"","pan":0,"pitch":100,"volume":90},"disableDashing":false,"displayName":"Backyard","encounterList":[{"troopId":12,"weight":5,"regionSet":[]},{"troopId":3,"weight":5,"regionSet":[]},{"troopId":157,"weight":5,"regionSet":[]},{"troopId":169,"weight":5,"regionSet":[]},{"troopId":170,"weight":5,"regionSet":[]}],"encounterStep":50,"height":30,"note":"weather : 0 : 33 : 900 : 30 : 2 : Fog_01aa : 1 : 10 : 8 : 20","parallaxLoopX":false,"parallaxLoopY":false,"parallaxName":"","parallaxShow":true,"parallaxSx":0,"parallaxSy":0,"scrollType":0,"specifyBattleback":true,"tilesetId":2,"width":50,
"data":[3200,3200,3200,3200,3200,3200,3200,3200,3200,3200,3200,3200,3200,3200,3200,3200,3204,3228,3228,3208,3200,3200,3200,3200,3200,3200,3200,3200,3200,3200,3200,3200,3200,3200,3200,3200,3200,3200,3200,3200,3200,3200,3200,3200,3200,3200,3200,3200,3200,3200,3200,3200,3200,3200,3200,3200,3200,3200,3200,3200,3200,3200,3200,3200,3200,3200,3224,3282,3284,3216,3200,3200,3200,3200,3200,3200,3200,3200,3200,3200,3200,3200,3200,3200,3200,3200,3200,3200,3200,3200,3200,3200,3204,3228,3228,3208,3200,3200,3200,3200,3200,3200,3204,3228,3228,3228,3228,3228,3228,3208,3200,3200,3200,3200,3200,3200,3224,3288,3273,3240,3208,3200,3200,3200,3200,3200,3204,3228,3208,3200,3200,3200,3200,3200,3200,3200,3200,3200,3204,3228,3228,3208,3224,2083,2093,3216,3200,3200,3200,3200,3200,3204,3238,8011,8010,8010,8010,8010,8014,3240,3228,3228,3228,3228,3212,3228,3230,3245,3265,3284,3240,3208,3204,3228,3228,3212,3238,3290,3240,3228,3228,3212,3228,3228,3228,3228,3228,3228,3225,2475,2477,3216,3224,2092,3234,3201,3200,3200,3200,3200,3228,3238,1553,1553,1553,1553,1553,1553,1553,8011,8010,8010,8010,8014,3244,3282,3268,3268,3249,3250,3284,3240,3225,3282,3284,3232,3282,3251,3268,3268,3284,3244,3282,3268,3268,3268,3268,3284,3241,3233,3222,3201,3202,3220,3201,3200,3200,3200,3200,3200,1553,1553,1553,1553,1553,1553,1553,1553,3234,3220,3220,3220,3236,3282,3268,3249,3248,3248,3248,3248,3250,3284,3232,3288,3286,3232,3264,3248,3248,3248,3250,3268,3249,3248,3248,3248,3248,3250,3268,3284,3240,3208,3200,3200,3200,3200,3200,3200,3200,3200,1553,1553,1553,1553,1553,1553,1553,1553,3240,3228,3228,3208,3224,3264,3248,3248,3248,3248,3248,3248,3248,3272,3217,3220,3220,3226,3264,3248,3248,3248,3248,3248,3248,3248,3248,3248,3248,3248,3248,3250,3284,3240,3208,3200,3200,3200,3200,3200,3200,3200,3220,3236,1633,1553,1553,1553,3246,3282,3268,3268,3284,3240,3225,3264,3248,3248,3248,3248,3248,3252,3276,3286,3216,3200,3200,3224,3264,3248,3248,3248,3248,3248,3248,3248,3248,3248,3248,3248,3248,3248,3250,3284,3240,3228,3208,3200,3200,3200,3200,3200,3200,3202,3236,1553,1553,1553,3282,3249,3248,3248,3250,3284,3244,3264,3248,3248,3248,3248,3252,3286,3234,3220,3201,3200,3200,3224,3288,3256,3248,3248,3248,3248,3248,3248,3248,3248,3248,3248,3248,3248,3252,3278,3270,3284,3240,3228,3228,3228,3208,3200,3200,3200,3224,1553,1553,3282,3253,3276,3276,3256,3248,3250,3268,3253,3276,3276,3256,3252,3286,3235,3229,3228,3228,3228,3208,3202,3236,3264,3252,3276,3256,3248,3248,3248,3248,3248,3248,3248,3248,3252,3286,3242,3288,3258,3268,3268,3268,3284,3240,3208,3200,3200,3224,1651,3242,3288,3286,3235,3245,3264,3248,3248,3248,3272,3235,3245,3266,3286,3243,3239,3282,3268,3268,3284,3240,3208,3224,3266,3286,3242,3288,3276,3256,3248,3248,3248,3248,3252,3276,3286,3243,3231,3245,3264,3248,3248,3248,3250,3284,3216,3200,3200,3202,3220,3203,3220,3220,3226,3282,3249,3252,3276,3276,3286,3232,3282,3274,3242,3282,3268,3249,3248,3248,3250,3284,3216,3224,3280,3235,3231,3233,3237,3288,3276,3276,3276,3276,3286,3234,3236,2082,2068,2084,3288,3256,3248,3248,3248,3272,3216,3200,3204,3228,3228,3228,3228,3228,3238,3264,3248,3272,3234,3220,3220,3226,3288,3286,3232,3264,3248,3248,3248,3248,3248,3272,3240,3238,3280,3232,3282,3284,3241,3233,3233,3233,3233,3222,3220,3201,3224,2088,2076,2078,2085,3264,3248,3248,3252,3286,3216,3200,3224,3282,3268,3268,3268,3268,3268,3249,3252,3286,3240,3228,3208,3202,3220,3221,3239,3264,3248,3248,3248,3248,3248,3250,3268,3268,3274,3232,3264,3250,3268,3268,3268,3268,3284,3240,3228,3208,3224,3294,3234,3236,2092,3264,3248,3248,3272,3234,3201,3204,3238,3264,3248,3248,3252,3276,3276,3276,3286,3246,3282,3284,3240,3208,3200,3224,3282,3249,3248,3248,3252,3276,3276,3276,3276,3276,3286,3244,3264,3248,3248,3248,3248,3248,3250,3268,3284,3240,3214,3233,3229,3214,3245,3264,3248,3248,3272,3216,3200,3224,3282,3249,3248,3248,3272,3243,3233,3222,3236,3282,3249,3250,3284,3216,3200,3224,3288,3256,3248,3252,3286,3234,3220,3220,3220,3221,3245,3282,3249,3248,3248,3248,3248,3248,3248,3248,3250,3284,3244,3282,3284,3232,3282,3249,3248,3248,3272,3216,3200,3224,3264,3248,3248,3248,3250,3268,3284,3240,3238,3264,3248,3248,3272,3240,3208,3202,3236,3288,3256,3272,3243,3209,3200,3200,3200,3224,3282,3249,3248,3248,3248,3248,3248,3248,3248,3248,3248,3250,3269,3277,3286,3232,3264,3248,3248,3248,3272,3216,3200,3224,3264,3248,3248,3248,3248,3248,3250,3268,3268,3249,3248,3248,3250,3284,3240,3228,3214,3245,3264,3250,3284,3240,3208,3200,3200,3224,3264,3248,3248,3248,3248,3248,3248,3248,3248,3248,3248,3248,3272,3235,3233,3239,3288,3256,3248,3248,3272,3216,3200,3224,3288,3256,3248,3252,3276,3256,3248,3248,3248,3248,3248,3248,3248,3250,3268,3284,3244,3282,3249,3248,3250,3284,3216,3200,3200,3224,3264,3248,3248,3248,3248,3248,3248,3248,3248,3248,3248,3248,3272,3232,3282,3284,3246,3264,3248,3248,3272,3216,3200,3202,3236,3264,3248,3272,3242,3264,3248,3248,3248,3248,3248,3248,3248,3248,3248,3250,3268,3249,3248,3248,3248,3272,3216,3200,3200,3224,3288,3256,3248,3248,3248,3248,3248,3248,3248,3248,3248,3252,3286,3232,3264,3250,3269,3277,3256,3252,3286,3216,3200,3200,3224,3288,3276,3286,3232,3264,3248,3248,3248,3248,3248,3248,3248,3248,3248,3248,3252,3276,3256,3248,3252,3286,3216,3200,3200,3202,3236,3288,3256,3248,3248,3248,3248,3248,3248,3248,3252,3286,3234,3226,3288,3256,3272,3242,3264,3272,3234,3201,3200,3200,3202,3220,3220,3221,3239,3264,3248,3248,3248,3248,3248,3248,3248,3248,3248,3248,3272,3246,3288,3276,3286,3234,3201,3200,3200,3200,3202,3236,3288,3276,3256,3248,3248,3248,3252,3276,3286,3243,3209,3206,3245,3264,3272,3232,3288,3286,3218,3228,3208,3200,3200,3200,3200,3224,3282,3249,3248,3252,3276,3276,3276,3276,3256,3248,3248,3248,3250,3284,3234,3220,3220,3201,3200,3200,3200,3200,3200,3202,3220,3236,3288,3276,3276,3276,3273,3243,3245,3290,3216,3224,3282,3249,3272,3217,3220,3221,3239,2090,3216,3200,3200,3200,3200,3224,3288,3256,3252,3286,3234,3220,3220,3236,3264,3248,3248,3248,3248,3272,3216,3200,3200,3200,3200,3200,3200,3200,3204,3228,3228,3230,3222,3220,3220,3236,3265,3268,3268,3274,3216,3224,3288,3260,3286,3216,3204,3238,2082,2074,3216,3200,3200,3200,3200,3202,3236,3288,3286,3234,3201,3200,3200,3224,3288,3256,3248,3248,3252,3286,3216,3200,3200,3200,3200,3200,3204,3228,3225,3282,3268,3284,3240,3228,3228,3238,3288,3276,3276,3286,3216,3202,3236,3292,3234,3205,3238,2082,2049,2072,3216,3200,3200,3200,3200,3200,3202,3220,3220,3201,3200,3200,3200,3202,3236,3288,3276,3276,3286,3234,3201,3200,3200,3200,3200,3204,3238,3290,3232,3288,3276,3278,3270,3268,3268,3284,3234,3220,3220,3220,3201,3200,3202,3220,3201,3224,2091,2077,2076,2073,3216,3200,3200,3200,3200,3200,3200,3200,3200,3200,3200,3200,3200,3200,3202,3220,3220,3220,3220,3201,3200,3200,3200,3200,3204,3238,3282,3274,3217,3220,3220,3236,3264,3248,3252,3286,3216,3200,3200,3200,3204,3228,3228,3208,3200,3202,3220,3220,3236,2092,3216,3200,3200,3200,3200,3200,3200,3200,3200,3200,3200,3200,3200,3200,3200,3200,3200,3200,3200,3200,3200,3200,3200,3204,3238,3283,3277,3286,3216,3200,3200,3224,3288,3276,3286,3234,3201,3200,3200,3204,3238,3282,3284,3216,3200,3200,3200,3200,3202,3220,3201,3200,3200,3200,3200,3200,3200,3200,3200,3200,3200,3200,3200,3200,3200,3200,3200,3200,3200,3200,3200,3200,3200,3224,3282,3274,3243,3222,3201,3200,3200,3202,3220,3220,3220,3201,3200,3200,3200,3224,3291,3277,3286,3216,3200,3200,3200,3200,3200,3200,3200,3200,3200,3200,3200,3200,3200,3200,3200,3200,3200,3200,3200,3200,3200,3200,3200,3200,3200,3200,3200,3200,3200,3224,3264,3250,3284,3216,3200,3200,3200,3200,3200,3200,3200,3200,3200,3200,3200,3202,3220,3220,3220,3201,3200,3200,3200,3200,3200,3200,3200,7620,7644,7644,7644,7644,7644,7644,7644,7644,7644,7644,7644,7644,7644,7644,7624,7640,0,7656,7624,7616,7616,7616,7616,7616,7616,7616,7616,7616,7616,7616,7616,7616,7616,7616,7620,7644,7644,7644,7644,7644,7624,7620,7644,7644,7644,7644,7644,7644,7624,7640,8010,8010,8010,8010,8010,8010,8010,8010,8010,8010,8010,8010,8010,8010,7632,7640,0,8011,7632,7616,7616,7616,7616,7616,7616,7616,7616,7616,7620,7644,7644,7644,7624,7616,7640,8002,8002,8002,8002,8002,7632,7640,8010,8010,8010,8010,8010,8010,7632,7640,0,0,7659,7649,7649,7649,7649,7649,7638,7636,7636,7652,0,0,7632,7640,0,0,7656,7624,7616,7616,7620,7644,7624,7616,7616,7616,7640,8010,8010,8010,7632,7616,7640,8008,8008,8008,8008,8008,7632,7640,2131,2141,0,0,0,0,7632,7640,0,4346,0,0,0,0,0,0,7656,7644,7644,7646,7649,7638,7617,7640,0,0,8011,7656,7644,7644,7654,8010,7632,7616,7616,7620,7654,4347,4327,4349,7632,7616,7640,0,0,0,0,0,7632,7640,2140,0,0,0,0,0,7632,7618,7652,4345,4337,4337,4337,4337,4337,4341,0,0,0,0,0,7632,7616,7640,0,0,0,8011,8010,8010,8014,0,7632,7616,7616,7640,8014,0,4348,0,7632,7616,7640,0,0,0,0,0,7632,7618,7636,7636,7636,7652,0,0,7632,7616,7618,7636,7636,7636,7636,7636,7652,4336,0,0,0,0,0,7632,7616,7640,0,0,0,0,0,0,0,0,7632,7616,7616,7640,0,0,0,0,7632,7616,7640,0,0,0,7650,7636,7617,7616,7616,7616,7616,7640,0,0,7632,7616,7616,7616,7616,7616,7620,7644,7654,4336,7659,7649,7649,7649,7649,7645,7644,7654,0,0,0,0,0,0,7650,7636,7617,7616,7620,7654,0,0,0,7650,7621,7644,7626,7652,0,0,7632,7616,7616,7620,7644,7644,7624,7618,7652,0,7632,7616,7616,7616,7616,7616,7640,8010,8014,4336,8011,8010,8010,8010,8010,8010,8010,8014,0,0,0,0,0,0,7632,7616,7616,7616,7640,8014,0,0,0,7632,7640,8002,7632,7640,0,0,7656,7644,7644,7654,8010,8010,7632,7616,7640,0,7632,7616,7616,7616,7620,7644,7654,0,0,4345,4337,4349,0,0,0,0,0,0,0,0,0,0,0,0,7632,7616,7616,7620,7654,0,0,0,0,7632,7640,8008,7632,7640,0,0,8011,8010,8010,8014,0,0,7632,7616,7640,0,7632,7616,7616,7616,7640,8010,8014,0,0,0,0,0,0,0,0,0,0,0,0,0,0,0,0,7650,7617,7616,7616,7640,8014,0,0,7650,7637,7645,7626,7636,7621,7654,0,0,0,0,0,0,0,0,7656,7644,7654,0,7632,7616,7616,7616,7640,4350,0,7650,7636,7636,7652,0,0,0,0,0,0,7659,7649,7661,0,0,0,7632,7616,7616,7616,7618,7652,0,0,7632,7640,8010,7632,7616,7640,8007,0,0,0,0,0,0,0,0,8011,8010,8014,0,7632,7616,7616,7616,7640,0,0,7632,7616,7620,7654,0,0,0,0,0,0,8011,8010,8014,0,0,0,7656,7624,7616,7616,7620,7654,0,0,7656,7654,0,7632,7616,7640,8012,0,0,0,2130,2116,2132,0,0,0,0,0,0,7632,7620,7644,7644,7654,0,0,7656,7644,7654,8014,0,0,4347,4349,0,0,0,0,0,0,0,0,8011,7656,7644,7644,7654,8014,0,0,8011,8014,0,7632,7616,7618,7636,7652,0,0,2136,2124,2126,2133,0,0,0,0,0,7632,7640,8010,8010,8014,0,0,8011,8010,8014,0,0,4350,0,0,0,0,0,0,0,0,0,0,0,8011,8010,8010,8014,0,0,0,0,0,0,7656,7644,7644,7624,7640,0,0,0,7650,7652,2140,0,0,0,0,0,7632,7640,0,0,0,0,0,0,0,0,0,0,0,0,7650,7652,0,0,0,0,0,0,0,0,0,0,0,0,0,0,0,0,0,0,8003,8002,8002,7632,7640,0,0,0,7656,7626,7636,7636,7652,0,0,0,7632,7618,7636,7652,0,0,0,0,0,0,0,0,0,0,7656,7626,7636,7652,0,0,0,0,0,0,0,0,0,7650,7636,7636,7652,0,0,0,8009,8008,8008,7632,7640,0,0,0,8011,7632,7616,7616,7640,0,0,0,7632,7616,7616,7640,0,0,0,0,0,0,0,0,0,0,8011,7632,7616,7640,0,0,0,0,0,0,0,0,0,7632,7616,7616,7640,0,0,0,0,0,0,7632,7640,0,0,0,0,7632,7616,7616,7640,0,0,0,7632,7616,7616,7618,7636,7636,7636,7652,0,0,0,0,0,0,7651,7645,7644,7654,0,0,0,0,0,4350,0,7650,7636,7617,7616,7616,7640,0,0,0,0,0,0,7632,7618,7636,7652,0,0,7656,7624,7616,7640,0,0,0,7632,7616,7616,7616,7616,7616,7616,7640,0,0,0,0,0,0,7648,8003,8002,8006,0,0,0,0,7650,7636,7636,7617,7616,7616,7616,7616,7640,0,0,7650,7652,0,0,7632,7616,7616,7640,0,0,8011,7632,7616,7640,0,0,0,7632,7616,7616,7616,7616,7616,7616,7618,7636,7636,7652,0,0,0,7648,8008,8008,8012,0,0,0,0,7632,7616,7616,7616,7616,7616,7616,7616,7640,0,0,7632,7640,0,0,7632,7620,7644,7654,0,0,0,7656,7644,7654,0,0,0,7632,7616,7616,7616,7616,7616,7616,7616,7616,7616,7640,0,0,0,7633,7636,7636,7636,7652,0,0,7650,7617,7616,7616,7616,7616,7616,7616,7616,7640,0,0,7632,7640,0,0,7632,7640,8010,8014,0,0,0,8011,8010,8014,0,0,0,7632,7616,7616,7616,7616,7616,7616,7616,7616,7616,7640,0,0,0,7632,7616,7616,7616,7640,0,0,7632,7616,7616,7616,7616,7616,7616,7616,7616,7640,0,0,7632,7640,0,0,7632,7640,0,0,0,0,0,0,0,0,0,0,0,7632,7616,7616,7616,7616,7616,7616,7616,7616,7616,7640,0,0,0,7632,7616,7616,7616,7640,0,7650,7617,7616,7616,7616,7616,7620,7644,7644,7644,7654,0,0,7632,7640,0,0,7656,7654,0,0,0,0,0,0,0,0,0,0,2138,7632,7616,7616,7620,7644,7644,7644,7644,7624,7616,7640,0,0,0,7632,7616,7616,7616,7640,0,7656,7644,7624,7616,7616,7616,7640,8002,8002,8002,8006,0,0,7632,7640,0,0,8011,8014,0,0,0,0,0,0,0,0,0,2130,2122,7632,7616,7616,7640,8010,8010,8010,8010,7632,7616,7640,0,7650,7636,7617,7616,7616,7616,7640,0,8011,8002,7632,7616,7616,7616,7640,8008,8008,8008,8012,0,0,7656,7654,0,0,0,0,0,0,0,7650,7636,7636,7652,0,2130,2097,2120,7632,7616,7616,7640,0,0,0,0,7632,7616,7640,0,7632,7616,7616,7616,7616,7616,7618,7636,7652,8008,7632,7616,7620,7644,7654,0,0,0,0,0,0,8011,8014,0,0,0,0,0,0,0,7656,7644,7644,7641,2139,2125,2124,2121,7632,7616,7616,7640,0,0,0,0,7632,7616,7640,0,7632,7616,7616,7616,7616,7616,7616,7616,7618,7636,7617,7616,7640,8010,8014,0,0,0,0,0,0,0,0,0,0,0,0,0,0,0,8003,8002,8002,7633,7636,7636,7652,2140,7632,7616,7616,7640,0,0,0,0,7632,7616,7640,0,7632,7616,7616,7616,7616,7616,7616,7620,7644,7628,7644,7644,7654,0,0,0,0,0,0,0,0,0,0,0,0,0,0,0,0,0,8009,8008,8008,7656,7644,7644,7646,7649,7625,7616,7616,7640,0,0,0,0,7632,7616,7640,0,7632,7616,7620,7644,7644,7644,7624,7640,8010,7648,8010,8010,8014,0,0,0,0,0,0,0,0,0,0,0,0,0,0,0,0,0,0,0,0,8003,8002,8002,8002,8006,7632,7616,7616,7640,0,0,0,0,7632,7616,7640,0,7632,7616,7640,8011,8010,8014,7632,7618,7636,7619,7636,7636,7636,7636,7636,7636,7636,7636,7636,7636,7636,7636,7636,7636,7636,7636,7636,7636,7636,7636,7636,7636,7652,8009,8008,8008,8008,8012,7632,0,0,0,0,0,0,0,0,0,0,0,0,0,0,0,0,0,0,0,0,7656,7624,7616,7616,7616,7616,7616,7620,7644,7654,0,0,0,7656,7641,0,0,0,0,0,0,0,0,0,0,0,0,0,0,0,0,0,0,0,0,0,0,0,0,0,0,0,0,0,0,0,0,0,0,0,8015,7656,7644,7644,7644,7644,7624,7640,1662,1663,0,0,0,1661,7648,0,0,0,0,0,0,0,0,0,0,0,0,0,0,0,0,984,985,0,0,984,985,0,0,0,0,0,0,0,0,0,0,0,0,0,0,1656,1649,1649,1649,1649,7632,7640,0,0,0,0,0,0,7660,0,0,0,0,0,0,0,0,0,0,0,0,0,0,0,0,992,993,984,985,992,993,0,0,0,0,0,0,0,0,0,0,0,0,0,0,0,0,0,0,0,7656,7641,0,0,0,0,0,0,8015,0,0,0,0,0,0,0,0,0,0,0,0,0,753,0,0,1000,1001,992,993,1000,1001,0,0,0,0,0,0,0,0,0,0,0,0,0,0,0,0,0,0,0,8011,7660,0,0,0,0,0,0,0,0,0,0,0,0,0,0,7658,0,0,0,0,0,0,0,0,1008,1009,1000,1001,1008,1009,0,0,0,0,0,0,0,0,0,0,0,0,0,0,0,0,0,0,0,0,8015,0,0,0,0,0,0,0,0,0,0,0,0,0,7659,7647,7649,7649,7661,0,0,0,0,0,0,0,1008,1009,0,0,0,0,0,0,0,0,0,0,0,0,0,0,0,0,0,0,0,0,0,0,0,0,0,0,0,0,0,0,0,0,0,0,0,0,8011,8010,8010,8010,8014,0,0,0,0,7636,7636,7652,0,0,0,0,0,0,0,0,0,0,0,0,0,0,0,0,0,0,0,0,0,7650,7652,0,0,0,0,0,0,0,0,0,0,0,0,0,0,0,0,0,0,0,0,0,0,0,0,7616,7616,7640,0,0,0,0,0,0,0,0,0,0,0,0,0,0,0,0,0,0,0,0,7650,7617,7640,0,0,0,0,0,0,0,0,0,0,0,0,0,0,0,0,0,0,0,0,0,0,0,0,7616,7616,7640,0,0,0,0,0,0,0,0,0,0,0,0,0,0,0,0,0,0,0,0,7656,7624,7640,0,0,0,0,0,0,0,0,0,0,0,0,0,0,0,0,0,0,0,0,0,0,0,0,7644,7644,7654,0,0,0,0,1008,1009,0,0,0,0,0,0,0,0,0,0,0,0,0,0,8011,7656,7654,0,0,0,0,0,0,0,0,0,0,0,0,0,0,0,0,0,0,0,0,0,0,0,0,8011,8010,8014,0,0,0,0,0,0,0,0,0,0,0,0,0,0,0,0,0,0,0,0,0,8011,8014,0,0,0,0,0,0,0,0,0,0,0,0,0,0,0,0,0,0,0,0,0,0,0,0,0,0,0,0,0,0,0,0,0,0,0,0,0,0,0,0,0,0,0,0,0,0,0,0,0,0,0,0,0,0,0,0,0,0,0,0,0,0,0,0,0,0,0,0,0,0,0,0,0,0,0,0,0,0,0,0,0,0,0,0,0,0,0,0,0,0,0,0,0,0,0,0,0,0,0,0,0,0,0,0,0,0,0,0,0,0,0,0,0,0,0,0,0,0,0,0,0,0,0,0,0,0,0,0,0,0,0,0,0,0,0,0,0,0,0,0,0,0,0,0,0,0,0,0,0,0,0,0,0,0,0,0,0,0,0,0,0,0,0,0,0,0,0,0,0,0,0,0,0,0,0,0,0,0,0,0,984,985,0,0,0,0,0,0,0,7662,0,0,0,0,0,0,0,0,0,0,0,0,0,0,0,0,0,0,0,0,0,0,0,0,0,0,0,7659,7661,0,0,0,0,0,0,0,0,0,0,0,992,993,0,0,0,0,0,0,0,8015,0,0,0,0,0,0,0,0,0,0,0,7658,0,0,0,0,0,0,0,0,0,0,0,0,0,0,0,8011,8014,0,0,0,0,0,0,0,0,0,0,0,1000,1001,0,0,0,0,0,0,0,1544,0,0,0,0,0,0,0,0,0,0,0,7648,0,0,0,0,0,0,0,0,0,0,0,0,0,0,0,0,0,0,0,0,0,0,0,0,0,0,0,0,1000,1001,0,0,0,0,0,0,0,0,0,0,0,0,0,0,0,0,0,7650,7636,7642,0,0,0,0,0,0,0,0,0,0,0,0,0,0,0,0,0,0,0,0,0,0,0,7659,7638,7636,7637,7661,1000,1001,0,0,0,0,0,0,0,0,0,0,0,0,0,0,7650,7652,0,7632,7620,7654,0,0,0,0,0,0,0,0,0,0,0,0,0,0,0,0,0,0,0,0,0,0,0,8011,7632,7616,7640,8010,8010,8014,0,0,0,0,0,0,0,0,0,0,0,0,0,0,7632,7618,7637,7645,7654,8014,0,0,0,0,0,0,0,0,0,0,0,0,0,0,0,0,0,0,0,0,0,0,0,0,7632,7616,7640,0,0,7659,7653,0,0,0,0,0,0,7658,0,0,0,0,0,0,7656,7624,7640,8010,8014,0,0,0,0,0,0,0,0,0,0,0,0,0,0,0,0,0,0,0,0,0,0,0,7652,0,7656,7644,7654,0,0,8011,7648,0,0,0,0,0,7650,7642,0,0,0,0,0,0,8011,7632,7640,0,0,0,0,0,0,0,0,0,0,0,0,0,0,0,0,0,0,0,0,0,0,0,0,0,7640,0,1661,1662,1663,0,0,0,7648,0,0,0,0,0,7632,7618,7652,0,0,0,0,0,0,7656,7654,0,0,0,0,0,0,0,0,0,0,0,0,0,0,0,0,0,0,0,0,0,0,0,0,0,7640,0,0,0,0,0,0,0,7648,0,0,0,0,0,7632,7616,7640,0,0,0,0,0,0,8011,8014,0,0,0,0,0,0,0,0,0,0,0,0,0,0,0,0,0,0,0,0,0,0,0,0,0,7640,0,0,0,0,0,0,0,7648,0,0,0,0,0,7632,7616,7640,0,0,0,0,0,0,0,0,0,0,0,0,0,0,0,0,0,0,0,0,0,0,0,0,0,0,0,0,0,0,0,0,0,7640,0,0,0,0,0,0,0,7648,0,0,0,0,0,7634,7644,7654,0,0,0,0,0,0,0,0,0,0,0,0,0,0,0,0,0,0,0,0,0,0,0,0,0,0,0,0,0,0,0,0,0,7654,0,0,0,0,0,0,0,7660,0,0,0,0,0,7660,8010,8014,0,0,0,0,0,0,0,0,0,0,0,0,0,0,0,0,0,0,0,0,0,0,0,0,0,0,0,0,0,0,0,0,0,8015,0,0,0,0,0,0,0,8015,0,0,0,0,0,8015,0,0,0,0,0,0,0,0,0,0,0,0,0,0,0,0,0,0,0,0,0,0,0,0,0,0,0,0,0,0,0,0,0,0,0,0,0,0,0,0,0,0,0,0,0,0,0,0,0,0,0,0,0,0,0,0,0,0,0,0,0,0,0,0,0,0,0,0,0,0,0,0,0,0,0,0,0,0,0,0,0,0,0,0,0,0,0,0,0,0,0,0,0,0,0,0,0,0,0,0,0,0,0,0,0,0,0,0,0,0,0,0,0,0,0,0,0,0,0,0,0,0,0,0,0,0,0,0,0,0,0,0,0,0,0,0,0,0,0,0,0,0,0,0,0,0,0,0,0,0,0,0,0,0,0,0,0,0,0,0,0,0,0,0,0,0,0,0,0,0,0,0,0,0,0,0,0,0,0,0,0,0,0,0,0,0,0,0,0,0,0,0,0,0,0,0,0,0,0,0,0,0,0,0,0,0,0,0,0,0,0,0,0,0,0,0,0,0,0,0,0,0,0,0,0,0,0,0,0,0,0,141,0,170,0,0,0,0,0,0,0,0,0,0,0,0,0,0,0,0,0,0,0,0,0,0,0,0,0,0,0,0,0,0,0,0,0,0,0,0,0,739,0,739,0,0,0,0,0,0,0,0,0,537,0,0,0,0,0,0,0,0,0,0,0,0,0,0,0,0,0,0,0,0,0,0,0,0,0,0,0,0,0,0,0,0,0,0,0,0,0,0,0,0,0,739,0,0,0,0,0,0,0,761,0,0,0,0,0,0,0,0,0,0,0,0,0,0,0,0,0,0,0,0,0,0,0,0,0,0,0,0,0,0,730,0,0,181,0,0,0,0,0,0,0,0,0,0,0,0,0,0,0,0,0,0,0,0,0,0,0,0,0,0,0,0,0,0,0,0,0,0,0,0,0,0,0,0,0,0,0,0,0,0,738,0,0,0,0,0,0,0,0,0,0,0,0,0,0,0,0,0,0,0,0,0,0,0,0,0,0,0,984,985,0,0,0,0,0,0,0,0,0,0,0,0,0,0,0,0,0,0,0,0,0,0,0,0,0,0,0,0,0,0,0,0,0,0,0,0,0,0,0,0,0,0,0,0,0,0,0,0,992,993,0,0,0,0,0,0,0,0,0,0,0,0,0,0,0,0,0,0,0,739,0,0,0,0,0,0,0,0,0,0,0,0,0,0,0,0,0,0,0,0,0,0,0,0,0,0,0,0,1000,1001,0,0,0,0,0,0,0,0,0,0,0,0,0,0,0,0,0,0,0,0,0,0,0,0,0,0,0,0,0,0,0,0,0,0,0,0,0,0,0,0,0,0,0,0,0,0,0,0,1000,1001,0,0,0,0,0,0,0,0,0,0,0,0,0,0,0,0,0,0,0,0,0,0,0,0,0,0,0,0,0,0,0,0,0,0,0,0,0,0,0,0,0,0,0,0,0,0,0,0,1008,1009,0,0,0,0,0,0,0,0,0,0,0,0,0,0,0,0,0,0,0,0,0,0,0,0,0,0,0,0,758,0,0,0,0,0,0,0,0,0,0,0,0,0,0,0,0,0,0,0,0,0,0,0,0,0,0,0,0,0,0,0,0,0,0,0,0,0,0,0,0,0,0,0,0,0,0,0,0,0,0,0,0,0,0,0,0,0,0,0,0,0,0,0,0,0,0,0,0,0,0,0,0,0,0,0,0,0,0,0,0,0,0,0,0,0,0,0,0,0,0,0,0,0,0,0,0,0,0,0,0,0,0,0,0,0,0,0,0,0,0,0,0,0,0,0,0,0,0,0,0,0,0,0,0,0,0,0,0,0,0,0,0,0,0,0,0,0,0,0,0,0,0,0,0,0,0,0,0,0,0,0,0,0,0,0,0,0,0,0,0,0,0,0,0,0,0,0,0,0,0,0,0,0,0,0,0,0,0,0,0,0,0,0,0,0,0,0,0,0,0,0,0,0,0,0,0,0,0,0,0,0,0,0,0,0,0,0,0,0,0,0,0,0,0,0,0,0,0,0,0,0,0,0,0,0,0,0,0,0,0,0,0,0,0,0,0,0,0,0,0,0,0,0,0,0,0,0,0,0,0,0,0,0,0,0,0,0,0,0,0,0,0,0,0,0,0,0,0,0,0,0,0,0,0,0,0,0,0,0,0,0,0,0,0,0,0,0,0,0,0,0,0,0,0,0,0,0,0,0,0,0,0,0,0,0,0,0,0,0,0,0,0,0,0,0,0,0,0,0,0,0,0,0,0,0,0,0,0,0,0,0,0,0,0,0,0,0,0,0,0,0,0,0,0,0,0,0,0,0,0,0,0,0,0,0,0,0,0,0,0,0,0,0,0,0,0,0,0,0,0,0,0,0,0,0,0,0,0,0,0,0,0,0,0,0,0,0,0,0,0,0,0,0,0,0,0,0,0,0,0,0,0,0,0,0,0,0,0,0,0,0,0,0,0,0,0,0,0,0,0,0,0,0,0,0,0,0,0,0,0,0,0,0,0,0,0,0,0,0,0,0,0,0,0,0,0,0,0,0,0,0,0,0,0,0,0,0,0,0,0,0,0,0,0,0,0,0,0,0,0,0,0,0,0,0,0,0,0,0,0,0,0,0,0,0,0,0,0,0,0,0,0,0,0,0,0,0,0,0,0,0,0,0,0,0,0,0,0,0,0,0,0,0,0,0,0,0,0,0,0,0,0,0,0,0,0,0,0,0,0,0,0,0,0,0,0,0,0,0,0,0,0,0,0,0,0,0,0,0,0,0,0,0,0,0,0,0,0,0,0,0,0,0,0,0,0,0,0,0,0,0,0,0,0,0,0,0,0,0,0,0,0,0,0,0,0,0,0,0,0,0,0,0,0,0,0,0,0,0,0,0,0,0,0,0,0,0,0,0,0,0,0,0,0,0,0,0,0,0,0,0,0,0,0,0,0,0,0,0,0,0,0,0,0,0,0,0,0,0,0,0,0,0,0,0,0,0,0,0,0,0,0,0,0,0,0,0,0,0,0,0,0,0,0,0,0,0,0,0,0,0,0,0,0,0,0,0,0,0,0,0,0,0,0,0,0,0,0,0,0,0,0,0,0,0,0,0,0,0,0,0,0,0,0,0,0,0,0,0,0,0,0,0,0,0,0,0,0,0,0,0,0,0,0,0,0,0,0,0,0,0,0,0,0,0,0,0,0,0,0,0,0,0,0,0,0,0,0,0,0,0,0,0,0,0,0,0,0,0,0,0,0,0,0,0,0,0,0,0,0,0,0,0,0,0,0,0,0,0,0,0,0,0,0,0,0,0,0,0,0,0,0,0,0,0,0,0,0,0,0,0,0,0,0,0,0,0,0,0,0,0,0,0,0,0,0,0,0,0,0,0,0,0,0,0,0,0,0,0,0,0,0,0,0,0,0,0,0,0,0,0,0,0,0,0,0,0,0,0,0,0,0,0,0,0,0,0,0,0,0,0,0,0,0,0,0,0,0,0,0,0,0,0,0,0,0,0,0,0,0,0,0,0,0,0,0,0,0,0,0,0,0,0,0,0,0,0,0,0,0,0,0,0,0,0,0,0,0,0,0,0,0,0,0,0,0,0,0,0,0,0,0,0,0,0,0,0,0,0,0,0,0,0,0,0,0,0,0,0,0,0,0,0,0,0,0,0,0,0,0,0,0,0,0,0,0,0,0,0,0,0,0,0,0,0,0,0,0,0,0,0,0,0,0,0,0,0,0,0,0,0,0,0,0,0,0,0,0,0,0,0,0,0,0,0,0,0,0,0,0,0,0,0,0,0,0,0,0,0,0,0,0,0,0,0,0,0,0,0,0,0,0,0,0,0,0,0,0,0,0,0,0,0,0,0,0,0,0,0,0,0,0,0,0,0,0,0,0,0,0,0,0,0,0,0,0,0,0,0,0,0,0,0,0,0,0,0,0,0,0,0,0,0,0,0,0,0,0,0,0,0,0,0,0,0,0,0,0,0,0,0,0,0,0,0,0,0,0,0,0,0,0,0,0,0,0,0,0,0,0,0,0,0,0,0,0,0,0,0,0,0,0,0,0,0,0,0,0,0,0,0,0,0,0,0,0,0,0,0,0,0,0,0,0,0,0,0,0,0,0,0,0,0,0,0,0,0,0,0,0,0,0,0,0,0,0,0,0,0,0,0,0,0,0,0,0,0,0,0,0,0,0,0,0,0,0,0,0,0,0,0,0,0,0,0,0,0,0,0,0,0,0,0,0,0,0,0,0,0,0,0,0,0,0,0,0,0,0,0,0,0,0,0,0,0,0,0,0,0,0,0,0,0,0,0,0,0,0,0,0,0,0,0,0,0,0,0,0,0,0,0,0,0,0,0,0,0,0,0,0,0,0,0,0,0,0,0,0,0,0,0,0,0,0,0,0,0,0,0,0,0,0,0,0,0,0,0,0,0,0,0,0,0,0,0,0,0,0,0,0,0,0,0,0,0,0,0,0,0,0,0,0,0,0,0,0,0,0,0,0,0,0,0,0,0,0,0,0,0,0,0,0,0,0,0,0,0,0,0,0,0,0,0,0,0,0,5,0,0,0,0,0,0,0,0,0,0,0,0,0,0,0,0,0,0,0,0,0,0,0,0,0,0,0,0,0,0,0,0,0,0,0,0,0,0,0,0,0,0,0,0,0,0,0,0,0,0,0,0,0,0,0,0,0,0,0,0,0,0,0,0,0,0,0,0,0,0,0,0,0,0,0,0,0,0,0,0,0,0,0,0,0,0,0,0,0,0,0,0,0,0,0,0,0,0,0,0,0,0,0,0,0,0,0,0,0,0,0,0,0,0,0,0,0,0,0,0,0,0,0,0,0,0,0,0,0,0,0,0,0,0,0,0,0,0,0,0,0,0,0,0,0,0,0,0,0,0,0,0,0,0,0,0,0,0,0,0,0,0,0,0,0,0,0,0,0,0,0,0,0,0,0,0,0,0,0,0,0,0,0,0,0,0,0,0,0,0,0,0,0,0,0,0,0,0,0,0,0,0,0,0,0,0,0,0,0,0,0,0,0,0,0,0,0,0,0,0,0,0,0,0,0,0,0,0,0,0,0,0,0,0,0,0,0,0,0,0,0,0,0,0,0,0,0,0,0,0,0,0,0,0,0,0,0,0,0,0,0,0,0,0,0,0,5,0,0,0,0,0,0,0,0,0,0,0,0,0,0,0,0,0,0,0,0,0,0,0,0,0,0,0,0,0,0,0,0,0,0,0,0,0,0,0,0,0,0,0,0,0,0,0,0,0,0,0,0,0,0,0,0,0,0,0,0,0,0,0,0,0,0,0,0,0,0,0,0,0,0,0,0,0,0,0,0,0,0,0,0,0,0,0,0,0,0,0,0,0,0,0,0,0,0,0,0,0,0,0,0,0,0,0,0,0,0,0,0,0,0,0,0,0,0,0,0,0,0,0,0,0,0,0,0,0,0,0,0,0,0,0,0,0,0,0,0,0,0,0,0,0,0,0,0,0,0,0,0,0,0,0,0,0,0,0,0,0,0,0,0,0,0,0,0,0,0,0,0,0,0,0,0,0,0,0,0,0,0,0,0,0,0,0,0,0,0,0,0,0,0,0,0,0,0,0,0,0,0,0,0,0,0,0,0,0,0,0,0,0,0,0,0,0,0,0,0,0,0,0,0,0,0,0,0,0,0,0,0,0,0,0,0,0,0,0,0,0,0,0,0,0,0,0,0,0,0,0,0,0,0,0,0,0,0,0,0,0,0,0,0,0,0,0,0,0,0,0,0,0,0,0,0,0,0,0,0,0,0,0,0,0,0,0,0,0,0,0,0,0,0,0,0,0,0,0,0,0,0,0,0,0,0,0,0,0,0,0,0,0,0,0,0,0,0,0,0,0,0,0,0,0,0,0,0,0,0,0,0,0,0,0,0,0,0,0,0,0,0,0,0,0,0,0,0,0,0,0,0,0,0,0,0,0,0,0,0,0,0,0,0,0,0,0,0,0,0,0,0,0,0,0,0,0,0,0,0,0,0,0,0,0,0,0,0,0,0,0,0,0,0,0,0,0,0,0,0,0,0,0,0,0,0,0,0,0,0,0,0,0,0,0,0,0,0,0,0,0,0,0,0,0,0,0,0,0,0,0,0,0,0,0,0,0,0,0,0,0,0,0,0,0,0,0,0,0,0,0,0,0,0,0,0,0,0,0,0,0,0,0,0,0,0,0,0,0,0,0,0,0,0,0,0,0,0,0,0,0,0,0,0,0,0,0,0,0,0,0,0,0,0,0,0,0,0,8,0,0,0,0,0,0,0,0,0,5,0,0,0,0,0,0,0,0,0,0,0,0,0,0,0,0,0,0,0,0,0,0,0,0,0,0,0,0,0,0,0,0,0,0,0,0,0,0,0,10,0,0,5,0,0,0,0,0,0,5,0,0,0,0,0,0,0,0,0,0,0,0,0,0,0,0,0,0,0,0,0,0,0,0,0,0,0,0,0,0,0,0,0,0,0,0,0,0,0,0,0,0,5,0,0,0,0,0,0,5,0,0,0,0,0,0,0,0,0,0,0,0,0,0,0,0,0,0,0,0,0,0,0,0,0,0,0,0,0,0,0,0,0,0,0,0,0,0,0,0,0,0,5,0,0,0,0,0,0,15,0,0,0,0,0,0,0,0,0,0,0,0,0,0,0,0,0,0,0,0,0,0,0,0,0,0,0,0,0,0,0,0,0,0,0,0,0,0,0,0,0,0,5,0,0,0,0,0,0,15,0,0,0,0,0,0,0,0,0,0,0,0,0,0,0,0,0,0,0,0,0,0,0,0,0,0,0,0,0,0,0,0,0,0,0,0,0,0,0,0,0,0,5,0,0,0,0,0,0,15,0,0,0,0,0,0,0,0,0,0,0,0,0,0,0,0,0,0,0,0,0,0,0,0,0,0,0,0,0,0,0,0,0,0,0,0,0,0,0,0,0,0,0,0,0,0,0,0,0,0,0,0,0,0,0,0,0,0,0,0,0,0,0,0,0,0,0,0,0,0,0,0,0,0,0,0,0,0,0,0,0,0,0,0,0,0,0,0,0,0,0,0,0,0,0,0,0,0,0,0,0,0,0,0,0,0,0,0,0,0,0,0,0,0,0,0,0,0,0,0,0,0,0,0,0,0,0,0,0,0,0,0,0,0,0,0,0,0,0,0,0,0,0,0,0,0,0,0,0,0,0,0,0,0,0,0,0,0,0,0,0,0,0,0,0,0,0,0,0,0,0,0,0,0,0,0,0,0,0,0,0,0,0,0,0,0,0,0,0,0,0,0,0,0,0,0,0,0,0,0,0,0,0,0,0,0,0,0,0,0,0,0,0,0,0,0,0,0,0,0,0,0,0,0,0,0,0,0,0,0,0,0,0,0,0,0,0,0,0,0,0,0,0,0,0,0,0,0,0,0,0,0,0,0,0,0,0,0,0,0,0,0,0,0,0,0,0,0,0,0,0,0,0,0,0,0,0,0,0,0,0,0,0,0,0,0,0,0,0,0,0,0,0,0,0,0,0,0,0,0,0,0,0,0,0,0,0,0,0,0,0,0,0,0,0,0,0,0,0,0,0,0,0,0,0,0,0,0,0,0,0,0,0,0,0,0,0,0,0,0,0,0,0,0,0,0,0,0,0,0,0,0,0,0,0,0,0,0,0,0,0,0,0,0,0,0,0,0,0,0,0,0,0,0,0,0,0,0,0,0,0,0,0,0,0,0,0,0,0,0,0,0,0,0,0,0,0,0,0,0,0,0,0,0,0,0,0,0,0,0,0,0,0,0,0,0,0,0,0,0,0,0,0,0,0,0,0,0,0,0,0,0,0,0,0,0,0,0,0,0,0,0,0,0,0,0,0,0,0,0,0,0,0,0,0,0,0,0,0,0,0,0,0,0,0,0,0,0,0,0,0,0,0,0,0,0,0,0,0,0,0,0,0,0,0,0,0,0,0,0,0,0,0,0,0,0,0,0,0,0,0,0,0,0,0,0,0,0,0,0,0,0,0,0,0,0,0,0,0,0,0,0,0,0,0,0,0,0,0,0,0,0,0,0,0,0,0,0,0,0,0,0,0,0,0,0,0,0,0,0,0,0,0,0,0,0,0,0,0,0,0,0,0,0,0,0,0,0,0,0,0,0,0,0,0,0,0,0,0,0,0,0,0,0,0,0,0,0,0,0,0,0,0,0,0,0,0,0,0,0,0,0,0,0,0,0,0,0,0,0,0,0,0,0,0,0,0,0,0,0,0,0,0,0,0,0,0,0,0,0,0,0,0,0,0,0,0,0,0,0,0,0,0,0,0,0,0,0,0,0,0,0,0,0,0,0,0,0,0,0,0,0,0,0,0,0,0,0,0,0,0,0,0,0,0,0,0,0,0,0,0,0,0,0,0,0,0,0,0,0,0,0,0,0,0,0,0,0,0,0,0,0,0,0,0,0,0,0,0,0,0,0,0,0,0,0,0,0,0,0,0,0,0,0,0,0,0,0,0,0,0,0,0,0,0,0,0,0,0,0,0,0,0,0,0,0,0,0,0,0,0,0,0,0,0,0,0,0,0,0,0,0,0,0,0,0,0,0,0,0,0,0,0,0,0,0,0,0,0,0,0,0,0,0,0,0,0,0,0,0,0,0,0,0,0,0,0,0,0,0,0,0,0,0,0,0,0,0,0,0,0,0,0,0,0,0,0,0,0,0,0,0,0,0,0,0,0,0,0,0,0,0,0,0,0,0,0,0,0,0,0,0,0,0,0,0,0,0,0,0,0,0,0,0,0,0,0,0,0,0,0,0,0,0,0,0,0,0,0,0,0,0,0,0,0,0,0,0,0,0,0,0,0,0,0,0,0,0,0,0,0,0,0,0,0,0,0,0,0,0,0,0,0,0,0,0,0,0,0,0,0,0,0,0,0,0,0,0,0,0,0,0,0,0,0,0,0,0,0,0,0,0,0,0,0,0,0,0,0,0,0,0,0,0,0,0,0,0,0,0,0,0,0,0,0,0,0,0,0,0,0,0,0,0,0,0,0,0,0,0,0,0,0,0,0,0,0,0,0,0,0,0,0,0,0,0,0,0,0,0,0,0,0,0,0,0,0,0,0,0,0,0,0,0,0,0,0,0,0,0,0,0,0,0,0,0,0,0,0,0,0,0,0,0,0,0,0,0,0,0,0,0,0,0,0,0,0,0,0,0,0,0,0,0,0,0,0,0,0,0,0,0,0,0,0,0,0,0,0,0,0,0,0,0,0,0,0,0,0,0,0,0,0,0,0,0,0,0,0,0,0,0,0,0,0,0,0,0,0,0,0,0,0,0,0,0,0,0,0,0,0,0,0,0,0,0,0,0,0,0,0,0,0,0,0,0,0,0,0,0,0,0,0,0,0,0,0,0,0,0,0,0,0,0,0,0,0,0,0,0,0,0,0,0,0,0,0,0,0,0,0,0,0,0,0,0,0,0,0,0,0,0,0,0,0,0,0,0,0,0,0,0,0,0,0,0,0,0,0,0,0,0,0,0,0,0,0,0,0,0,0,0,0,0,0,0,0,0,0,0,0,0,0,0,0,0,0,0,0,0,0,0,0,0,0,0,0,0,0,0,0,0,0,0,0,0,0,0,0,0,0,0,0,0,0,0,0,0,0,0,0,0,0,0,0,0,0,0,0,0,0,0,0,0,0,0,0,0,0,0,0,0,0,0,0,0,0,0,0,0,0,0,0,0,0,0,0,0,0,0,0,0,0,0,0,0,0,0,0,0,0,0,0,0,0,0,0,0,0,0,0,0,0,0,0,0,0,0,0,0,0,0,0,0,0,0,0,0,0,0,0,0,0,0,0,0,0,0,0,0,0,0,0,0,0,0,0,0,0,0,0,0,0,0,0,0,0,0,0,0,0,0,0,0,0,0,0,0,0,0,0,0,0,0,0,0,0,0,0,0,0,0,0,0,0,0,0,0,0,0,0,0,0,0,0,0,0,0,0,0,0,0,0,0,0,0,0,0,0,0,0,0,0,0,0,0,0,0,0,0,0,0,0,0,0,0,0,0,0,0,0,0,0,0,0,0,0,0,0,0,0,0,0,0,0,0,0,0,0,0,0,0,0,0,0,0,0,0,0,0,0,0,0,0,0,0,0,0,0,0,0,0,0,0,0,0,0,0,0,0,0,0,0,0,0,0,0,0,0,0,0,0,0,0,0,0,0,0,0,0,0,0,0,0,0,0,0,0,0,0,0,0,0,0,0,0,0,0,0,0,0,0,0,0,0,0,0,0,0,0,0,0,0,0,0,0,0,0,0,0,0,0,0,0,0,0,0,0,0],
"events":[
null,
{"id":1,"name":"Transfer (haunted2)","note":"","pages":[{"conditions":{"actorId":1,"actorValid":false,"itemId":1,"itemValid":false,"selfSwitchCh":"A","selfSwitchValid":false,"switch1Id":1,"switch1Valid":false,"switch2Id":1,"switch2Valid":false,"variableId":1,"variableValid":false,"variableValue":0},"directionFix":false,"image":{"characterIndex":0,"characterName":"","direction":2,"pattern":0,"tileId":0},"list":[{"code":250,"indent":0,"parameters":[{"name":"Move1","volume":90,"pitch":100,"pan":0}]},{"code":201,"indent":0,"parameters":[0,13,75,8,2,0]},{"code":0,"indent":0,"parameters":[]}],"moveFrequency":3,"moveRoute":{"list":[{"code":0,"parameters":[]}],"repeat":true,"skippable":false,"wait":false},"moveSpeed":3,"moveType":0,"priorityType":0,"stepAnime":false,"through":false,"trigger":1,"walkAnime":true}],"x":10,"y":29},
{"id":2,"name":"Transfer (MAP001)","note":"","pages":[{"conditions":{"actorId":1,"actorValid":false,"itemId":1,"itemValid":false,"selfSwitchCh":"A","selfSwitchValid":false,"switch1Id":1,"switch1Valid":false,"switch2Id":1,"switch2Valid":false,"variableId":1,"variableValid":false,"variableValue":0},"directionFix":false,"image":{"characterIndex":0,"characterName":"","direction":2,"pattern":0,"tileId":0},"list":[{"code":250,"indent":0,"parameters":[{"name":"Move1","volume":90,"pitch":100,"pan":0}]},{"code":201,"indent":0,"parameters":[0,1,61,24,6,0]},{"code":0,"indent":0,"parameters":[]}],"moveFrequency":3,"moveRoute":{"list":[{"code":0,"parameters":[]}],"repeat":true,"skippable":false,"wait":false},"moveSpeed":3,"moveType":0,"priorityType":0,"stepAnime":false,"through":false,"trigger":1,"walkAnime":true}],"x":17,"y":0},
{"id":3,"name":"Treasure (Boat)","note":"","pages":[{"conditions":{"actorId":1,"actorValid":false,"itemId":1,"itemValid":false,"selfSwitchCh":"A","selfSwitchValid":false,"switch1Id":1,"switch1Valid":false,"switch2Id":1,"switch2Valid":false,"variableId":1,"variableValid":false,"variableValue":0},"directionFix":true,"image":{"tileId":0,"characterName":"!Chest","direction":2,"pattern":1,"characterIndex":2},"list":[{"code":250,"indent":0,"parameters":[{"name":"Chest1","volume":90,"pitch":100,"pan":0}]},{"code":205,"indent":0,"parameters":[0,{"repeat":false,"skippable":false,"wait":true,"list":[{"code":36},{"code":17},{"code":15,"parameters":[3]},{"code":18},{"code":15,"parameters":[3]},{"code":0}]}]},{"code":505,"indent":0,"parameters":[{"code":36}]},{"code":505,"indent":0,"parameters":[{"code":17}]},{"code":505,"indent":0,"parameters":[{"code":15,"parameters":[3]}]},{"code":505,"indent":0,"parameters":[{"code":18}]},{"code":505,"indent":0,"parameters":[{"code":15,"parameters":[3]}]},{"code":123,"indent":0,"parameters":["A",0]},{"code":126,"indent":0,"parameters":[35,0,0,1]},{"code":101,"indent":0,"parameters":["",0,0,2,""]},{"code":401,"indent":0,"parameters":["<Boat Key> was found."]},{"code":0,"indent":0,"parameters":[]}],"moveFrequency":3,"moveRoute":{"list":[{"code":0,"parameters":[]}],"repeat":true,"skippable":false,"wait":false},"moveSpeed":3,"moveType":0,"priorityType":1,"stepAnime":false,"through":false,"trigger":0,"walkAnime":false},{"conditions":{"actorId":1,"actorValid":false,"itemId":1,"itemValid":false,"selfSwitchCh":"A","selfSwitchValid":true,"switch1Id":1,"switch1Valid":false,"switch2Id":1,"switch2Valid":false,"variableId":1,"variableValid":false,"variableValue":0},"directionFix":true,"image":{"tileId":0,"characterName":"!Chest","direction":8,"pattern":1,"characterIndex":2},"list":[{"code":0,"indent":0,"parameters":[]}],"moveFrequency":3,"moveRoute":{"list":[{"code":0,"parameters":[]}],"repeat":true,"skippable":false,"wait":false},"moveSpeed":3,"moveType":0,"priorityType":1,"stepAnime":false,"through":false,"trigger":0,"walkAnime":false}],"x":45,"y":2},
{"id":4,"name":"dead boat","note":"","pages":[{"conditions":{"actorId":1,"actorValid":false,"itemId":1,"itemValid":false,"selfSwitchCh":"A","selfSwitchValid":false,"switch1Id":1,"switch1Valid":false,"switch2Id":1,"switch2Valid":false,"variableId":1,"variableValid":false,"variableValue":0},"directionFix":true,"image":{"tileId":0,"characterName":"$boat","direction":6,"pattern":0,"characterIndex":0},"list":[{"code":111,"indent":0,"parameters":[8,35]},{"code":101,"indent":1,"parameters":["",2,0,2,"\\N[1]"]},{"code":401,"indent":1,"parameters":["We got the <Boat Key>"]},{"code":101,"indent":1,"parameters":["",0,0,2,"\\N[36]"]},{"code":401,"indent":1,"parameters":["Shall we leave this place and head to the shore with this ship?"]},{"code":102,"indent":1,"parameters":[["Yes","No"],1,0,2,0]},{"code":402,"indent":1,"parameters":[0,"Yes"]},{"code":126,"indent":2,"parameters":[35,1,0,1]},{"code":202,"indent":2,"parameters":[0,0,1,69,27]},{"code":221,"indent":2,"parameters":[]},{"code":123,"indent":2,"parameters":["A",0]},{"code":201,"indent":2,"parameters":[0,1,68,27,6,0]},{"code":101,"indent":2,"parameters":["",0,0,2,""]},{"code":401,"indent":2,"parameters":["(\\N[1] and \\N[7] moved the boat to shore)"]},{"code":222,"indent":2,"parameters":[]},{"code":101,"indent":2,"parameters":["",0,1,1,""]},{"code":401,"indent":2,"parameters":["You can now use boat to travel in shallow water. Now use this boat to go to \\N[997]. If you lose it, you can always rent a new one at \\N[997]."]},{"code":101,"indent":2,"parameters":["",0,0,2,"\\N[36]"]},{"code":401,"indent":2,"parameters":["Great! Let's sail to \\N[997]"]},{"code":0,"indent":2,"parameters":[]},{"code":402,"indent":1,"parameters":[1,"No"]},{"code":101,"indent":2,"parameters":["",0,0,2,"\\N[36]"]},{"code":401,"indent":2,"parameters":["Need some time? sure, no prob!"]},{"code":0,"indent":2,"parameters":[]},{"code":404,"indent":1,"parameters":[]},{"code":0,"indent":1,"parameters":[]},{"code":411,"indent":0,"parameters":[]},{"code":101,"indent":1,"parameters":["",2,0,2,"\\N[36]"]},{"code":401,"indent":1,"parameters":["Damn \\N[180]'s locked it! We got to find <Boat Key>!"]},{"code":0,"indent":1,"parameters":[]},{"code":412,"indent":0,"parameters":[]},{"code":0,"indent":0,"parameters":[]}],"moveFrequency":3,"moveRoute":{"list":[{"code":0,"parameters":[]}],"repeat":true,"skippable":false,"wait":false},"moveSpeed":3,"moveType":0,"priorityType":1,"stepAnime":false,"through":false,"trigger":0,"walkAnime":false},{"conditions":{"actorId":1,"actorValid":false,"itemId":1,"itemValid":false,"selfSwitchCh":"A","selfSwitchValid":true,"switch1Id":1,"switch1Valid":false,"switch2Id":1,"switch2Valid":false,"variableId":1,"variableValid":false,"variableValue":0},"directionFix":false,"image":{"characterIndex":0,"characterName":"","direction":2,"pattern":0,"tileId":0},"list":[{"code":0,"indent":0,"parameters":[]}],"moveFrequency":3,"moveRoute":{"list":[{"code":0,"parameters":[]}],"repeat":true,"skippable":false,"wait":false},"moveSpeed":3,"moveType":0,"priorityType":1,"stepAnime":false,"through":false,"trigger":0,"walkAnime":true}],"x":31,"y":4},
{"id":5,"name":"Treasure (Potion)","note":"","pages":[{"conditions":{"actorId":1,"actorValid":false,"itemId":1,"itemValid":false,"selfSwitchCh":"A","selfSwitchValid":false,"switch1Id":1,"switch1Valid":false,"switch2Id":1,"switch2Valid":false,"variableId":1,"variableValid":false,"variableValue":0},"directionFix":true,"image":{"characterIndex":0,"characterName":"!Chest","direction":2,"pattern":1,"tileId":0},"list":[{"code":250,"indent":0,"parameters":[{"name":"Chest1","volume":90,"pitch":100,"pan":0}]},{"code":205,"indent":0,"parameters":[0,{"repeat":false,"skippable":false,"wait":true,"list":[{"code":36},{"code":17},{"code":15,"parameters":[3]},{"code":18},{"code":15,"parameters":[3]},{"code":0}]}]},{"code":505,"indent":0,"parameters":[{"code":36}]},{"code":505,"indent":0,"parameters":[{"code":17}]},{"code":505,"indent":0,"parameters":[{"code":15,"parameters":[3]}]},{"code":505,"indent":0,"parameters":[{"code":18}]},{"code":505,"indent":0,"parameters":[{"code":15,"parameters":[3]}]},{"code":123,"indent":0,"parameters":["A",0]},{"code":126,"indent":0,"parameters":[4,0,0,1]},{"code":101,"indent":0,"parameters":["",0,0,2]},{"code":401,"indent":0,"parameters":["<Potion> was found."]},{"code":0,"indent":0,"parameters":[]}],"moveFrequency":3,"moveRoute":{"list":[{"code":0,"parameters":[]}],"repeat":true,"skippable":false,"wait":false},"moveSpeed":3,"moveType":0,"priorityType":1,"stepAnime":false,"through":false,"trigger":0,"walkAnime":false},{"conditions":{"actorId":1,"actorValid":false,"itemId":1,"itemValid":false,"selfSwitchCh":"A","selfSwitchValid":true,"switch1Id":1,"switch1Valid":false,"switch2Id":1,"switch2Valid":false,"variableId":1,"variableValid":false,"variableValue":0},"directionFix":true,"image":{"characterIndex":0,"characterName":"!Chest","direction":8,"pattern":1,"tileId":0},"list":[{"code":0,"indent":0,"parameters":[]}],"moveFrequency":3,"moveRoute":{"list":[{"code":0,"parameters":[]}],"repeat":true,"skippable":false,"wait":false},"moveSpeed":3,"moveType":0,"priorityType":1,"stepAnime":false,"through":false,"trigger":0,"walkAnime":false}],"x":37,"y":3},
{"id":6,"name":"Treasure (Magic Water)","note":"","pages":[{"conditions":{"actorId":1,"actorValid":false,"itemId":1,"itemValid":false,"selfSwitchCh":"A","selfSwitchValid":false,"switch1Id":1,"switch1Valid":false,"switch2Id":1,"switch2Valid":false,"variableId":1,"variableValid":false,"variableValue":0},"directionFix":true,"image":{"characterIndex":0,"characterName":"!Chest","direction":2,"pattern":1,"tileId":0},"list":[{"code":250,"indent":0,"parameters":[{"name":"Chest1","volume":90,"pitch":100,"pan":0}]},{"code":205,"indent":0,"parameters":[0,{"repeat":false,"skippable":false,"wait":true,"list":[{"code":36},{"code":17},{"code":15,"parameters":[3]},{"code":18},{"code":15,"parameters":[3]},{"code":0}]}]},{"code":505,"indent":0,"parameters":[{"code":36}]},{"code":505,"indent":0,"parameters":[{"code":17}]},{"code":505,"indent":0,"parameters":[{"code":15,"parameters":[3]}]},{"code":505,"indent":0,"parameters":[{"code":18}]},{"code":505,"indent":0,"parameters":[{"code":15,"parameters":[3]}]},{"code":123,"indent":0,"parameters":["A",0]},{"code":126,"indent":0,"parameters":[8,0,0,1]},{"code":101,"indent":0,"parameters":["",0,0,2]},{"code":401,"indent":0,"parameters":["<Magic Water> was found."]},{"code":0,"indent":0,"parameters":[]}],"moveFrequency":3,"moveRoute":{"list":[{"code":0,"parameters":[]}],"repeat":true,"skippable":false,"wait":false},"moveSpeed":3,"moveType":0,"priorityType":1,"stepAnime":false,"through":false,"trigger":0,"walkAnime":false},{"conditions":{"actorId":1,"actorValid":false,"itemId":1,"itemValid":false,"selfSwitchCh":"A","selfSwitchValid":true,"switch1Id":1,"switch1Valid":false,"switch2Id":1,"switch2Valid":false,"variableId":1,"variableValid":false,"variableValue":0},"directionFix":true,"image":{"characterIndex":0,"characterName":"!Chest","direction":8,"pattern":1,"tileId":0},"list":[{"code":0,"indent":0,"parameters":[]}],"moveFrequency":3,"moveRoute":{"list":[{"code":0,"parameters":[]}],"repeat":true,"skippable":false,"wait":false},"moveSpeed":3,"moveType":0,"priorityType":1,"stepAnime":false,"through":false,"trigger":0,"walkAnime":false}],"x":43,"y":28},
{"id":7,"name":"Treasure (1000G)","note":"","pages":[{"conditions":{"actorId":1,"actorValid":false,"itemId":1,"itemValid":false,"selfSwitchCh":"A","selfSwitchValid":false,"switch1Id":1,"switch1Valid":false,"switch2Id":1,"switch2Valid":false,"variableId":1,"variableValid":false,"variableValue":0},"directionFix":true,"image":{"characterIndex":0,"characterName":"!Chest","direction":2,"pattern":1,"tileId":0},"list":[{"code":250,"indent":0,"parameters":[{"name":"Chest1","volume":90,"pitch":100,"pan":0}]},{"code":205,"indent":0,"parameters":[0,{"repeat":false,"skippable":false,"wait":true,"list":[{"code":36},{"code":17},{"code":15,"parameters":[3]},{"code":18},{"code":15,"parameters":[3]},{"code":0}]}]},{"code":505,"indent":0,"parameters":[{"code":36}]},{"code":505,"indent":0,"parameters":[{"code":17}]},{"code":505,"indent":0,"parameters":[{"code":15,"parameters":[3]}]},{"code":505,"indent":0,"parameters":[{"code":18}]},{"code":505,"indent":0,"parameters":[{"code":15,"parameters":[3]}]},{"code":123,"indent":0,"parameters":["A",0]},{"code":125,"indent":0,"parameters":[0,0,1000]},{"code":101,"indent":0,"parameters":["",0,0,2]},{"code":401,"indent":0,"parameters":["1000\\G were found!"]},{"code":0,"indent":0,"parameters":[]}],"moveFrequency":3,"moveRoute":{"list":[{"code":0,"parameters":[]}],"repeat":true,"skippable":false,"wait":false},"moveSpeed":3,"moveType":0,"priorityType":1,"stepAnime":false,"through":false,"trigger":0,"walkAnime":false},{"conditions":{"actorId":1,"actorValid":false,"itemId":1,"itemValid":false,"selfSwitchCh":"A","selfSwitchValid":true,"switch1Id":1,"switch1Valid":false,"switch2Id":1,"switch2Valid":false,"variableId":1,"variableValid":false,"variableValue":0},"directionFix":true,"image":{"characterIndex":0,"characterName":"!Chest","direction":8,"pattern":1,"tileId":0},"list":[{"code":0,"indent":0,"parameters":[]}],"moveFrequency":3,"moveRoute":{"list":[{"code":0,"parameters":[]}],"repeat":true,"skippable":false,"wait":false},"moveSpeed":3,"moveType":0,"priorityType":1,"stepAnime":false,"through":false,"trigger":0,"walkAnime":false}],"x":1,"y":14},
{"id":8,"name":"Treasure (1500G)","note":"","pages":[{"conditions":{"actorId":1,"actorValid":false,"itemId":1,"itemValid":false,"selfSwitchCh":"A","selfSwitchValid":false,"switch1Id":1,"switch1Valid":false,"switch2Id":1,"switch2Valid":false,"variableId":1,"variableValid":false,"variableValue":0},"directionFix":true,"image":{"characterIndex":0,"characterName":"!Chest","direction":2,"pattern":1,"tileId":0},"list":[{"code":250,"indent":0,"parameters":[{"name":"Chest1","volume":90,"pitch":100,"pan":0}]},{"code":205,"indent":0,"parameters":[0,{"repeat":false,"skippable":false,"wait":true,"list":[{"code":36},{"code":17},{"code":15,"parameters":[3]},{"code":18},{"code":15,"parameters":[3]},{"code":0}]}]},{"code":505,"indent":0,"parameters":[{"code":36}]},{"code":505,"indent":0,"parameters":[{"code":17}]},{"code":505,"indent":0,"parameters":[{"code":15,"parameters":[3]}]},{"code":505,"indent":0,"parameters":[{"code":18}]},{"code":505,"indent":0,"parameters":[{"code":15,"parameters":[3]}]},{"code":123,"indent":0,"parameters":["A",0]},{"code":125,"indent":0,"parameters":[0,0,1500]},{"code":101,"indent":0,"parameters":["",0,0,2]},{"code":401,"indent":0,"parameters":["1500\\G were found!"]},{"code":0,"indent":0,"parameters":[]}],"moveFrequency":3,"moveRoute":{"list":[{"code":0,"parameters":[]}],"repeat":true,"skippable":false,"wait":false},"moveSpeed":3,"moveType":0,"priorityType":1,"stepAnime":false,"through":false,"trigger":0,"walkAnime":false},{"conditions":{"actorId":1,"actorValid":false,"itemId":1,"itemValid":false,"selfSwitchCh":"A","selfSwitchValid":true,"switch1Id":1,"switch1Valid":false,"switch2Id":1,"switch2Valid":false,"variableId":1,"variableValid":false,"variableValue":0},"directionFix":true,"image":{"characterIndex":0,"characterName":"!Chest","direction":8,"pattern":1,"tileId":0},"list":[{"code":0,"indent":0,"parameters":[]}],"moveFrequency":3,"moveRoute":{"list":[{"code":0,"parameters":[]}],"repeat":true,"skippable":false,"wait":false},"moveSpeed":3,"moveType":0,"priorityType":1,"stepAnime":false,"through":false,"trigger":0,"walkAnime":false}],"x":2,"y":4},
{"id":9,"name":"EV009","note":"","pages":[{"conditions":{"actorId":1,"actorValid":false,"itemId":1,"itemValid":false,"selfSwitchCh":"A","selfSwitchValid":false,"switch1Id":1,"switch1Valid":false,"switch2Id":1,"switch2Valid":false,"variableId":1,"variableValid":false,"variableValue":0},"directionFix":false,"image":{"characterIndex":0,"characterName":"","direction":2,"pattern":0,"tileId":0},"list":[{"code":101,"indent":0,"parameters":["",3,0,2,"\\N[36]"]},{"code":401,"indent":0,"parameters":["So here is \\N[180]'s junk yard... We could find <small boat> here."]},{"code":101,"indent":0,"parameters":["",2,0,2,"\\N[1]"]},{"code":401,"indent":0,"parameters":["Right, let's search it here."]},{"code":123,"indent":0,"parameters":["A",0]},{"code":0,"indent":0,"parameters":[]}],"moveFrequency":3,"moveRoute":{"list":[{"code":0,"parameters":[]}],"repeat":true,"skippable":false,"wait":false},"moveSpeed":3,"moveType":0,"priorityType":0,"stepAnime":false,"through":false,"trigger":1,"walkAnime":true},{"conditions":{"actorId":1,"actorValid":false,"itemId":1,"itemValid":false,"selfSwitchCh":"A","selfSwitchValid":true,"switch1Id":1,"switch1Valid":false,"switch2Id":1,"switch2Valid":false,"variableId":1,"variableValid":false,"variableValue":0},"directionFix":false,"image":{"characterIndex":0,"characterName":"","direction":2,"pattern":0,"tileId":0},"list":[{"code":0,"indent":0,"parameters":[]}],"moveFrequency":3,"moveRoute":{"list":[{"code":0,"parameters":[]}],"repeat":true,"skippable":false,"wait":false},"moveSpeed":3,"moveType":0,"priorityType":0,"stepAnime":false,"through":false,"trigger":0,"walkAnime":true}],"x":10,"y":23},
{"id":10,"name":"EV010","note":"","pages":[{"conditions":{"actorId":1,"actorValid":false,"itemId":1,"itemValid":false,"selfSwitchCh":"A","selfSwitchValid":false,"switch1Id":1,"switch1Valid":false,"switch2Id":1,"switch2Valid":false,"variableId":1,"variableValid":false,"variableValue":0},"directionFix":false,"image":{"characterIndex":0,"characterName":"","direction":2,"pattern":0,"tileId":0},"list":[{"code":0,"indent":0,"parameters":[]}],"moveFrequency":3,"moveRoute":{"list":[{"code":0,"parameters":[]}],"repeat":true,"skippable":false,"wait":false},"moveSpeed":3,"moveType":0,"priorityType":1,"stepAnime":false,"through":false,"trigger":0,"walkAnime":true}],"x":30,"y":4},
{"id":11,"name":"EV011","note":"","pages":[{"conditions":{"actorId":1,"actorValid":false,"itemId":1,"itemValid":false,"selfSwitchCh":"A","selfSwitchValid":false,"switch1Id":1,"switch1Valid":false,"switch2Id":1,"switch2Valid":false,"variableId":1,"variableValid":false,"variableValue":0},"directionFix":false,"image":{"characterIndex":0,"characterName":"","direction":2,"pattern":0,"tileId":0},"list":[{"code":0,"indent":0,"parameters":[]}],"moveFrequency":3,"moveRoute":{"list":[{"code":0,"parameters":[]}],"repeat":true,"skippable":false,"wait":false},"moveSpeed":3,"moveType":0,"priorityType":1,"stepAnime":false,"through":false,"trigger":0,"walkAnime":true}],"x":32,"y":4},
{"id":12,"name":"EV012","note":"{\"animationUpdateSpeed\": 9.0}","pages":[{"conditions":{"actorId":1,"actorValid":false,"itemId":1,"itemValid":false,"selfSwitchCh":"A","selfSwitchValid":false,"switch1Id":1,"switch1Valid":false,"switch2Id":1,"switch2Valid":false,"variableId":1,"variableValid":false,"variableValue":0},"directionFix":false,"image":{"tileId":0,"characterName":"bugs-birds","direction":6,"pattern":0,"characterIndex":2},"list":[{"code":0,"indent":0,"parameters":[]}],"moveFrequency":3,"moveRoute":{"list":[{"code":3,"indent":null},{"code":2,"indent":null},{"code":0,"parameters":[]}],"repeat":true,"skippable":false,"wait":false},"moveSpeed":3,"moveType":3,"priorityType":1,"stepAnime":true,"through":true,"trigger":0,"walkAnime":false}],"x":0,"y":3},
{"id":13,"name":"EV013","note":"{\"animationUpdateSpeed\": 9.0}","pages":[{"conditions":{"actorId":1,"actorValid":false,"itemId":1,"itemValid":false,"selfSwitchCh":"A","selfSwitchValid":false,"switch1Id":1,"switch1Valid":false,"switch2Id":1,"switch2Valid":false,"variableId":1,"variableValid":false,"variableValue":0},"directionFix":false,"image":{"tileId":0,"characterName":"bugs-birds","direction":6,"pattern":0,"characterIndex":2},"list":[{"code":0,"indent":0,"parameters":[]}],"moveFrequency":3,"moveRoute":{"list":[{"code":1,"indent":null},{"code":4,"indent":null},{"code":0,"parameters":[]}],"repeat":true,"skippable":false,"wait":false},"moveSpeed":3,"moveType":3,"priorityType":1,"stepAnime":true,"through":true,"trigger":0,"walkAnime":false}],"x":1,"y":13},
{"id":14,"name":"EV014","note":"","pages":[{"conditions":{"actorId":1,"actorValid":false,"itemId":1,"itemValid":false,"selfSwitchCh":"A","selfSwitchValid":false,"switch1Id":1,"switch1Valid":false,"switch2Id":1,"switch2Valid":false,"variableId":1,"variableValid":false,"variableValue":0},"directionFix":false,"image":{"characterIndex":0,"characterName":"","direction":2,"pattern":0,"tileId":0},"list":[{"code":357,"indent":0,"parameters":["Community_Lighting_MZ","masterSwitch","Plugin On/Off",{"enabled":"false"}]},{"code":657,"indent":0,"parameters":["Enabled = false"]},{"code":214,"indent":0,"parameters":[]},{"code":0,"indent":0,"parameters":[]}],"moveFrequency":3,"moveRoute":{"list":[{"code":0,"parameters":[]}],"repeat":true,"skippable":false,"wait":false},"moveSpeed":3,"moveType":0,"priorityType":0,"stepAnime":false,"through":false,"trigger":3,"walkAnime":true}],"x":0,"y":0},
{"id":15,"name":"EV015","note":"","pages":[{"conditions":{"actorId":1,"actorValid":false,"itemId":1,"itemValid":false,"selfSwitchCh":"A","selfSwitchValid":false,"switch1Id":1,"switch1Valid":false,"switch2Id":1,"switch2Valid":false,"variableId":1,"variableValid":false,"variableValue":0},"directionFix":false,"image":{"tileId":0,"characterName":"Inside_C","direction":8,"pattern":2,"characterIndex":4},"list":[{"code":0,"indent":0,"parameters":[]}],"moveFrequency":3,"moveRoute":{"list":[{"code":0,"parameters":[]}],"repeat":true,"skippable":false,"wait":false},"moveSpeed":3,"moveType":0,"priorityType":1,"stepAnime":false,"through":false,"trigger":0,"walkAnime":true}],"x":29,"y":5},
{"id":16,"name":"EV016","note":"","pages":[{"conditions":{"actorId":1,"actorValid":false,"itemId":1,"itemValid":false,"selfSwitchCh":"A","selfSwitchValid":false,"switch1Id":1,"switch1Valid":false,"switch2Id":1,"switch2Valid":false,"variableId":1,"variableValid":false,"variableValue":0},"directionFix":false,"image":{"tileId":0,"characterName":"Inside_C","direction":8,"pattern":2,"characterIndex":4},"list":[{"code":0,"indent":0,"parameters":[]}],"moveFrequency":3,"moveRoute":{"list":[{"code":0,"parameters":[]}],"repeat":true,"skippable":false,"wait":false},"moveSpeed":3,"moveType":0,"priorityType":1,"stepAnime":false,"through":false,"trigger":0,"walkAnime":true}],"x":47,"y":2},
{"id":17,"name":"EV017","note":"","pages":[{"conditions":{"actorId":1,"actorValid":false,"itemId":1,"itemValid":false,"selfSwitchCh":"A","selfSwitchValid":false,"switch1Id":1,"switch1Valid":false,"switch2Id":1,"switch2Valid":false,"variableId":1,"variableValid":false,"variableValue":0},"directionFix":false,"image":{"tileId":0,"characterName":"Inside_C","direction":8,"pattern":2,"characterIndex":4},"list":[{"code":0,"indent":0,"parameters":[]}],"moveFrequency":3,"moveRoute":{"list":[{"code":0,"parameters":[]}],"repeat":true,"skippable":false,"wait":false},"moveSpeed":3,"moveType":0,"priorityType":1,"stepAnime":false,"through":false,"trigger":0,"walkAnime":true}],"x":39,"y":4},
{"id":18,"name":"EV018","note":"","pages":[{"conditions":{"actorId":1,"actorValid":false,"itemId":1,"itemValid":false,"selfSwitchCh":"A","selfSwitchValid":false,"switch1Id":1,"switch1Valid":false,"switch2Id":1,"switch2Valid":false,"variableId":1,"variableValid":false,"variableValue":0},"directionFix":false,"image":{"tileId":0,"characterName":"Inside_C","direction":8,"pattern":1,"characterIndex":5},"list":[{"code":0,"indent":0,"parameters":[]}],"moveFrequency":3,"moveRoute":{"list":[{"code":0,"parameters":[]}],"repeat":true,"skippable":false,"wait":false},"moveSpeed":3,"moveType":0,"priorityType":1,"stepAnime":false,"through":false,"trigger":0,"walkAnime":true}],"x":9,"y":5},
{"id":19,"name":"EV019","note":"","pages":[{"conditions":{"actorId":1,"actorValid":false,"itemId":1,"itemValid":false,"selfSwitchCh":"A","selfSwitchValid":false,"switch1Id":1,"switch1Valid":false,"switch2Id":1,"switch2Valid":false,"variableId":1,"variableValid":false,"variableValue":0},"directionFix":false,"image":{"tileId":0,"characterName":"Inside_C","direction":8,"pattern":2,"characterIndex":4},"list":[{"code":0,"indent":0,"parameters":[]}],"moveFrequency":3,"moveRoute":{"list":[{"code":0,"parameters":[]}],"repeat":true,"skippable":false,"wait":false},"moveSpeed":3,"moveType":0,"priorityType":1,"stepAnime":false,"through":false,"trigger":0,"walkAnime":true}],"x":10,"y":5},
{"id":20,"name":"EV020","note":"","pages":[{"conditions":{"actorId":1,"actorValid":false,"itemId":1,"itemValid":false,"selfSwitchCh":"A","selfSwitchValid":false,"switch1Id":1,"switch1Valid":false,"switch2Id":1,"switch2Valid":false,"variableId":1,"variableValid":false,"variableValue":0},"directionFix":false,"image":{"tileId":0,"characterName":"Inside_C","direction":8,"pattern":1,"characterIndex":5},"list":[{"code":0,"indent":0,"parameters":[]}],"moveFrequency":3,"moveRoute":{"list":[{"code":0,"parameters":[]}],"repeat":true,"skippable":false,"wait":false},"moveSpeed":3,"moveType":0,"priorityType":1,"stepAnime":false,"through":false,"trigger":0,"walkAnime":true}],"x":3,"y":16},
{"id":21,"name":"EV021","note":"","pages":[{"conditions":{"actorId":1,"actorValid":false,"itemId":1,"itemValid":false,"selfSwitchCh":"A","selfSwitchValid":false,"switch1Id":1,"switch1Valid":false,"switch2Id":1,"switch2Valid":false,"variableId":1,"variableValid":false,"variableValue":0},"directionFix":false,"image":{"tileId":0,"characterName":"Inside_C","direction":8,"pattern":1,"characterIndex":5},"list":[{"code":0,"indent":0,"parameters":[]}],"moveFrequency":3,"moveRoute":{"list":[{"code":0,"parameters":[]}],"repeat":true,"skippable":false,"wait":false},"moveSpeed":3,"moveType":0,"priorityType":1,"stepAnime":false,"through":false,"trigger":0,"walkAnime":true}],"x":4,"y":16},
{"id":22,"name":"EV022","note":"","pages":[{"conditions":{"actorId":1,"actorValid":false,"itemId":1,"itemValid":false,"selfSwitchCh":"A","selfSwitchValid":false,"switch1Id":1,"switch1Valid":false,"switch2Id":1,"switch2Valid":false,"variableId":1,"variableValid":false,"variableValue":0},"directionFix":false,"image":{"tileId":0,"characterName":"Inside_C","direction":8,"pattern":1,"characterIndex":5},"list":[{"code":0,"indent":0,"parameters":[]}],"moveFrequency":3,"moveRoute":{"list":[{"code":0,"parameters":[]}],"repeat":true,"skippable":false,"wait":false},"moveSpeed":3,"moveType":0,"priorityType":1,"stepAnime":false,"through":false,"trigger":0,"walkAnime":true}],"x":3,"y":15}
]
}