{
"autoplayBgm":true,"autoplayBgs":false,"battleback1Name":"Wasteland","battleback2Name":"","bgm":{"name":"Dungeon2","pan":0,"pitch":100,"volume":90},"bgs":{"name":"","pan":0,"pitch":100,"volume":90},"disableDashing":false,"displayName":"","encounterList":[],"encounterStep":25,"height":40,"note":"<Filter:noise#1,noise,FullScreen>\n<SetFilter:noise#1,0.1>\nweather : 0 : 12 : 100 : 300 : 0 : Rain_02A","parallaxLoopX":false,"parallaxLoopY":false,"parallaxName":"DarkClouds","parallaxShow":true,"parallaxSx":0,"parallaxSy":0,"scrollType":0,"specifyBattleback":true,"tilesetId":4,"width":30,
"data":[5892,5926,7600,5904,5888,5888,5888,5888,5888,5892,5916,5913,7586,7606,5904,5892,5926,6275,6278,5904,5888,5892,5916,5916,5926,7584,7568,7568,7592,5904,5926,7603,7607,5904,5892,5916,5916,5916,5896,5912,7610,5932,7612,5922,5889,5912,6282,6273,6276,5904,5888,5912,7602,7589,7601,7597,7596,7596,7606,5904,7589,7607,5923,5917,5926,6282,6282,6282,5904,5912,7585,7604,5922,5889,5892,5926,1544,6281,6280,5904,5888,5912,7584,7592,5922,5908,5908,5908,5908,5889,7606,5922,5914,6282,6286,1544,1544,5922,5889,5912,7608,7606,5904,5892,5926,6286,1544,1544,1544,5906,5916,5913,7586,7606,5904,5892,5916,5896,5888,5888,5909,5917,5926,1544,1544,1544,1544,5904,5888,5890,5908,5908,5893,5926,6286,1544,1544,1544,1544,5920,6282,5920,7600,5922,5893,5926,6282,5928,5896,5888,5912,6282,6286,1544,1544,1544,1544,5928,5896,5888,5888,5888,5912,6286,1544,1544,1544,1544,5923,5927,1544,5920,7612,5904,5912,6286,1544,6283,5904,5888,5912,1544,1544,1544,1544,1544,1544,6283,5928,5896,5892,5916,5926,1544,1544,1544,1544,5923,5927,6286,1544,5905,5908,5889,5912,1544,1544,1544,5928,5896,5912,1544,1544,1544,1544,1544,1544,1544,6283,5928,5913,6282,6286,1544,1544,1544,1544,5920,6286,1544,1544,5928,5896,5888,5912,1544,1544,1544,6283,5904,5912,1544,7602,7589,7601,7613,1544,1544,1544,6283,5920,1544,1544,1544,1544,1544,5923,5927,1544,1544,1544,6283,5928,5896,5912,1544,1544,1544,5922,5889,5926,7603,7597,7606,5934,6286,6279,6274,6278,1544,5932,1544,1544,1544,1544,1544,5920,6286,1544,1544,1544,1544,6283,5906,5926,1544,1544,1544,5928,5896,7601,7607,5934,6282,6286,1544,6277,6272,6276,1544,6287,1544,1544,1544,1544,1544,5932,1544,1544,1544,1544,1544,1544,5920,6286,1544,1544,1544,6283,5904,5909,5933,6286,1544,1544,1544,6277,6281,6284,1544,1544,1544,1544,1544,1544,1544,6287,1544,1544,1544,1544,1544,1544,5932,1544,1544,1544,1544,1544,5904,5912,6286,1544,1544,1544,1544,6285,5931,5925,1544,6275,6274,6274,6278,1544,1544,1544,6275,6274,6274,6278,1544,1544,6287,1544,1544,1544,1544,1544,5904,5912,1544,1544,1544,6275,6283,5934,7614,5920,1544,6273,6272,6272,6276,1544,1544,1544,6273,6272,6272,6276,1544,1544,1544,1544,1544,1544,1544,1544,5928,5926,1544,1544,1544,6277,5930,7614,5923,5927,1544,6273,6272,6272,6276,1544,1544,1544,6273,6272,6272,6276,1544,1544,1544,1544,1544,1544,1544,1544,6287,6287,1544,1544,1544,6277,5929,5921,5927,6278,1544,6273,6272,6272,6276,1544,1544,1544,6273,6272,6272,6276,1544,1544,1544,1544,1544,1544,1544,1544,1544,1544,1544,1544,1544,6273,6274,6274,6274,6276,6274,6273,6272,6272,6276,6275,6274,6278,6273,6272,6272,6276,6275,6274,6278,6275,6278,1544,1544,1544,1544,1544,1544,1544,1544,6273,6272,6272,6272,6276,6272,6273,6272,6272,6276,6273,6272,6276,6273,6272,6272,6276,6273,6272,6276,6273,6276,1544,1544,1544,1544,1544,1544,1544,1544,6273,6272,6272,6272,6276,6277,6273,6272,6272,6276,6273,6272,6276,6273,6272,6272,6276,6273,6272,6276,6273,6276,1544,1544,1544,1544,1544,1544,1544,1544,6273,6276,6273,6272,6276,6277,6273,6272,6272,6276,6273,6272,6276,6273,6272,6272,6276,6273,6272,6276,6273,6276,1544,1544,1544,1544,1544,1544,1544,1544,6273,6276,6273,6272,6276,6277,6273,6272,6272,6276,6273,6272,6276,6273,6272,6272,6276,6273,6272,6276,6273,6276,1544,1544,1544,1544,1544,1544,1544,1544,6273,6276,6273,6272,6276,6277,6273,6272,6272,6276,6273,6272,6276,6273,6272,6272,6276,6273,6272,6276,6273,6276,1544,1544,1544,1544,1544,1544,1544,1544,6273,6276,6273,6272,6276,6277,6273,6272,6272,6276,6273,6272,6276,6273,6272,6272,6276,6273,6272,6276,6273,6276,1544,1544,1544,1544,1544,1544,1544,1544,6273,6272,6280,6272,6276,6277,6273,6272,6272,6276,6273,6272,6276,6273,6272,6272,6276,6273,6272,6276,6273,6276,1544,1544,1544,1544,1544,1544,1544,5930,6273,6272,5930,6280,6276,6277,6273,6272,6272,6276,6273,6272,6276,6273,6272,6272,6276,6273,6272,6276,6273,6276,1544,1544,1544,1544,1544,1544,1544,5920,6273,6272,5929,5925,6284,6272,6273,6272,6272,6276,6273,6272,6276,6273,6272,6272,6276,6273,6272,6276,6281,6284,5922,5924,1544,1544,1544,1544,1544,5920,6273,6272,6274,5907,5933,6272,6273,6272,6272,6276,6273,6272,6276,6273,6272,6272,6276,6273,6272,6276,5922,5908,5889,5890,5924,1544,1544,1544,1544,5920,6273,6272,6272,5932,6274,6272,6273,6272,6272,6276,6273,6272,6276,6273,6272,6272,6276,6273,6272,6276,5904,5888,5888,5888,5912,1544,1544,1544,1544,5920,6273,6272,6272,6274,6272,6272,6273,6272,6272,6276,6273,6272,6276,6273,6272,6272,6276,6273,6272,6276,5904,5888,5888,5888,5912,1544,1544,1544,1544,5920,6273,6272,6272,6272,6272,6272,6273,6272,6272,6276,6273,6272,6276,6273,6272,6272,6276,6273,6272,6276,5904,5888,5888,5888,5912,1544,1544,1544,1544,5920,6273,6272,6272,6272,6272,6272,6273,6272,6272,6276,6273,6272,6276,6273,6272,6272,6276,6273,6272,6276,5904,5888,5888,5888,5912,1544,1544,1544,5922,5914,6273,6272,6272,6272,6272,6272,6273,6272,6272,6276,6273,6272,6276,6273,6272,6272,6276,6273,6272,6276,5904,5888,5888,5888,5890,5908,1544,1544,5904,5912,6273,6272,6272,6272,6272,6272,6273,6272,6272,6276,6273,6272,6276,6273,6272,6272,6276,6276,6281,6284,5904,5888,5888,5888,5888,5888,1544,5922,5889,5912,6281,6280,6272,6272,6272,6280,6273,6272,6272,6276,6273,6272,6276,6273,6272,6276,6285,6284,5922,5908,5889,5888,5888,5888,5888,5888,1544,5904,5888,5890,5908,5924,6272,6272,6280,5930,6281,6280,6280,6284,6280,6280,6280,6281,6280,6284,5922,5908,5889,5888,5888,5888,5888,5888,5888,5888,1544,5904,5888,5888,5888,5912,6280,6272,5922,5891,5908,5908,5908,5908,5908,5908,5908,5908,5908,5908,5889,5888,5892,5916,5916,5916,5916,5916,5916,5896,5908,5889,5888,5888,5888,5890,5924,6272,5904,5888,5888,5892,5916,5896,5888,5888,5888,5888,5888,5888,5888,5888,5912,6275,6274,6274,6274,6274,6278,5928,5916,5916,5896,5888,5888,5888,5912,6280,5904,5888,5888,5912,6279,5928,5916,5916,5916,5916,5916,5916,5916,5916,5926,6273,6272,6272,6272,6272,6276,6279,6275,6278,5928,5916,5916,5916,5918,5921,5917,5916,5916,5926,6277,6275,6274,6274,6274,6274,6274,6274,6274,6274,6278,6273,6272,6272,6272,6272,6276,6277,6281,6284,6283,6282,6282,6282,6282,6282,6282,6282,6282,6286,6285,6281,6280,6280,6280,6280,6280,6280,6280,6280,6284,6281,6280,6280,6280,6280,6284,6285,0,0,0,0,0,0,0,0,0,0,0,0,0,0,0,0,0,0,0,0,0,0,0,0,0,0,0,0,0,0,0,0,0,0,0,0,0,0,0,0,0,0,0,0,0,0,0,0,0,0,0,0,0,0,0,0,0,0,0,0,0,0,0,0,0,0,0,0,0,0,0,0,0,0,0,0,2954,0,0,0,0,0,0,0,0,0,0,0,0,0,0,0,0,0,0,2946,2948,0,0,0,0,0,0,0,0,0,2929,2932,2948,0,0,0,0,0,0,0,0,0,0,0,0,0,0,2946,2932,2913,2936,0,0,0,0,0,0,0,0,2946,2913,2916,2950,0,0,0,0,0,0,0,0,0,0,0,0,0,0,2928,2912,2912,2936,0,0,0,0,0,0,0,2946,2913,2916,2950,0,0,2954,0,0,0,0,0,2954,0,0,0,0,2946,2932,2913,2912,2912,2936,0,0,0,0,0,0,2946,2913,2912,2936,0,0,0,2944,0,0,0,0,2946,2915,2948,0,0,0,2930,2940,2940,2940,2940,2922,2948,0,0,0,0,0,2928,2912,2916,2950,0,0,2946,2938,0,0,0,0,2928,2912,2936,0,0,0,2956,0,0,0,0,2928,2914,2948,0,0,2946,2932,2913,2912,2936,0,0,2946,2913,2936,0,0,0,0,2928,2912,2936,0,0,0,0,0,0,0,0,2928,2912,2914,2948,0,2928,2912,2912,2912,2936,0,0,2928,2912,2914,2948,0,0,0,2928,2912,2936,0,0,0,0,0,0,0,2946,2913,2912,2912,2936,0,2928,2912,2912,2912,2936,0,2946,2913,2912,2912,2914,2948,0,0,2928,2912,2936,0,0,0,0,0,2946,2932,2913,2916,2940,2940,2922,2932,2913,2912,2912,2912,2936,0,2928,2912,2912,2912,2912,2936,0,2946,2913,2912,2914,2948,0,0,0,2946,2913,2912,2916,2950,0,0,2928,2912,2912,2912,2912,2912,2914,2932,2913,2912,2912,2912,2912,2936,0,2928,2912,2912,2912,2936,0,0,2946,2913,2912,2916,2950,0,0,0,2928,2912,2912,2912,2912,2912,2912,2912,2912,2912,2912,2912,2912,2914,2932,2913,2912,2912,2912,2936,0,0,2928,2912,2912,2936,0,0,0,0,2928,2912,2912,2912,2912,2912,2912,2912,2912,2912,2912,2912,2912,2912,2912,2912,2912,2912,2912,2936,0,0,2928,2912,2912,2936,0,0,0,0,2928,2916,2940,2920,2912,2912,2912,2912,2912,2912,2916,2940,2920,2912,2912,2912,2912,2912,2916,2950,1545,1545,2928,2912,2912,2936,0,0,0,0,2928,2936,1545,2952,2940,2920,2912,2912,2916,2940,2950,1545,2952,2920,2912,2912,2912,2916,2950,1545,0,0,2952,2920,2912,2936,0,0,0,2946,2917,2950,0,1545,1545,2952,2940,2940,2950,1545,1545,0,1545,2952,2940,2940,2940,2950,1545,0,0,0,1545,2952,2920,2914,2932,2932,2932,2917,2950,1545,0,0,0,1545,1545,1545,1545,0,0,0,0,1545,1545,1545,1545,1545,0,0,0,0,0,1545,2952,2920,2912,2912,2916,2950,1545,0,0,0,0,0,0,0,0,0,0,0,0,0,0,0,0,0,0,0,0,0,0,0,1545,2952,2940,2940,2950,1545,0,0,0,0,0,0,0,0,0,0,0,0,0,0,0,0,0,0,0,0,0,0,0,0,0,1545,1545,1545,1545,0,0,0,0,0,0,0,0,0,0,0,0,0,0,0,0,0,0,0,0,0,0,0,0,0,0,0,0,0,0,0,0,0,0,0,0,0,0,0,0,0,0,0,0,0,0,0,0,0,0,0,0,0,0,0,0,0,0,0,0,0,0,0,0,0,0,0,0,0,0,0,0,0,0,0,0,0,0,0,0,0,0,0,0,0,3578,0,0,0,0,0,0,0,0,0,0,0,0,0,0,0,0,0,0,0,0,0,0,0,0,0,0,0,0,0,3568,0,0,0,0,0,0,0,0,0,0,0,0,0,0,0,0,0,0,0,0,0,0,3570,3572,0,0,0,0,0,3568,0,0,1545,0,0,0,0,0,0,0,0,0,0,0,0,0,0,0,0,0,3570,3556,3537,3538,3572,0,0,0,0,3568,0,0,0,0,1545,0,0,0,0,0,0,0,0,0,0,0,0,0,0,0,3552,3536,3536,3536,3560,0,0,0,0,3568,0,0,0,1545,0,0,0,0,0,0,0,0,0,0,0,0,0,0,0,0,3552,3536,3536,3536,3560,0,0,0,0,3568,0,0,0,0,0,0,0,0,0,0,0,0,0,0,0,0,0,0,0,0,3552,3536,3536,3536,3560,0,0,0,0,3568,0,0,0,0,0,0,0,0,0,0,0,0,0,0,0,0,0,0,0,0,3552,3536,3536,3536,3560,0,0,0,3570,3562,0,0,0,0,0,0,0,0,0,0,0,0,0,0,0,0,0,0,0,0,3552,3536,3536,3536,3538,3556,0,0,3552,3560,0,0,0,0,0,0,0,0,0,0,0,0,0,0,0,0,0,0,0,0,3552,3536,3536,3536,3536,3536,0,3570,3537,3560,0,0,0,0,0,0,0,0,0,0,0,0,0,0,0,0,0,0,3570,3556,3537,3536,3536,3536,3536,3536,0,3552,3536,3538,3556,3572,0,0,0,3578,0,0,0,0,0,0,0,0,0,0,3570,3556,3537,3536,3536,3536,3536,3536,3536,3536,0,3552,3536,3536,3536,3560,0,0,3570,3539,3556,3556,3556,3556,3556,3556,3556,3556,3556,3556,3537,3536,3540,3564,3564,3564,3564,3564,3564,3544,3556,3537,3536,3536,3536,3538,3572,0,3552,3536,3536,3540,3564,3544,3536,3536,3536,3536,3536,3536,3536,3536,3560,0,0,0,0,0,0,3576,3564,3564,3544,3536,3536,3536,3560,0,3552,3536,3536,3560,0,3576,3564,3564,3564,3564,3564,3564,3564,3564,3574,0,0,0,0,0,0,0,0,0,3576,3564,3564,3564,3566,3569,3565,3564,3564,3574,0,0,0,0,0,0,0,0,0,0,0,0,0,0,0,0,0,0,0,0,0,0,0,0,0,0,0,0,0,0,0,0,0,0,0,0,0,0,0,0,0,0,0,0,0,0,0,0,0,0,0,0,0,0,0,0,0,0,0,0,0,0,0,0,0,0,0,0,0,0,0,0,0,0,0,0,0,0,0,0,0,0,0,0,0,0,0,0,0,0,0,0,0,0,0,0,0,0,0,0,0,0,0,0,0,0,0,0,0,0,0,0,0,0,0,0,0,0,0,0,0,0,0,0,3578,0,0,0,0,0,0,0,0,0,0,0,0,0,0,0,0,0,0,3570,3572,0,0,0,0,0,0,0,0,0,3553,3556,3572,0,0,0,0,0,0,0,0,0,0,0,0,0,0,3570,3556,3537,3560,0,0,0,0,0,0,0,0,3570,3537,3540,3574,0,0,0,0,0,0,0,0,0,0,0,0,0,0,3552,3536,3536,3560,0,0,0,0,0,0,0,3570,3537,3540,3574,0,0,3578,0,0,0,0,0,3578,0,0,0,0,3570,3556,3537,3536,3536,3560,0,0,0,0,0,0,3570,3537,3536,3560,0,0,0,3568,0,0,0,0,3570,3539,3572,0,0,0,3554,3564,3564,3564,3564,3546,3572,0,0,0,0,0,3552,3536,3540,3574,0,0,3570,3562,0,0,0,0,3552,3536,3560,0,0,0,3580,0,0,0,0,3552,3538,3572,0,0,3570,3556,3537,3536,3560,0,0,3570,3537,3560,0,0,0,0,3552,3536,3560,0,0,0,0,0,0,0,0,3552,3536,3538,3572,0,3552,3536,3536,3536,3560,0,0,3552,3536,3538,3572,0,0,0,3552,3536,3560,0,0,0,0,0,0,0,3570,3537,3536,3536,3560,0,3552,3536,3536,3536,3560,0,3570,3537,3536,3536,3538,3572,0,0,3552,3536,3560,0,0,0,0,0,3570,3556,3537,3540,3564,3564,3546,3556,3537,3536,3536,3536,3560,0,3552,3536,3536,3536,3536,3560,0,3570,3537,3536,3538,3572,0,0,0,3570,3537,3536,3540,3574,0,0,3552,3536,3536,3536,3536,3536,3538,3556,3537,3536,3536,3536,3536,3560,0,3552,3536,3536,3536,3560,0,0,3570,3537,3536,3540,3574,0,0,0,3552,3536,3536,3536,3536,3536,3536,3536,3536,3536,3536,3536,3536,3538,3556,3537,3536,3536,3536,3560,0,0,3552,3536,3536,3560,0,0,0,0,3552,3536,3536,3536,3536,3536,3536,3536,3536,3536,3536,3536,3536,3536,3536,3536,3536,3536,3536,3560,0,0,3552,3536,3536,3560,0,0,0,0,3552,3540,3564,3544,3536,3536,3536,3536,3536,3536,3540,3564,3544,3536,3536,3536,3536,3536,3540,3574,0,0,3552,3536,3536,3560,0,0,0,0,3552,3560,0,3576,3564,3544,3536,3536,3540,3564,3574,0,3576,3544,3536,3536,3536,3540,3574,0,0,0,3576,3544,3536,3560,0,0,0,3570,3541,3574,0,0,0,3576,3564,3564,3574,0,0,0,0,3576,3564,3564,3564,3574,0,0,0,0,0,3576,3544,3538,3556,3556,3556,3541,3574,0,0,0,0,0,0,0,0,0,0,0,0,0,0,0,0,0,0,0,0,0,0,0,3576,3544,3536,3536,3540,3574,0,0,0,0,0,0,0,0,0,0,0,0,0,0,0,0,0,0,0,0,0,0,0,0,0,3576,3564,3564,3574,0,0,0,0,0,0,0,0,0,0,0,0,0,0,0,0,0,0,0,0,0,0,0,0,0,0,0,0,0,0,0,0,0,0,0,0,0,0,0,0,0,0,0,0,0,0,0,0,0,0,0,0,0,0,0,0,0,0,0,0,0,0,0,0,0,0,0,0,0,0,0,0,0,0,0,0,0,0,0,0,0,0,0,0,0,0,0,0,0,0,0,0,0,0,0,0,0,0,0,0,0,0,0,0,0,0,0,0,0,0,0,0,0,0,0,0,0,0,0,0,0,0,0,0,0,0,0,0,0,0,0,0,0,0,0,0,0,0,0,0,0,0,0,0,0,0,0,0,0,0,0,0,0,0,0,0,0,0,0,0,0,0,0,0,0,0,0,0,0,0,0,0,0,0,0,0,0,0,0,0,0,0,0,0,0,0,0,0,0,0,0,0,0,0,0,0,0,0,0,0,0,0,0,0,0,0,0,0,0,0,0,0,0,0,0,0,0,0,0,0,0,0,0,0,0,0,0,0,0,0,0,0,0,0,0,0,0,0,0,0,0,0,0,0,0,0,0,0,0,0,0,0,0,0,0,0,0,0,0,0,0,0,0,0,0,0,0,0,0,0,0,0,0,0,0,0,0,0,0,0,0,0,0,0,0,0,0,0,0,0,0,0,0,0,0,0,0,0,0,0,0,0,0,0,0,0,0,0,0,0,0,0,0,0,0,0,0,0,0,0,0,0,0,0,0,0,0,0,0,0,0,0,0,0,0,0,0,0,0,0,0,0,0,0,0,0,0,0,0,0,0,0,0,0,0,0,0,0,0,0,0,0,0,0,0,0,0,0,0,0,0,0,0,0,0,0,0,0,0,0,0,0,0,0,0,0,0,0,0,0,0,0,0,0,0,0,0,0,0,0,0,0,0,0,0,0,0,0,0,0,0,0,0,0,0,0,0,0,0,0,0,0,0,0,0,0,0,0,0,0,0,0,0,0,0,0,0,0,0,0,0,0,0,0,0,0,0,0,0,0,0,0,0,0,0,0,0,0,0,0,0,0,0,0,0,0,0,0,0,0,0,0,0,0,0,0,0,0,0,0,0,0,0,0,0,0,0,0,0,0,0,0,0,0,0,0,0,0,0,0,0,0,0,0,0,0,0,0,0,0,0,0,0,0,0,0,0,0,0,0,0,0,0,0,0,0,0,0,0,0,0,0,0,0,0,0,0,0,0,0,0,0,0,0,0,0,0,0,0,0,0,0,0,0,0,0,0,0,0,0,0,0,0,0,0,0,0,0,0,0,0,0,0,0,0,0,0,0,0,0,0,0,0,0,0,0,0,0,0,0,0,0,0,0,0,0,0,0,0,0,0,0,0,0,0,0,0,0,0,0,0,0,0,0,0,0,0,0,0,0,0,0,0,0,0,0,0,0,0,0,0,0,0,0,0,0,0,0,0,0,0,0,0,0,0,0,0,0,0,0,0,0,0,0,0,0,0,0,0,0,0,0,0,0,0,0,0,0,0,0,165,0,0,0,0,0,0,0,0,0,0,0,0,0,0,0,0,0,0,0,0,0,0,0,0,0,0,0,0,0,0,0,0,0,0,0,0,0,0,0,0,0,0,0,0,0,0,0,0,0,0,0,0,0,0,0,0,0,0,0,0,0,0,0,0,0,0,0,0,0,0,0,0,0,0,0,0,0,0,0,0,0,0,0,0,0,0,0,0,0,0,0,0,0,0,0,0,0,0,0,0,0,0,0,0,0,0,0,0,0,0,0,0,0,0,0,0,0,0,0,0,0,0,0,0,0,0,0,0,0,0,0,0,0,0,0,0,0,0,0,0,0,0,0,0,0,0,0,0,0,0,0,0,0,0,0,0,0,0,0,0,0,0,0,0,0,0,0,0,0,0,0,0,0,0,0,0,0,0,0,0,0,0,0,0,0,0,0,0,0,0,0,0,0,0,0,0,0,0,0,0,0,0,0,0,0,0,0,0,0,0,0,0,0,0,0,0,0,0,0,0,0,0,0,0,0,0,0,0,0,0,0,0,0,0,0,0,0,0,0,0,0,0,0,0,0,0,0,0,0,0,0,0,0,0,0,0,0,0,0,0,0,0,0,0,0,0,0,0,0,0,0,0,0,0,0,0,0,0,0,0,0,0,0,0,0,0,0,0,0,0,0,0,0,0,0,0,0,0,0,0,0,0,0,0,0,0,0,0,0,0,0,0,0,0,0,0,0,0,0,0,0,0,0,0,0,0,0,0,0,0,0,0,0,0,0,0,0,0,0,0,0,0,0,0,0,0,0,0,0,0,0,0,0,0,0,0,0,0,0,0,0,0,0,0,0,0,0,0,0,0,0,0,0,0,0,0,0,0,0,0,0,0,0,0,0,0,0,0,0,0,0,0,0,0,0,0,0,0,0,0,0,0,0,0,0,0,0,0,0,0,0,0,0,0,0,0,0,0,0,0,0,0,0,0,0,0,0,0,0,0,0,0,0,0,0,0,0,0,0,0,0,0,0,0,0,0,0,0,0,0,0,0,0,0,0,0,0,0,0,0,0,0,0,0,0,0,0,0,0,0,0,0,0,0,0,0,0,0,0,0,0,0,0,0,0,0,0,0,0,0,0,0,0,0,0,0,0,0,0,0,0,0,0,0,0,0,0,0,0,0,0,0,0,0,0,0,0,0,0,0,0,0,0,0,0,0,0,0,0,0,0,0,0,0,0,0,0,0,0,0,0,0,0,0,0,0,0,0,0,0,0,0,0,0,0,0,0,0,0,0,0,0,0,0,0,0,0,0,0,0,0,0,0,0,0,0,0,0,0,0,0,0,0,0,0,0,0,0,0,0,0,0,0,0,0,0,0,0,0,0,0,0,0,0,0,0,0,0,0,0,0,0,0,0,0,0,0,0,0,0,0,0,0,0,0,0,0,0,0,0,0,0,0,0,0,0,0,0,0,0,0,0,0,0,0,0,0,0,165,0,0,0,0,0,0,0,0,0,0,0,0,0,0,0,0,0,0,0,0,0,0,0,0,0,0,0,0,0,0,0,0,0,0,0,0,0,0,0,0,0,0,0,0,0,0,0,0,0,0,0,0,0,0,0,0,0,0,0,0,0,0,0,0,0,0,0,0,0,0,0,0,0,0,0,0,0,0,0,0,0,0,0,0,0,0,0,0,0,7,0,0,0,0,0,0,0,0,0,0,0,0,0,0,0,0,0,0,0,0,0,0,0,0,0,0,0,0,0,7,0,0,0,0,0,0,0,0,0,0,0,0,0,0,0,0,0,0,0,0,0,0,0,0,0,0,0,0,0,7,0,0,0,0,0,0,0,0,0,0,0,0,0,0,0,0,0,0,0,0,0,0,0,0,0,0,0,0,0,7,0,0,0,0,0,0,0,0,0,0,0,0,0,0,0,0,0,0,0,0,0,0,0,0,0,0,0,0,0,7,0,0,0,0,0,0,0,0,0,0,0,0,0,0,0,0,0,0,0,0,0,0,0,0,0,0,0,0,0,7,0,0,0,0,0,0,0,0,0,0,0,0,0,0,0,0,0,0,0,0,0,0,0,0,0,0,0,0,0,7,0,0,0,0,0,0,0,0,0,0,0,0,0,0,0,0,0,0,0,0,0,0,0,0,0,0,0,0,0,7,0,0,0,0,0,0,0,0,0,0,0,0,0,0,0,0,0,0,0,0,0,0,0,0,0,0,0,0,0,7,0,0,0,0,0,0,0,0,0,0,0,0,0,0,0,0,0,0,0,0,0,0,0,0,0,0,0,0,0,7,0,0,0,0,0,0,0,0,0,0,0,0,0,0,0,0,0,0,0,0,0,0,0,0,0,0,0,0,0,7,0,0,0,0,0,0,0,0,0,0,0,0,0,0,0,0,0,0,0,0,0,0,0,0,0,0,0,0,0,15,0,0,0,0,0,0,0,0,0,0,0,0,0,0,0,0,0,0,0,0,0,0,0,0,0,0,0,0,0,0,0,0,0,0,0,0,0,0,0,0,0,0,0,0,0,0,0,0,0,0,0,0,0,0,0,0,0,0,0,0,0,0,0,0,0,0,0,0,0,0,0,0,0,0,0,0,0,0,0,0,0,0,0,0,0,0,0,0,0,0,0,0,0,0,0,0,0,0,0,0,0,0,0,0,0,0,0,0,0,0,0,0,0,0,0,0,0,0,0,0,0,0,0,0,0,0,0,0,5,0,0,0,0,0,0,0,0,0,0,0,0,0,0,0,0,0,0,5,0,0,0,0,0,0,0,0,0,0,5,0,0,0,0,0,0,0,0,0,0,0,0,0,0,0,0,5,0,0,0,0,0,0,0,0,0,0,0,5,0,0,0,0,0,0,0,0,0,0,0,0,0,0,0,0,0,5,0,0,0,0,0,0,0,0,0,0,5,0,0,0,0,0,5,0,0,0,0,0,5,0,0,0,0,5,0,0,0,0,0,0,0,0,0,0,0,5,0,0,0,0,0,0,5,0,0,0,0,5,0,0,0,0,0,5,0,0,0,0,0,0,0,0,0,0,0,5,0,0,0,0,0,5,0,0,0,0,0,5,0,0,0,0,0,5,0,0,0,0,0,0,0,0,0,5,0,0,0,0,0,0,5,0,0,0,0,0,0,5,0,0,0,0,0,0,0,0,0,0,5,0,0,0,0,5,0,0,0,0,0,0,5,0,0,0,0,0,0,5,0,0,0,0,0,0,0,0,0,5,0,0,0,0,0,5,0,0,0,0,0,5,0,0,0,0,0,0,0,5,0,0,0,0,0,0,0,5,0,0,0,0,0,0,0,0,0,0,0,0,0,5,0,0,0,0,0,0,5,0,0,0,0,0,0,0,5,0,0,0,0,0,0,0,0,0,0,0,0,0,0,0,0,0,0,0,0,0,5,0,0,0,0,0,0,5,0,0,0,0,0,0,0,5,0,0,0,0,0,0,0,0,0,0,0,0,0,0,0,0,0,0,0,0,0,5,0,0,0,0,0,0,0,5,0,0,0,0,0,0,0,0,0,0,0,0,0,0,0,0,0,0,0,0,0,5,0,0,0,0,0,0,0,5,0,0,0,0,0,0,0,0,0,0,0,0,0,0,0,0,0,0,0,0,0,0,0,0,0,0,0,0,5,5,0,15,0,0,0,0,0,0,0,0,15,0,0,0,0,0,0,0,0,0,0,0,0,0,0,0,0,0,5,0,0,5,11,15,0,0,0,0,15,15,5,15,0,0,0,0,0,0,0,0,0,0,0,0,0,0,0,0,0,0,15,5,0,0,15,15,15,15,5,0,5,5,15,15,15,15,0,0,0,0,0,0,0,0,0,0,0,0,0,15,5,5,0,0,0,0,0,0,5,0,5,5,5,0,5,0,0,0,0,0,0,0,0,0,0,0,0,0,15,5,5,5,0,0,0,0,0,0,5,0,5,5,5,0,5,0,0,0,0,0,0,0,0,0,15,15,15,15,0,5,5,5,0,0,0,0,0,0,5,0,5,5,5,0,5,0,0,0,0,0,0,0,0,0,15,15,15,0,0,5,5,5,0,0,0,0,0,0,5,0,5,5,5,0,5,0,0,0,0,0,0,0,0,0,0,0,0,0,0,5,5,5,0,0,0,0,0,0,5,0,5,5,5,0,5,0,0,0,0,0,0,0,0,0,0,0,0,8,0,5,5,5,0,0,0,0,0,0,5,0,5,5,5,0,5,0,0,0,0,0,0,0,0,0,0,0,0,0,0,5,5,5,0,0,0,0,0,0,5,0,5,5,5,0,5,0,5,0,0,0,0,0,0,0,0,0,15,0,0,5,5,5,0,0,0,0,0,0,5,0,5,5,5,0,5,0,0,0,0,0,0,0,0,0,0,0,0,0,15,5,5,5,0,0,0,0,0,0,5,0,5,5,5,0,5,0,0,0,0,0,0,0,0,0,0,0,0,15,5,5,5,5,0,0,0,0,0,12,5,0,5,5,5,0,5,0,0,0,0,0,0,0,0,0,0,0,0,0,5,5,5,5,0,0,12,12,12,7,1,0,5,5,5,0,5,0,0,0,0,0,0,0,0,0,0,0,0,0,5,5,13,5,0,0,3,3,3,1,0,0,5,5,5,0,5,0,0,0,0,0,0,0,0,0,0,0,0,0,5,5,15,5,0,0,0,0,0,0,0,0,15,5,5,0,5,0,0,0,0,0,0,0,0,0,0,0,0,0,5,15,5,0,0,0,0,0,0,0,0,0,5,0,5,0,5,0,0,0,0,0,0,0,0,0,0,0,0,0,5,7,1,0,0,0,0,0,0,0,0,0,5,0,5,0,0,0,0,0,0,0,0,0,0,0,0,0,0,0,5,5,0,0,0,0,0,0,0,0,0,0,5,0,0,0,0,0,0,0,0,0,0,0,0,0,0,0,0,0,5,0,0,0,0,0,0,0,0,0,0,0,0,0,0,0,0,0,0,0,0,0,0,0,0,0,0,0,0,0,5,0,0,0,0,0,0,0,0,0,0,0,0,0,0,0,0,0,0,0,0,0,0,0,0,0,0,0,0,0,5,0,0,0,0,0,0,0,0,0,0,0,0,0,0,5,0,0,0,0,0,0,0,0,0,0,0,0,0,0,0,0,0,0,5,0,0,0,0,0,0,0,0,0,0,5,0,0,0,0,0,0,0,0,0,0,0,0,0,0,0,0,0,0,5,0,0,0,0,0,0,0,0,0,0,5,0,0,0,0,0,0,0,0,0,0,0,0,0,0,0,0,0,0,0,0,0,0,0,0,0,0,0,0,0,0,0,0,0,0,0,0,0,0,0,0,0,0,0,0,0,0,0,0,0,0,0,0,0,0,0,0,0,0,0,0,0,0,0,0,0,0,0,0,0,0,0,0,0,0,0,0,0,0,0,0,0,0,0,0,0,0,0,0,0,0,0,0,0,0,0,0,0,0,0,0,0,0,0,0,0,0,0,0,0,0,0,0,0,0,0,0,0,0,0,0,0,0,0,0,0,0,0,0,0,0,0,0,0,0,0,0,0,0,0,0,0,0,0,0,0,0,0,0,0,0,0,0,0,0,0,0,0,0,0,0,0,0,0,0,0,0,0,0,0,0,0,0,0,0,0,0,0,0,0,0,0,0,0,0,0,0,0,0,0,0,0,0,0,0,0,0,0,0,0,0,0,0,0,0,0,0,0,0,0,0,0,0,0,0,0,0,0,0,0,0,0,0,0,0,0,0,0,0,0,0,0,0,0,0,0,0,0,0,0,0,0,0,0,0,0,0,0,0,0,0,0,0,0,0,0,0,0,0,0,0,0,0,0,0,0,0,0,0,0,0,0,0,0,0,0,0,0,0,0,0,0,0,0,0,0,0,0,0,0,0,0,0,0,0,0,0,0,0,0,0,0,0,0,0,0,0,0,0,0,0,0,0,0,0,0,0,0,0,0,0,0,0,0,0,0,0,0,0,0,0,0,0,0,0,0,0,0,0,0,0,0,0,0,0,0,0,0,0,0,0,0,0,0,0,0,0,0,0,0,0,0,0,0,0,0,0,0,0,0,0,0,0,0,0,0,0,0,0,0,0,0,0,0,0,0,0,0,0,0,0,0,0,0,0,0,0,0,0,0,0,0,0,0,0,0,0,0,0,0,0,0,0,0,0,0,0,0,0,0,0,0,0,0,0,0,0,0,0,0,0,0,0,0,0,0,0,0,0,0,0,0,0,0,0,0,0,0,0,0,0,0,0,0,0,0,0,0,0,0,0,0,0,0,0,0,0,0,0,0,0,0,0,0,0,0,0,0,0,0,0,0,0,0,0,0,0,0,0,0,0,0,0,0,0,0,0,0,0,0,0,0,0,0,0,0,0,0,0,0,0,0,0,0,0,0,0,0,0,0,0,0,0,0,0,0,0,0,0,0,0,0,0,0,0,0,0,0,0,0,0,0,0,0,0,0,0,0,0,0,0,0,0,0,0,0,0,0,0,0,0,0,0,0,0,0,0,0,0,0,0,0,0,0,0,0,0,0,0,0,0,0,0,0,0,0,0,0,0,0,0,0,0,0,0,0,0,0,0,0,0,0,0,0,0,0,0,0,0,0,0,0,0,0,0,0,0,0,0,0,0,0,0,0,0,0,0,0,0,0,0,0,0,0,0,0,0,0,0,0,0,0,0,0,0,0,0,0,0,0,0,0,0,0,0,0,0,0,0,0,0,0,0,0,0,0,0,0,0,0,0,0,0,0,0,0,0,0,0,0,0,0,0,0,0,0,0,0,0,0,0,0,0,0,0,0,0,0,0,0,0,0,0,0,0,0,0,0,0,0,0,0,0,0,0,0,0,0,0,0,0,0,0,0,0,0,0,0,0,0,0,0,0,0,0,0,0,0,0,0,0,0,0,0,0,0,0,0,0,0,0,0,0,0,0,0,0,0,0,0,0,0,0,0,0,0,0,0,0,0,0,0,0,0,0,0,0,0,0,0,0,0,0,0,0,0,0,0,0,0,0,0,0,0,0,0,0,0,0,0,0,0,0,0,0,0,0,0,0,0,0,0,0,0,0,0,0,0,0,0,0,0,0,0,0,0,0,0,0,0,0,0,0,0,0,0,0,0,0,0,0,0,0,0,0,0,0,0,0,0,0,0,0,0,0,0,0,0,0,0,0,0,0,0,0,0,0,0,0,0,0,0,0,0,0,0,0,0,0,0,0,0,0,0,0,0,0,0,0,0,0,0,0,0,0,0,0,0,0,0,0,0,0,0,0,0,0,0,0,0,0,0,0,0,0,0,0,0,0,0,0,0,0,0,0,0,0,0,0,0,0,0,0,0,0,0,0,0,0,0,0,0,0,0,0,0,0,0,0,0,0,0,0,0,0,0,0,0,0,0,0,0,0,0,0,0,0,0,0,0,0,0,0,0,0,0,0,0,0,0,0,0,0,0,0,0,0,0,0,0,0,0,0,0,0,0,0,0,0,0,0,0,0,0,0,0,0,0,0,0,0,0,0,0,0,0,0,0,0,0,0,0,0,0,0,0,0,0,0,0,0,0,0,0,0,0,0,0,0,0,0,0,0,0,0,0,0,0,0,0,0,0,0,0,0,0,0,0,0,0,0,0,0,0,0,0,0,0,0,0,0,0,0,0,0,0,0,0,0,0,0,0,0,0,0,0,0,0,0,0,0,0,0,0,0,0,0,0,0,0,0,0,0,0,0,0,0,0,0,0,0,0,0,0,0,0,0,0,0,0,0,0,0,0,0,0,0,0,0,0,0,0,0,0,0,0,0,0,0,0,0,0,0,0,0,0,0,0,0,0,0,0,0,0,0,0,0,0,0,0,0,0,0,0,0,0,0,0,0,0,0,0,0,0,0,0,0,0,0,0,0,0,0,0,0,0,0,0,0,0,0,0,0,0,0,0,0,0,0,0,0,0,0,0,0,0,0],
"events":[
null,
null,
{"id":2,"name":"EV002","note":"","pages":[{"conditions":{"actorId":1,"actorValid":false,"itemId":1,"itemValid":false,"selfSwitchCh":"A","selfSwitchValid":false,"switch1Id":1,"switch1Valid":false,"switch2Id":1,"switch2Valid":false,"variableId":1,"variableValid":false,"variableValue":0},"directionFix":false,"image":{"characterIndex":0,"characterName":"","direction":2,"pattern":0,"tileId":0},"list":[{"code":245,"indent":0,"parameters":[{"name":"Storm2","volume":35,"pitch":100,"pan":0}]},{"code":112,"indent":0,"parameters":[]},{"code":224,"indent":1,"parameters":[[238,238,255,255],20,true]},{"code":230,"indent":1,"parameters":[999]},{"code":224,"indent":1,"parameters":[[238,238,255,255],20,true]},{"code":230,"indent":1,"parameters":[333]},{"code":224,"indent":1,"parameters":[[238,238,255,255],20,true]},{"code":224,"indent":1,"parameters":[[238,238,255,255],20,true]},{"code":230,"indent":1,"parameters":[555]},{"code":230,"indent":1,"parameters":[999]},{"code":0,"indent":1,"parameters":[]},{"code":413,"indent":0,"parameters":[]},{"code":0,"indent":0,"parameters":[]}],"moveFrequency":3,"moveRoute":{"list":[{"code":0,"parameters":[]}],"repeat":true,"skippable":false,"wait":false},"moveSpeed":3,"moveType":0,"priorityType":0,"stepAnime":false,"through":false,"trigger":4,"walkAnime":true}],"x":1,"y":0},
{"id":3,"name":"Transfer (mountaincave01)","note":"","pages":[{"conditions":{"actorId":1,"actorValid":false,"itemId":1,"itemValid":false,"selfSwitchCh":"A","selfSwitchValid":false,"switch1Id":1,"switch1Valid":false,"switch2Id":1,"switch2Valid":false,"variableId":1,"variableValid":false,"variableValue":0},"directionFix":false,"image":{"characterIndex":0,"characterName":"","direction":2,"pattern":0,"tileId":0},"list":[{"code":250,"indent":0,"parameters":[{"name":"Move1","volume":90,"pitch":100,"pan":0}]},{"code":201,"indent":0,"parameters":[0,93,13,24,0,0]},{"code":245,"indent":0,"parameters":[{"name":"","volume":90,"pitch":100,"pan":0}]},{"code":236,"indent":0,"parameters":["none",5,1,true]},{"code":0,"indent":0,"parameters":[]}],"moveFrequency":3,"moveRoute":{"list":[{"code":0,"parameters":[]}],"repeat":true,"skippable":false,"wait":false},"moveSpeed":3,"moveType":0,"priorityType":0,"stepAnime":false,"through":false,"trigger":1,"walkAnime":true}],"x":18,"y":2},
{"id":4,"name":"skeleton","note":"","pages":[{"conditions":{"actorId":1,"actorValid":false,"itemId":1,"itemValid":false,"selfSwitchCh":"A","selfSwitchValid":false,"switch1Id":1,"switch1Valid":false,"switch2Id":1,"switch2Valid":false,"variableId":1,"variableValid":false,"variableValue":0},"directionFix":false,"image":{"tileId":250,"characterName":"","characterIndex":0,"direction":2,"pattern":0},"list":[{"code":101,"indent":0,"parameters":["",0,0,2,""]},{"code":401,"indent":0,"parameters":["(Note seems to be written by this skeleton: \"Extreme danger. Do not enter!\")"]},{"code":0,"indent":0,"parameters":[]}],"moveFrequency":3,"moveRoute":{"list":[{"code":0,"parameters":[]}],"repeat":true,"skippable":false,"wait":false},"moveSpeed":3,"moveType":0,"priorityType":1,"stepAnime":false,"through":false,"trigger":0,"walkAnime":true}],"x":17,"y":3},
{"id":5,"name":"Transfer (heavyrain06)","note":"","pages":[{"conditions":{"actorId":1,"actorValid":false,"itemId":1,"itemValid":false,"selfSwitchCh":"A","selfSwitchValid":false,"switch1Id":1,"switch1Valid":false,"switch2Id":1,"switch2Valid":false,"variableId":1,"variableValid":false,"variableValue":0},"directionFix":false,"image":{"tileId":26,"characterName":"","characterIndex":0,"direction":2,"pattern":0},"list":[{"code":250,"indent":0,"parameters":[{"name":"Move1","volume":90,"pitch":100,"pan":0}]},{"code":201,"indent":0,"parameters":[0,91,10,37,4,0]},{"code":0,"indent":0,"parameters":[]}],"moveFrequency":3,"moveRoute":{"list":[{"code":0,"parameters":[]}],"repeat":true,"skippable":false,"wait":false},"moveSpeed":3,"moveType":0,"priorityType":0,"stepAnime":false,"through":false,"trigger":1,"walkAnime":true}],"x":1,"y":8},
{"id":6,"name":"Transfer (heavyrain08)","note":"","pages":[{"conditions":{"actorId":1,"actorValid":false,"itemId":1,"itemValid":false,"selfSwitchCh":"A","selfSwitchValid":false,"switch1Id":1,"switch1Valid":false,"switch2Id":1,"switch2Valid":false,"variableId":1,"variableValid":false,"variableValue":0},"directionFix":false,"image":{"tileId":18,"characterName":"","characterIndex":0,"direction":2,"pattern":0},"list":[{"code":250,"indent":0,"parameters":[{"name":"Move1","volume":90,"pitch":100,"pan":0}]},{"code":201,"indent":0,"parameters":[0,92,35,54,8,0]},{"code":0,"indent":0,"parameters":[]}],"moveFrequency":3,"moveRoute":{"list":[{"code":0,"parameters":[]}],"repeat":true,"skippable":false,"wait":false},"moveSpeed":3,"moveType":0,"priorityType":0,"stepAnime":false,"through":false,"trigger":1,"walkAnime":true}],"x":26,"y":5}
]
}