{
"autoplayBgm":false,"autoplayBgs":false,"battleback1Name":"","battleback2Name":"","bgm":{"name":"","pan":0,"pitch":100,"volume":90},"bgs":{"name":"","pan":0,"pitch":100,"volume":90},"disableDashing":false,"displayName":"","encounterList":[],"encounterStep":30,"height":25,"note":"<Filter:bloom#1,bloom,FullScreen>\n<SetFilter:bloom#1,8,1,0.8,1>\nweather : 0 : 1 : 300 : 200 : 0 : Snow_01_small","parallaxLoopX":false,"parallaxLoopY":false,"parallaxName":"","parallaxShow":true,"parallaxSx":0,"parallaxSy":0,"scrollType":0,"specifyBattleback":false,"tilesetId":4,"width":20,
"data":[6032,6032,6032,6032,6032,6032,6032,6032,6036,6060,6060,6060,6040,6032,6032,6032,6032,6032,6032,6032,6032,6032,6032,6032,6032,6032,6032,6032,6056,6418,6418,6418,6048,6032,6032,6032,6032,6032,6032,6032,6032,6032,6032,6032,6032,6032,6032,6032,6056,6424,6424,6424,6048,6032,6032,6032,6032,6032,6032,6032,6032,6032,6032,6032,6032,6032,6032,6032,6056,1560,1560,1560,6048,6032,6032,6032,6032,6032,6032,6032,6032,6032,6032,6032,6032,6032,6032,6032,6056,1560,1560,1560,6048,6032,6032,6032,6032,6032,6032,6032,6032,6032,6032,6032,6032,6032,6032,6032,6056,1560,1560,1560,6048,6032,6032,6032,6032,6032,6032,6032,6032,6032,6032,6032,6032,6032,6032,6032,6056,1560,1560,1560,6048,6032,6032,6032,6032,6032,6032,6032,6032,6032,6032,6032,6032,6032,6032,6036,6070,1560,1560,1560,6048,6032,6032,6032,6032,6032,6032,6032,6032,6032,6032,6032,6032,6036,6060,6070,6422,1560,1560,1560,6048,6032,6032,6032,6032,6032,6032,6032,6032,6032,6032,6032,6036,6070,6418,6422,6428,1560,1560,1560,6048,6032,6032,6032,6032,6032,6032,6032,6032,6032,6032,6036,6070,6422,6424,6428,1560,1560,1560,1560,6048,6032,6032,6032,6032,6032,6032,6032,6032,6032,6032,6056,6422,6428,1560,1560,1560,1560,1560,1560,6048,6032,6032,6032,6032,6032,6032,6032,6032,6032,6032,6056,6428,1560,1560,1560,1560,1560,1560,1560,6048,6032,6032,6032,6032,6032,6032,6032,6032,6032,6032,6056,1560,1560,1560,1560,1560,1560,1560,1560,6048,6032,6032,6032,6032,6032,6032,6032,6032,6032,6032,6056,1560,1560,1560,1560,6078,1560,1560,1560,6048,6032,6032,6032,6032,6032,6032,6032,6032,6032,6032,6056,1560,1560,1560,1560,6423,1560,1560,1560,6048,6032,6032,6032,6032,6032,6032,6032,6032,6032,6032,6056,1560,1560,1560,1560,6429,1560,1560,1560,6048,6032,6032,6032,6032,6032,6032,6032,6032,6032,6032,6034,6068,1560,1560,1560,1560,1560,1560,1560,6048,6032,6032,6032,6032,6032,6032,6032,6032,6032,6032,6032,6034,6052,6052,6068,1560,1560,1560,1560,6048,6032,6032,6032,6032,6032,6032,6032,6032,6032,6032,6032,6032,6032,6032,6056,1560,1560,1560,1560,6048,6032,6032,6032,6032,6032,6032,6032,6032,6032,6032,6032,6032,6032,6032,6056,1560,1560,1560,1560,6048,6032,6032,6032,6032,6032,6032,6032,6032,6032,6032,6032,6032,6032,6032,6056,1560,1560,1560,1560,6048,6032,6032,6032,6032,6032,6032,6032,6032,6032,6032,6032,6032,6032,6032,6056,1560,1560,1560,1560,6048,6032,6032,6032,6032,6032,6032,6032,6032,6032,6032,6032,6032,6032,6032,6034,6052,6052,6052,6052,6033,6032,6032,6032,6032,6032,6032,6032,6032,6032,6032,6032,6032,6032,6032,6032,6032,6032,6032,6032,6032,6032,6032,6032,6032,6032,6032,6032,3104,3104,3104,3104,3104,3104,3104,3104,3108,3132,3132,3132,3112,3104,3104,3104,3104,3104,3104,3104,3104,3104,3104,3104,3104,3104,3104,3104,3128,0,0,0,3120,3104,3104,3104,3104,3104,3104,3104,3104,3104,3104,3104,3104,3104,3104,3104,3128,0,0,0,3120,3104,3104,3104,3104,3104,3104,3104,3104,3104,3104,3104,3104,3104,3104,3104,3128,0,0,0,3120,3104,3104,3104,3104,3104,3104,3104,3104,3104,3104,3104,3104,3104,3104,3104,3128,0,0,0,3120,3104,3104,3104,3104,3104,3104,3104,3104,3104,3104,3104,3104,3104,3104,3104,3128,0,0,0,3120,3104,3104,3104,3104,3104,3104,3104,3104,3104,3104,3104,3104,3104,3104,3104,3128,0,0,0,3120,3104,3104,3104,3104,3104,3104,3104,3104,3104,3104,3104,3104,3104,3104,3108,3142,0,0,0,3120,3104,3104,3104,3104,3104,3104,3104,3104,3104,3104,3104,3104,3108,3132,3142,0,0,0,0,3120,3104,3104,3104,3104,3104,3104,3104,3104,3104,3104,3104,3108,3142,0,0,0,0,0,0,3120,3104,3104,3104,3104,3104,3104,3104,3104,3104,3104,3108,3142,0,0,0,0,0,0,0,3120,3104,3104,3104,3104,3104,3104,3104,3104,3104,3104,3128,0,0,0,0,0,0,0,0,3120,3104,3104,3104,3104,3104,3104,3104,3104,3104,3104,3128,0,0,0,0,0,0,0,0,3120,3104,3104,3104,3104,3104,3104,3104,3104,3104,3104,3128,0,0,0,0,0,0,0,0,3120,3104,3104,3104,3104,3104,3104,3104,3104,3104,3104,3128,0,0,0,0,3150,0,0,0,3120,3104,3104,3104,3104,3104,3104,3104,3104,3104,3104,3128,0,0,0,0,0,0,0,0,3120,3104,3104,3104,3104,3104,3104,3104,3104,3104,3104,3128,0,0,0,0,0,0,0,0,3120,3104,3104,3104,3104,3104,3104,3104,3104,3104,3104,3106,3140,0,0,0,0,0,0,0,3120,3104,3104,3104,3104,3104,3104,3104,3104,3104,3104,3104,3106,3124,3124,3140,0,0,0,0,3120,3104,3104,3104,3104,3104,3104,3104,3104,3104,3104,3104,3104,3104,3104,3128,0,0,0,0,3120,3104,3104,3104,3104,3104,3104,3104,3104,3104,3104,3104,3104,3104,3104,3128,0,0,0,0,3120,3104,3104,3104,3104,3104,3104,3104,3104,3104,3104,3104,3104,3104,3104,3128,0,0,0,0,3120,3104,3104,3104,3104,3104,3104,3104,3104,3104,3104,3104,3104,3104,3104,3128,0,0,0,0,3120,3104,3104,3104,3104,3104,3104,3104,3104,3104,3104,3104,3104,3104,3104,3106,3124,3124,3124,3124,3105,3104,3104,3104,3104,3104,3104,3104,3104,3104,3104,3104,3104,3104,3104,3104,3104,3104,3104,3104,3104,3104,3104,3104,3104,3104,3104,3104,0,0,0,0,0,0,0,0,0,0,0,0,0,0,0,0,0,0,0,0,0,0,0,0,0,0,0,0,0,0,0,0,0,0,0,0,0,0,0,0,0,0,0,0,0,0,0,0,0,0,0,0,0,0,0,0,0,0,0,0,0,0,0,0,0,0,0,0,0,0,0,0,0,0,0,0,0,0,0,0,0,0,0,0,0,0,0,0,0,0,0,0,0,0,0,0,0,0,0,0,0,0,0,0,0,0,0,0,0,0,0,0,0,0,0,0,0,0,0,0,0,0,0,0,0,0,0,0,0,0,0,0,0,0,0,0,0,0,0,0,0,0,0,0,0,0,0,0,0,0,0,0,0,0,0,0,0,0,0,0,0,0,0,0,0,0,0,0,0,0,0,0,0,0,0,0,0,0,0,0,0,0,0,0,0,0,0,129,0,0,0,0,0,0,0,0,0,0,0,0,0,0,0,0,0,0,0,137,0,0,0,0,0,0,0,0,0,0,0,0,0,0,0,0,0,0,0,0,0,0,0,0,0,0,0,0,0,0,0,0,0,0,0,0,0,0,0,0,0,0,0,0,0,0,0,0,0,0,0,0,0,0,0,0,0,0,0,0,0,0,0,0,0,0,0,0,0,0,0,0,0,0,0,0,0,0,0,0,0,0,0,0,0,0,0,0,0,0,0,0,0,0,0,0,0,0,0,0,0,0,0,0,0,0,0,0,0,0,0,0,0,0,0,0,0,0,0,0,0,0,0,0,0,0,0,0,0,0,0,0,0,0,0,0,0,0,0,0,0,0,0,0,0,0,0,0,0,0,0,0,0,0,0,0,0,0,0,0,0,0,0,0,0,0,0,0,0,0,0,0,0,0,0,0,0,0,0,0,0,0,0,0,0,0,0,0,0,0,0,0,0,0,0,0,0,0,0,0,0,0,0,0,0,0,0,0,0,0,0,0,0,0,0,0,0,0,0,0,0,0,0,0,0,0,0,0,0,0,0,0,0,0,0,0,0,0,0,0,0,0,0,0,0,0,0,0,0,0,0,0,0,0,0,0,0,0,0,0,0,0,0,0,0,0,0,0,0,0,0,0,0,0,0,0,0,0,0,0,0,0,0,0,0,0,0,0,0,0,0,0,0,0,0,0,0,0,0,0,0,0,0,0,0,0,0,0,0,0,0,0,0,0,0,0,0,0,0,0,0,163,0,0,0,0,0,0,0,0,0,0,0,0,0,0,0,0,0,0,0,171,0,0,0,0,0,0,0,0,0,0,0,0,0,0,0,0,0,0,0,0,222,222,0,0,0,0,0,0,0,0,0,0,0,0,0,0,0,0,0,0,0,237,0,0,0,0,0,0,0,0,0,0,0,0,0,0,0,0,0,0,0,220,0,0,0,0,0,0,0,0,0,0,0,0,0,0,0,0,0,0,0,222,0,0,0,0,0,0,0,0,0,0,0,0,0,0,0,0,0,0,0,0,0,0,0,0,0,0,0,0,0,0,0,0,0,0,0,0,130,0,0,73,0,0,0,0,0,0,0,0,0,0,0,0,0,0,128,132,138,0,0,0,0,0,0,0,0,0,0,0,0,0,0,0,0,131,136,140,0,0,0,434,0,0,0,0,0,0,0,0,0,0,0,0,128,139,239,0,0,0,0,442,0,0,0,0,0,0,0,0,0,0,0,0,136,413,0,0,0,0,0,0,0,0,0,0,0,0,0,0,0,0,0,0,230,405,0,0,0,0,0,434,0,0,0,0,0,0,0,0,0,0,0,0,223,413,0,0,0,0,0,442,0,0,0,0,0,0,0,0,0,0,0,0,0,0,0,0,128,0,0,0,0,0,0,0,0,0,0,0,0,0,0,0,0,0,0,0,136,0,0,0,0,0,0,0,0,0,0,0,0,0,0,0,0,239,239,0,0,0,484,485,0,0,0,0,0,0,0,0,0,0,0,0,0,0,0,0,0,0,492,493,0,0,0,0,0,0,0,0,0,0,0,0,0,0,0,0,0,0,484,485,0,0,0,0,0,0,0,0,0,0,0,0,0,0,0,0,0,0,492,493,0,0,0,0,0,0,0,0,0,0,0,0,0,0,0,0,0,0,0,0,0,0,0,0,0,0,0,0,0,0,0,0,0,0,0,0,11,0,0,0,0,0,0,0,0,0,0,0,0,0,0,0,0,0,0,0,0,0,0,0,0,0,0,0,0,0,0,0,0,0,0,0,0,0,0,0,0,0,0,0,0,0,0,0,0,0,0,0,0,0,0,0,0,0,0,0,0,0,0,0,0,0,0,0,0,0,0,0,0,0,0,0,0,0,0,0,0,0,0,0,0,0,0,0,0,0,0,0,0,0,0,0,0,0,0,0,0,0,0,0,0,0,0,0,0,0,0,0,0,0,0,0,0,0,0,0,0,5,0,0,0,0,0,0,0,0,0,0,0,0,0,0,0,0,0,0,0,5,0,0,0,0,0,0,0,0,0,0,0,0,0,0,0,0,0,0,0,5,0,0,0,0,0,0,0,0,0,0,0,0,0,0,0,0,0,0,0,5,0,0,0,0,0,0,0,0,0,0,0,0,0,0,0,0,0,0,0,5,0,0,0,0,0,0,0,0,0,0,0,0,0,0,0,0,0,0,0,5,0,0,0,0,0,0,0,0,0,0,0,0,0,0,0,0,0,0,0,5,0,0,0,0,0,0,0,0,0,0,0,0,0,0,0,0,0,0,5,0,0,0,0,0,0,0,0,0,0,0,0,0,0,0,0,0,5,0,0,0,0,0,0,0,0,0,0,0,0,0,0,0,0,0,0,5,0,0,0,0,0,0,0,0,0,0,0,0,0,0,0,0,0,0,5,0,0,0,0,0,0,0,0,0,0,0,0,0,0,0,0,0,0,0,5,0,0,0,0,0,0,0,0,0,0,0,0,0,0,0,0,0,0,0,5,0,0,0,0,5,0,0,0,0,0,0,0,0,0,0,0,0,0,0,5,0,0,0,0,5,0,0,0,0,0,0,0,0,0,0,0,0,0,0,0,0,0,0,0,0,0,0,0,0,0,0,0,0,0,0,0,0,0,0,0,0,0,0,0,0,0,0,0,0,0,0,0,0,0,0,0,0,0,0,0,0,0,0,5,0,0,0,0,0,0,0,0,0,0,0,0,0,0,0,0,0,0,0,5,0,0,0,0,0,0,0,0,0,0,0,0,0,0,0,0,0,0,0,5,0,0,0,0,0,0,0,0,0,0,0,0,0,0,0,0,0,0,0,5,0,0,0,0,0,0,0,0,0,0,0,0,0,0,0,0,0,0,0,0,0,0,0,0,0,0,0,0,0,0,0,0,0,0,0,0,0,0,0,0,0,0,0,0,0,0,0,0,0,0,0,0,0,0,0,0,0,0,0,0,0,0,0,0,0,0,0,0,0,0,0,0,0,0,0,0,0,0,0,0,0,0,0,0,0,0,0,0,0,0,0,0,0,0,0,0,0,0,0,0,0,0,0,0,0,0,0,0,0,0,0,0,0,0,0,0,0,0,0,0,0,0,0,0,0,0,0,0,0,0,0,0,0,0,0,0,0,0,0,0,0,0,0,0,0,0,0,0,0,0,0,0,0,0,0,0,0,0,0,0,0,0,0,0,0,0,0,0,0,0,0,0,0,0,0,0,0,0,0,0,0,0,0,0,0,0,0,0,0,0,0,0,0,0,0,0,0,0,0,0,0,0,0,0,0,0,0,0,0,0,0,0,0,0,0,0,0,0,0,0,0,0,0,0,0,0,0,0,0,0,0,0,0,0,0,0,0,0,0,0,0,0,0,0,0,0,0,0,0,0,0,0,0,0,0,0,0,0,0,0,0,0,0,0,0,0,0,0,0,0,0,0,0,0,0,0,0,0,0,0,0,0,0,0,0,0,0,0,0,0,0,0,0,0,0,0,0,0,0,0,0,0,0,0,0,0,0,0,0,0,0,0,0,0,0,0,0,0,0,0,0,0,0,0,0,0,0,0,0,0,0,0,0,0,0,0,0,0,0,0,0,0,0,0,0,0,0,0,0,0,0,0,0,0,0,0,0,0,0,0,0,0,0,0,0,0,0,0,0,0,0,0,0,0,0,0,0,0,0,0,0,0,0,0,0,0,0,0,0,0,0,0,0,0,0,0,0,0,0,0,0,0,0,0,0,0,0,0,0,0,0,0,0,0,0,0,0,0,0,0,0,0,0,0,0,0,0,0,0,0,0,0,0,0,0,0,0,0,0,0,0,0,0,0,0,0,0,0,0,0,0,0,0,0,0,0,0,0,0,0,0,0,0,0,0,0,0,0,0,0,0,0,0,0,0,0,0,0,0,0,0,0,0,0,0,0,0,0,0,0,0,0,0,0,0,0,0,0,0,0,0,0,0,0,0,0,0,0,0,0,0,0,0,0,0,0,0,0,0,0,0,0,0,0,0,0,0,0,0,0,0,0,0,0,0,0,0,0,0,0,0,0,0,0,0,0,0,0,0,0,0],
"events":[
null,
{"id":1,"name":"EV001","note":"<cl: fire 100 #fff0e0>","pages":[{"conditions":{"actorId":1,"actorValid":false,"itemId":1,"itemValid":false,"selfSwitchCh":"A","selfSwitchValid":false,"switch1Id":1,"switch1Valid":false,"switch2Id":1,"switch2Valid":false,"variableId":1,"variableValid":false,"variableValue":0},"directionFix":true,"image":{"tileId":0,"characterName":"!Flame","direction":6,"pattern":0,"characterIndex":0},"list":[{"code":0,"indent":0,"parameters":[]}],"moveFrequency":3,"moveRoute":{"list":[{"code":0,"parameters":[]}],"repeat":true,"skippable":false,"wait":false},"moveSpeed":3,"moveType":0,"priorityType":1,"stepAnime":true,"through":false,"trigger":0,"walkAnime":false}],"x":11,"y":1},
{"id":2,"name":"EV002","note":"","pages":[{"conditions":{"actorId":1,"actorValid":false,"itemId":1,"itemValid":false,"selfSwitchCh":"A","selfSwitchValid":false,"switch1Id":1,"switch1Valid":false,"switch2Id":1,"switch2Valid":false,"variableId":1,"variableValid":false,"variableValue":0},"directionFix":false,"image":{"characterIndex":0,"characterName":"","direction":2,"pattern":0,"tileId":0},"list":[{"code":357,"indent":0,"parameters":["Community_Lighting_MZ","playerLightRadius","Player Light Radius",{"radius":"100","color":"#666055","brightness":"0","fadeSpeed":"0"}]},{"code":657,"indent":0,"parameters":["Radius = 100"]},{"code":657,"indent":0,"parameters":["Color = #666055"]},{"code":657,"indent":0,"parameters":["Brightness = 0"]},{"code":657,"indent":0,"parameters":["fadeSpeed = 0"]},{"code":357,"indent":0,"parameters":["Community_Lighting_MZ","setTint","Set Tint",{"color":"#99aaaf","fadeSpeed":"0"}]},{"code":657,"indent":0,"parameters":["Tint Color = #99aaaf"]},{"code":657,"indent":0,"parameters":["Fade Speed = 0"]},{"code":214,"indent":0,"parameters":[]},{"code":0,"indent":0,"parameters":[]}],"moveFrequency":3,"moveRoute":{"list":[{"code":0,"parameters":[]}],"repeat":true,"skippable":false,"wait":false},"moveSpeed":3,"moveType":0,"priorityType":0,"stepAnime":false,"through":false,"trigger":4,"walkAnime":true}],"x":5,"y":24},
{"id":3,"name":"EV003","note":"","pages":[{"conditions":{"actorId":1,"actorValid":false,"itemId":1,"itemValid":false,"selfSwitchCh":"A","selfSwitchValid":false,"switch1Id":1,"switch1Valid":false,"switch2Id":1,"switch2Valid":false,"variableId":1,"variableValid":false,"variableValue":0},"directionFix":false,"image":{"characterIndex":0,"characterName":"","direction":2,"pattern":0,"tileId":0},"list":[{"code":101,"indent":0,"parameters":["",0,0,2,""]},{"code":401,"indent":0,"parameters":["(When walking, stay on the path to go to \\N[996]."]},{"code":0,"indent":0,"parameters":[]}],"moveFrequency":3,"moveRoute":{"list":[{"code":0,"parameters":[]}],"repeat":true,"skippable":false,"wait":false},"moveSpeed":3,"moveType":0,"priorityType":1,"stepAnime":false,"through":false,"trigger":0,"walkAnime":true}],"x":11,"y":8},
null,
null,
{"id":6,"name":"Transfer (icytunnel-official-2)","note":"","pages":[{"conditions":{"actorId":1,"actorValid":false,"itemId":1,"itemValid":false,"selfSwitchCh":"A","selfSwitchValid":false,"switch1Id":1,"switch1Valid":false,"switch2Id":1,"switch2Valid":false,"variableId":1,"variableValid":false,"variableValue":0},"directionFix":false,"image":{"characterIndex":0,"characterName":"","direction":2,"pattern":0,"tileId":0},"list":[{"code":250,"indent":0,"parameters":[{"name":"Move1","volume":90,"pitch":100,"pan":0}]},{"code":201,"indent":0,"parameters":[0,109,9,1,2,0]},{"code":0,"indent":0,"parameters":[]}],"moveFrequency":3,"moveRoute":{"list":[{"code":0,"parameters":[]}],"repeat":true,"skippable":false,"wait":false},"moveSpeed":3,"moveType":0,"priorityType":0,"stepAnime":false,"through":false,"trigger":1,"walkAnime":true}],"x":8,"y":22},
{"id":7,"name":"Transfer (icytunnel0)","note":"","pages":[{"conditions":{"actorId":1,"actorValid":false,"itemId":1,"itemValid":false,"selfSwitchCh":"A","selfSwitchValid":false,"switch1Id":1,"switch1Valid":false,"switch2Id":1,"switch2Valid":false,"variableId":1,"variableValid":false,"variableValue":0},"directionFix":false,"image":{"characterIndex":0,"characterName":"","direction":2,"pattern":0,"tileId":0},"list":[{"code":250,"indent":0,"parameters":[{"name":"Move1","volume":90,"pitch":100,"pan":0}]},{"code":201,"indent":0,"parameters":[0,59,20,7,2,0]},{"code":0,"indent":0,"parameters":[]}],"moveFrequency":3,"moveRoute":{"list":[{"code":0,"parameters":[]}],"repeat":true,"skippable":false,"wait":false},"moveSpeed":3,"moveType":0,"priorityType":0,"stepAnime":false,"through":false,"trigger":1,"walkAnime":true}],"x":9,"y":2}
]
}