{
"autoplayBgm":true,"autoplayBgs":false,"battleback1Name":"RockCave","battleback2Name":"DirtCave","bgm":{"name":"mv/bgm/Dungeon3","pan":0,"pitch":100,"volume":90},"bgs":{"name":"","pan":0,"pitch":100,"volume":90},"disableDashing":false,"displayName":"Auridi Cave B10","encounterList":[{"troopId":109,"weight":5,"regionSet":[]},{"troopId":91,"weight":5,"regionSet":[]},{"troopId":95,"weight":5,"regionSet":[]},{"troopId":92,"weight":5,"regionSet":[]},{"troopId":93,"weight":5,"regionSet":[]},{"troopId":101,"weight":5,"regionSet":[]},{"troopId":83,"weight":5,"regionSet":[]},{"troopId":103,"weight":5,"regionSet":[]}],"encounterStep":30,"height":65,"note":"<Filter:bloom#1,bloom,FullScreen>\n<SetFilter:bloom#1,8,1,0.8,1>\nweather : 0 : 5 : 800 : 50 : 1 : Light_01A : 1 : 40 : 40 : 20","parallaxLoopX":false,"parallaxLoopY":false,"parallaxName":"","parallaxShow":true,"parallaxSx":0,"parallaxSy":0,"scrollType":0,"specifyBattleback":true,"tilesetId":4,"width":40,
"data":[5936,5936,5936,5960,6335,2579,6335,5952,5936,5936,5936,5936,5936,5936,5936,5936,5936,5936,5936,5936,5936,5936,5940,5964,5964,5964,5964,5964,5944,5936,5936,5936,5936,5936,5936,5936,5936,5936,5936,5936,5936,5936,5936,5960,2562,2576,2564,5952,5936,5936,5936,5936,5936,5936,5936,5936,5936,5936,5936,5940,5964,5964,5974,6330,6330,6330,6330,6330,5976,5964,5964,5944,5936,5936,5936,5936,5936,5936,5936,5936,5936,5936,5936,5960,2544,2576,2552,5952,5936,5936,5936,5936,5936,5936,5936,5936,5936,5936,5940,5974,6330,6330,6334,2562,2548,2548,2564,3246,6331,6330,6330,5976,5944,5936,5936,5936,5936,5936,5936,5936,5936,5936,5936,5960,2544,2576,2552,5952,5936,5936,5936,5936,5936,5936,5936,5936,5936,5936,5960,6334,2562,2548,2549,2557,2556,2536,2530,2548,2548,2548,2564,6331,5952,5936,5936,5936,5936,5936,5936,5936,5936,5936,5936,5960,2544,2576,2552,5952,5936,5936,5936,5936,5936,5936,5936,5936,5936,5940,5974,2571,2557,2556,2566,3234,3236,2568,2556,2556,2556,2556,2558,2573,5952,5936,5936,5936,5936,5936,5936,5936,5936,5936,5936,5960,2544,2576,2552,5976,5964,5944,5936,5936,5936,5936,5936,5936,5936,5960,6334,3234,3220,3220,3220,3201,3202,3220,3220,3220,3221,3233,3245,5970,5937,5936,5936,5936,5936,5936,5936,5936,5936,5936,5936,5960,2544,2576,2552,6331,6330,5976,5964,5944,5936,5936,5936,5936,5936,5960,3243,3209,3200,3200,3204,3228,3208,3200,3200,3204,3238,3338,5970,5937,5936,5936,5936,5936,5936,5936,5936,5936,5936,5936,5936,5960,2544,2528,2534,2561,2565,6331,6330,5976,5944,5936,5936,5936,5936,5938,5972,3240,3208,3204,3238,5978,3240,3228,3212,3238,3330,3322,5952,5936,5936,5936,5936,5936,5936,5936,5936,5936,5936,5936,5936,5960,2544,2528,2552,3242,2569,2561,2565,6331,5976,5944,5936,5936,5936,5936,5938,5972,3240,3238,5970,5939,5956,5972,3244,5978,3312,3320,5952,5936,5936,5936,5936,5936,5936,5936,5936,5936,5936,5936,5936,5960,2568,2556,2566,3217,3220,3236,2569,2565,6331,5976,5944,5936,5936,5936,5936,5938,5956,5956,5937,5936,5936,5938,5956,5962,3314,3334,5952,5936,5936,5936,5936,5936,5936,5936,5936,5936,5936,5936,5936,5938,5956,5956,5972,3240,3208,3202,3236,2569,2565,6331,5952,5936,5936,5936,5936,5936,5936,5936,5936,5936,5936,5936,5936,5960,3328,2570,5952,5936,5936,5936,5936,5936,5936,5936,5936,5936,5936,5936,5936,5936,5936,5936,5938,5972,3240,3228,3210,3236,2569,2565,5976,5944,5936,5936,5940,5964,5964,5964,5964,5964,5964,5964,5964,5961,3328,2560,5952,5936,5936,5936,5936,5936,5936,5936,5936,5936,5936,5936,5936,5936,5936,5936,5936,5938,5956,5972,3240,3210,3236,2560,6331,5952,5936,5936,5960,6330,6330,6330,6330,6330,6330,6330,6330,5968,3328,2560,5952,5936,5936,5936,5936,5936,5936,5936,5936,5936,5936,5936,5936,5936,5936,5936,5936,5936,5936,5938,5972,3218,3238,2569,2565,5952,5936,5936,5960,3339,3329,3329,3329,3329,3329,3329,3341,5968,3328,2560,5952,5936,5936,5936,5936,5936,5936,5936,5936,5936,5936,5936,5936,5936,5936,5936,5936,5936,5936,5936,5960,3244,3338,3242,2560,5976,5944,5936,5938,5956,5956,5956,5956,5956,5956,5956,5956,5962,3328,2560,5952,5936,5936,5936,5936,5936,5936,5936,5936,5936,5936,5936,5936,5936,5936,5936,5936,5936,5936,5936,5938,5972,3328,3232,2560,6331,5952,5936,5940,5964,5964,5964,5964,5964,5944,5936,5940,5974,3328,2560,5976,5944,5936,5936,5936,5936,5936,5936,5936,5936,5936,5936,5936,5936,5936,5936,5936,5936,5936,5936,5936,5960,3328,3232,2569,2565,5976,5964,5974,6334,2577,2576,2578,6331,5952,5940,5974,6334,3328,2560,6331,5976,5944,5936,5936,5936,5936,5936,5936,5936,5936,5936,5936,5936,5936,5936,5936,5936,5936,5936,5940,5974,3328,3219,3245,2560,6331,6330,6334,2563,2557,2540,2566,3242,5952,5960,6334,3242,3340,2545,2564,6331,5952,5936,5936,5936,5940,5964,5964,5944,5936,5936,5936,5936,5936,5936,5936,5936,5936,5936,5960,6334,3328,3244,3338,2547,2561,2561,2561,2567,3242,2560,3235,3239,5952,5960,3235,3231,3245,2546,2558,2573,5952,5936,5936,5940,5974,6330,6330,5976,5936,5936,5936,5936,5936,5936,5936,5936,5936,5940,5974,3242,3313,3317,3335,2572,5970,5956,5972,3342,3244,2560,3244,3342,5952,5960,3232,1625,1625,2572,3330,3332,5952,5936,5936,5960,6334,2562,2564,6335,5936,5936,5936,5936,5936,5936,5936,5936,5940,5974,6334,3232,3314,3334,3234,3236,5976,5944,5938,5957,5981,2560,5979,5959,5965,5974,3232,1625,1625,3330,3297,3320,5976,5964,5964,5974,2562,2529,2530,2548,5936,5936,5936,5936,5936,5936,5936,5936,5960,6334,2570,3232,3328,3243,3229,3225,6331,5976,5948,5974,6334,2560,6331,5980,6330,6334,3232,3339,3329,3325,3324,3334,6331,6330,6330,6334,2544,2528,2528,2528,5936,5936,5936,5936,5936,5936,5936,5940,5974,2563,2567,3232,3313,3317,3341,3217,3236,6331,5968,6334,3242,2560,3246,6335,3234,3220,3207,3245,2563,2561,2561,2561,2561,2561,2561,2561,2537,2528,2528,2528,5936,5936,5936,5936,5936,5936,5940,5974,6334,2560,3235,3239,3314,3334,3234,3201,3224,1650,5980,3342,3232,2569,2565,3243,3229,3228,3238,2563,2567,5978,3234,3236,5970,5956,5956,5972,2568,2536,2532,2556,5936,5936,5936,5936,5936,5936,5960,6334,2563,2567,3244,3330,3322,3243,3209,3200,3224,1658,6335,3234,3203,3236,2569,2561,2561,2561,2561,2567,3242,5968,3216,3224,5952,5936,5936,5938,5972,2568,2566,5970,5936,5936,5936,5936,5936,5936,5960,2563,2567,3246,3330,3297,3302,3341,3240,3228,3210,3220,3220,3201,3200,3202,3220,3220,3220,3220,3220,3221,3239,5968,3216,3224,5952,5936,5936,5936,5938,5956,5956,5937,5936,5936,5936,5936,5936,5936,5960,2560,3339,3329,3325,3324,3334,5970,5956,5972,3240,3208,3200,3200,3200,3200,3204,3228,3228,3208,3200,3224,5971,5975,3216,3224,5952,5936,5936,5936,5936,5936,5936,5936,5936,5936,5936,5936,5936,5936,5960,2572,3234,3221,3245,5970,5956,5937,5936,5938,5972,3240,3228,3208,3200,3200,3224,5970,5972,3216,3200,3224,5980,6334,3216,3224,5952,5936,5936,5936,5936,5936,5936,5936,5936,5936,5936,5936,5936,5940,5974,3234,3205,3238,5970,5937,5936,5936,5936,5936,5938,5956,5972,3218,3228,3228,3238,5954,5974,3216,3200,3224,6335,3234,3205,3238,5952,5936,5936,5936,5936,5936,5936,5936,5936,5936,5936,5936,5936,5960,6334,3216,3224,5970,5937,5940,5964,5964,5964,5964,5944,5940,5974,3232,5979,5958,5956,5962,6334,3216,3200,3202,3220,3201,3224,5970,5937,5936,5936,5936,5940,5964,5944,5936,5936,5936,5936,5936,5940,5974,3234,3205,3238,5952,5936,5960,6334,2577,2578,6331,5976,5974,6334,3232,6331,5952,5936,5960,3234,3201,3200,3200,3200,3204,3238,5952,5936,5936,5936,5940,5974,6330,5976,5944,5936,5936,5936,5936,5960,6334,3216,3224,5970,5937,5940,5974,2562,2529,2530,2564,6331,6334,2570,3241,3245,5952,5940,5974,3216,3200,3200,3200,3200,3224,5970,5937,5936,5936,5940,5974,6334,2570,6331,5952,5936,5936,5936,5940,5974,3234,3201,3224,5952,5936,5960,6334,2544,2528,2528,2530,2549,2561,2559,2573,5970,5941,5974,6334,3216,3200,3200,3204,3228,3238,5952,5936,5936,5936,5960,6334,2562,2531,2564,5952,5936,5936,5936,5960,6334,3216,3200,3224,5952,5936,5960,2562,2529,2528,2528,2528,2552,5970,5956,5956,5937,5960,6334,3235,3229,3228,3208,3224,5970,5956,5937,5936,5936,5936,5960,2562,2529,2532,2566,5952,5936,5936,5936,5960,3234,3201,3200,3224,5952,5936,5960,2544,2528,2528,2528,2528,2552,5952,5936,5936,5936,5960,3235,3239,5971,5981,3216,3224,5952,5936,5936,5936,5936,5936,5960,2544,2528,2552,5970,5937,5936,5936,5936,5960,3216,3200,3200,3224,5952,5936,5960,2568,2536,2528,2528,2532,2566,5952,5936,5936,5940,5974,3232,5970,5962,6334,3218,3238,5952,5936,5936,5936,5936,5936,5960,2544,2532,2566,5952,5936,5936,5936,5936,5960,3240,3208,3200,3224,5952,5936,5938,5972,2568,2536,2528,2552,5970,5937,5936,5936,5960,6334,3232,5954,5974,3235,3239,5970,5937,5936,5936,5936,5936,5936,5960,2568,2566,5970,5937,5936,5936,5936,5936,5938,5972,3240,3208,3224,5976,5964,5944,5938,5972,2568,2556,2566,5952,5936,5936,5940,5974,3235,3239,5968,6334,3232,5970,5937,5936,5936,5936,5936,5936,5936,5938,5956,5956,5937,5936,5936,5936,5936,5936,5936,5938,5972,3240,3225,6331,6330,5976,5944,5938,5956,5956,5956,5937,5936,5940,5974,6334,3232,5971,5975,3235,3239,5952,5936,5936,5936,5936,5936,5936,5936,5936,5936,5936,5936,5936,5936,5936,5936,5936,5936,5936,5938,5972,3217,3220,3236,6331,5976,5944,5936,5936,5936,5936,5940,5974,6334,3235,3239,5968,6334,3232,5970,5937,5936,5936,5936,5936,5936,5936,5936,5936,5936,5936,5936,5936,5936,5936,5936,5936,5936,5936,5936,5960,3240,3208,3202,3236,6331,5976,5964,5964,5964,5964,5974,6334,3235,3239,5979,5975,3235,3239,5952,5936,5936,5936,5936,5936,5936,5936,5936,5936,5936,5936,5936,5936,5936,5936,5936,5936,5936,5936,5936,5938,5972,3240,3208,3202,3236,6331,6330,6330,6330,6330,6334,3235,3239,5978,6331,6334,3232,5970,5937,5936,5936,5936,5936,5936,5936,5936,5936,5936,5936,5936,5936,5936,5936,5936,5936,5936,5936,5936,5936,5936,5938,5972,3240,3228,3210,3220,3220,3220,3221,3233,3233,3239,5971,5975,3234,3220,3226,5952,5936,5936,5936,5936,5936,5936,5936,5936,5936,5936,5936,5936,5936,5936,5936,5936,5936,5936,5936,5936,5936,5936,5936,5938,5956,5972,3240,3208,3200,3204,3238,5970,5956,5957,5975,6334,3216,3204,3238,5952,5940,5964,5944,5936,5936,5936,5936,5936,5936,5936,5936,5936,5936,5936,5936,5936,5936,5936,5936,5936,5936,5936,5936,5936,5936,5938,5972,3216,3200,3224,5979,5965,5944,5960,6334,3234,3205,3238,5970,5941,5974,6330,5952,5936,5936,5936,5936,5936,5936,5936,5936,5936,5936,5936,5936,5936,5936,5936,5936,5936,5936,5936,5936,5936,5936,5936,5960,3216,3200,3224,6331,6330,5976,5974,3234,3201,3224,5970,5941,5974,6334,2570,5952,5936,5936,5936,5936,5936,5936,5936,5936,5936,5936,5936,5936,5936,5936,5936,5936,5936,5936,5936,5936,5936,5936,5940,5974,3216,3200,3202,3220,3236,6331,6334,3216,3204,3238,5954,5974,6334,2562,2554,5952,5936,5936,5936,5936,5936,5936,5936,5936,5936,5936,5936,5936,5936,5936,5936,5936,5936,5936,5936,5936,5936,5940,5974,6334,3216,3200,3200,3200,3206,3233,3233,3229,3238,5970,5962,6334,2571,2537,2552,5952,5936,5936,5936,5936,5936,5936,5936,5936,5936,5936,5936,5936,5936,5936,5936,5936,5936,5936,5936,5936,5940,5974,6334,3234,3201,3200,3200,3204,3238,5970,5956,5956,5956,5937,5938,5956,5972,2546,2566,5952,5936,5936,5936,5940,5964,5944,5936,5936,5936,5936,5936,5936,5936,5936,5936,5936,5936,5936,5936,5936,5960,6334,3234,3201,3200,3204,3228,3238,5970,5937,5936,5936,5936,5936,5936,5936,5960,2572,5970,5937,5936,5940,5964,5974,6330,5952,5936,5936,5936,5936,5936,5936,5936,5936,5936,5936,5936,5936,5936,5940,5974,3234,3201,3200,3200,3224,5970,5956,5937,5936,5936,5936,5936,5936,5936,5936,5938,5957,5965,5964,5964,5974,6330,6334,3242,5952,5936,5936,5936,5936,5936,5936,5936,5936,5936,5936,5936,5936,5936,5960,6334,3216,3200,3200,3200,3224,5952,5936,5936,5936,5936,5936,5936,5936,5936,5940,5964,5974,6330,6330,6330,6334,3234,3220,3226,5952,5936,5936,5936,5936,5936,5936,5936,5936,5936,5936,5936,5936,5936,5960,3234,3201,3200,3200,3200,3224,5952,5936,5936,5936,5936,5936,5940,5964,5964,5974,6330,6334,3234,3220,3220,3220,3201,3200,3224,5952,5936,5936,5936,5936,5936,5936,5936,5936,5936,5936,5936,5936,5936,5960,3216,3200,3200,3200,3200,3224,5952,5936,5936,5936,5936,5940,5974,6330,6330,6334,3234,3220,3201,3204,3228,3228,3228,3208,3224,5952,5936,5936,5936,5936,5936,5936,5936,5936,5936,5936,5936,5936,5936,5960,3216,3200,3200,3200,3200,3224,5976,5964,5948,5964,5964,5974,6334,3234,3220,3220,3205,3228,3228,3238,5970,5956,5972,3240,3238,5952,5936,5936,5936,5936,5936,5936,5936,5936,5936,5936,5936,5936,5936,5960,3216,3200,3200,3200,3200,3224,6331,6330,5980,6330,6330,6334,3234,3201,3200,3204,3238,5970,5956,5956,5937,5936,5938,5956,5956,5937,5936,5936,5936,5936,5936,5936,5936,5936,5936,5936,5936,5936,5936,5960,3216,3200,3200,3200,3200,3202,3220,3236,6335,3234,3220,3220,3201,3204,3228,3238,5970,5937,5936,5936,5936,5936,5936,5936,5936,5936,5936,5936,5936,5936,5936,5936,5936,5936,5936,5936,5936,5936,5936,5960,3240,3208,3200,3200,3200,3200,3200,3202,3220,3201,3200,3200,3204,3238,5970,5956,5937,5936,5936,5940,5964,5964,5964,5964,5964,5964,5944,5936,5936,5936,5936,5936,5936,5936,5936,5936,5936,5936,5936,5938,5972,3240,3228,3208,3200,3200,3200,3200,3200,3204,3228,3228,3238,5970,5937,5936,5936,5936,5940,5974,6322,6323,6322,6326,6330,6330,5976,5944,5936,5936,5936,5936,5936,5936,5936,5936,5936,5936,5936,5936,5938,5956,5972,3240,3228,3228,3228,3228,3228,3238,5970,5956,5956,5937,5936,5936,5936,5940,5974,6327,6320,6321,6320,6332,2082,2084,6323,5976,5944,5936,5936,5936,5936,5936,5936,5936,5936,5936,5936,5936,5936,5936,5938,5956,5956,5956,5956,5956,5956,5956,5937,5936,5936,5936,5936,5936,5940,5974,6327,6325,6328,6321,6324,2091,2077,2086,6321,6327,5976,5944,5936,5936,5936,5936,5936,5936,5936,5936,5936,5936,5936,5936,5936,5936,5936,5936,5936,5936,5936,5936,5936,5936,5936,5936,5936,5936,5960,6322,6325,6325,2094,6329,6320,6323,6327,6335,6329,6325,6322,5952,5936,5936,5936,5936,5936,5936,5936,5936,5936,5936,5936,5936,5936,5936,5936,5936,5936,5936,5936,5936,5936,5936,5936,5936,5936,5936,5960,6320,6325,6325,6327,2094,6321,6321,6333,2091,2093,6325,6320,5952,5936,5936,5936,5936,5936,5936,5936,5936,5936,5936,5936,5936,5936,5936,5936,5936,5936,5936,5936,5936,5936,5936,5936,5936,5936,5936,5960,6328,6325,6325,6325,6327,6320,6325,2094,6323,6326,6325,6328,5952,5936,5936,5936,5936,5936,5936,5936,5936,5936,5936,5936,5936,5936,5936,5936,5936,5936,5936,5936,5936,5936,5936,5936,5936,5936,5936,5938,5972,6333,6333,6333,6333,6328,6329,6335,6329,6332,6333,5970,5937,5936,5936,0,0,0,0,0,0,0,0,0,0,0,0,0,0,0,0,0,0,0,0,0,0,0,0,0,0,0,0,0,0,0,0,0,0,0,0,0,0,0,0,0,0,0,0,0,0,0,0,0,3194,0,0,0,0,0,0,0,0,0,0,0,0,0,0,0,0,0,0,0,0,0,0,0,0,0,0,0,0,0,0,3172,3188,0,0,0,0,0,0,3186,3178,0,0,0,0,0,0,0,0,0,0,0,0,0,0,0,0,0,0,0,0,0,0,0,0,0,0,0,0,0,0,3152,3176,0,0,0,0,0,0,3192,3190,0,1544,0,0,0,0,0,0,1544,0,0,3966,0,0,0,0,0,0,0,0,0,0,0,0,0,0,0,0,0,0,3152,3176,0,0,0,0,0,0,0,0,0,1544,0,0,0,0,0,0,1544,0,0,0,0,0,0,0,0,0,0,3966,0,0,0,0,0,0,0,0,0,0,3152,3176,0,0,0,0,0,0,0,0,0,0,0,0,0,0,0,0,0,0,0,0,0,0,0,0,0,0,0,0,0,0,0,0,0,0,0,0,0,0,3152,3154,3188,0,0,0,0,0,0,0,0,0,0,0,0,0,0,0,0,0,0,0,0,0,0,0,0,0,0,0,0,0,0,0,0,0,0,0,0,0,3180,3180,3190,0,0,0,0,0,0,0,0,0,0,0,0,0,0,0,0,0,0,0,0,0,0,0,0,0,0,0,0,0,0,0,0,0,0,0,0,0,0,0,0,0,0,0,0,0,0,0,0,0,0,0,0,3195,3185,3197,0,0,0,0,0,0,0,0,0,0,0,0,0,0,0,0,0,0,0,0,0,0,0,0,0,0,0,0,0,0,3579,3573,0,3966,0,0,0,0,0,0,3198,0,0,0,0,0,0,0,0,0,0,0,0,0,0,0,0,0,0,0,0,0,0,0,0,0,0,0,0,0,0,3577,3573,0,3578,0,0,0,3186,3188,0,0,0,0,0,0,0,0,0,0,0,0,0,0,0,0,0,0,0,0,0,0,0,0,0,0,0,0,0,0,0,0,3580,0,3577,3581,0,0,3168,3176,0,0,0,0,0,0,0,0,0,0,0,0,0,0,0,0,0,0,0,0,0,0,0,0,0,0,0,0,0,0,0,0,0,0,0,33,0,0,3192,3190,0,0,0,0,0,0,0,0,0,0,0,0,0,0,0,0,0,0,0,0,0,0,0,0,0,0,0,0,0,0,0,0,0,0,0,33,3582,0,0,0,0,0,0,0,1544,0,0,1544,1544,0,0,0,0,0,0,0,0,0,0,0,0,0,0,0,0,0,0,0,0,0,0,0,0,0,0,0,33,0,0,0,0,0,0,0,0,0,0,0,0,0,0,0,0,0,0,0,0,0,0,0,0,0,0,0,0,0,0,0,0,0,0,0,0,0,0,0,33,0,0,0,0,0,0,0,0,0,0,0,0,0,0,0,0,0,0,0,0,0,0,0,0,0,0,0,0,0,0,0,0,0,0,0,0,0,0,0,33,3582,0,0,0,0,0,0,0,0,0,0,0,0,0,0,0,0,0,0,0,0,0,0,0,0,0,0,0,0,0,0,0,0,0,0,0,0,0,0,0,33,0,0,0,0,0,0,0,0,0,0,0,0,0,0,0,0,0,3194,0,0,0,0,0,0,0,0,3194,0,3198,0,0,0,0,0,0,0,0,3582,0,3582,33,33,33,0,0,3578,0,0,0,0,0,0,3194,0,0,0,0,3184,0,0,0,0,0,0,0,3186,3155,3188,0,0,0,3186,3173,3197,0,0,0,0,0,0,0,0,0,0,0,3568,0,0,0,0,0,0,3184,0,0,0,0,3196,0,0,0,0,0,0,0,3168,3156,3190,0,3186,3172,3157,3190,0,0,0,0,0,0,0,0,0,0,0,0,3568,0,0,0,0,0,0,3169,3188,0,0,0,0,0,0,0,0,0,0,0,3192,3190,0,0,3168,3156,3190,0,0,0,0,0,3579,3581,0,0,0,0,0,0,3568,0,0,0,0,0,3195,3181,3190,0,0,0,0,0,0,0,0,0,0,0,0,0,0,0,3170,3190,0,0,0,0,0,0,0,0,0,0,0,0,0,0,3568,0,0,0,0,0,0,0,0,0,3582,0,0,0,3582,0,0,0,0,0,0,0,0,0,3196,0,0,0,0,0,0,0,0,0,0,0,3194,0,0,0,3580,3194,0,0,0,0,0,3582,0,0,0,0,0,0,0,0,0,0,0,0,3186,3188,0,0,0,0,0,0,3966,3582,0,0,0,0,0,0,3196,0,0,0,0,3193,3189,3582,0,3198,0,0,0,0,0,0,3194,0,0,0,0,0,0,0,3168,3176,0,0,0,0,0,0,0,0,0,0,0,3579,3581,0,0,0,0,3187,3197,0,3193,3185,3197,0,0,0,0,0,0,0,3196,0,0,0,0,0,0,0,3168,3176,0,0,0,0,0,0,0,0,0,0,0,0,0,3582,3195,3185,3185,3191,0,0,0,0,0,0,0,0,0,0,0,0,0,0,0,0,0,0,0,0,3168,3176,0,3194,0,0,0,0,0,0,0,0,0,0,0,0,0,0,0,0,0,0,0,0,0,0,0,0,0,0,0,0,0,0,0,0,0,0,0,0,3168,3176,0,3184,0,0,0,0,0,0,0,0,0,0,0,0,0,0,0,0,0,0,0,0,0,3578,0,0,0,0,0,0,0,0,0,0,0,0,0,0,3192,3190,0,3196,0,0,0,0,0,0,0,0,0,0,0,0,0,0,0,0,0,0,0,0,0,3580,0,0,0,0,0,0,0,0,0,0,0,0,0,0,0,0,0,0,0,0,0,0,0,3198,0,0,0,0,0,0,0,0,0,0,0,0,0,0,0,3194,0,0,0,0,0,0,0,0,0,0,0,0,0,0,0,0,0,0,0,0,0,0,0,0,0,0,0,0,0,0,0,0,0,0,0,0,0,0,0,3196,0,0,0,0,0,3194,0,0,0,0,0,0,0,0,0,3194,0,0,0,0,0,0,3194,0,0,0,0,1544,0,1544,0,0,0,0,0,0,0,0,0,3582,0,0,0,0,3187,3191,0,0,0,0,0,0,0,3172,3173,3191,0,0,0,0,0,0,3184,0,0,0,1544,1544,0,0,0,0,0,0,0,0,0,0,0,0,0,0,0,0,3184,0,0,0,0,0,0,0,0,3180,3177,0,0,0,0,3198,0,0,3184,0,1544,0,1544,0,0,1544,0,0,0,0,0,0,0,0,0,0,0,0,3194,0,3184,0,0,0,0,0,0,0,0,0,3184,0,0,0,0,0,0,0,3196,0,1544,0,0,0,0,1544,0,0,0,0,0,0,0,0,0,0,0,0,3184,0,3184,0,0,0,0,0,0,0,0,0,3169,3188,0,0,0,3198,0,0,0,0,0,0,0,1544,0,0,0,0,0,0,0,0,0,0,0,0,0,0,3171,3185,3179,0,0,0,0,0,0,0,0,0,3170,3190,0,0,0,0,0,0,0,0,0,0,1544,1544,0,0,0,0,0,0,0,0,0,0,3578,0,0,0,3196,0,3196,0,0,0,0,0,0,0,0,0,3196,0,3194,0,0,0,0,0,0,0,0,0,0,0,0,0,0,0,0,0,0,0,0,3571,3575,0,0,0,0,0,0,0,0,0,0,0,0,0,0,3188,0,3186,3178,0,0,0,0,0,0,0,0,0,0,0,0,0,0,0,0,0,0,0,0,3568,0,0,0,0,0,0,0,0,0,0,0,0,0,0,0,3154,3173,3181,3190,0,3198,0,0,0,0,0,0,0,0,0,0,0,0,0,0,0,0,0,3571,3575,0,3194,0,0,0,0,0,0,0,0,0,0,0,0,0,3156,3190,0,0,0,0,0,0,0,0,3194,0,0,0,0,0,0,0,0,0,0,0,0,3568,0,0,3196,0,0,0,0,0,0,0,0,0,0,0,0,0,3190,0,0,0,0,0,0,0,0,0,3193,3197,0,0,0,0,0,0,0,0,0,0,3570,3562,0,3198,0,0,0,0,0,0,0,0,0,0,0,0,0,0,0,0,0,0,0,0,0,0,0,0,0,0,3198,0,0,0,0,0,0,0,0,0,3576,3574,0,0,0,0,0,0,0,0,0,0,0,0,0,0,0,0,0,0,0,0,0,0,0,0,0,0,0,0,0,0,3194,0,0,0,0,0,0,0,3198,0,0,0,0,0,0,0,0,0,3186,3172,3188,0,0,3186,3172,3172,0,0,0,0,0,0,0,0,0,0,3194,0,3578,3195,3179,0,0,0,0,0,0,0,0,0,0,0,0,0,0,0,0,0,3168,3152,3176,0,0,3168,3152,3152,0,0,0,0,0,0,0,0,0,0,3171,3197,3568,0,3196,0,0,0,0,0,0,0,0,0,0,0,0,0,0,0,0,0,3192,3180,3162,3172,3172,3153,3152,3152,0,0,0,0,0,0,0,0,0,0,3196,0,3568,3198,0,0,0,0,0,0,0,0,0,0,0,0,0,0,0,0,0,0,0,0,3168,3152,3152,3152,3152,3152,0,0,0,0,0,0,0,0,0,0,0,0,3568,0,0,0,0,0,0,0,0,0,0,0,0,0,0,0,0,0,0,0,0,0,3192,3180,3160,3152,3152,3152,0,0,0,0,0,0,0,0,0,0,0,0,3568,0,0,0,0,0,0,0,0,0,0,0,0,0,0,0,0,0,0,0,0,0,0,0,3168,3152,3152,3152,0,0,0,0,0,0,0,0,0,0,0,3570,3562,0,0,0,0,3198,0,0,0,0,0,0,0,0,0,0,0,0,0,0,0,0,0,0,3168,3152,3152,3152,0,0,0,0,3194,0,0,0,0,0,3570,3537,3560,0,0,0,0,0,0,0,0,0,0,0,0,0,0,0,0,0,0,0,0,0,0,0,3168,3152,3152,3152,0,0,0,0,3184,0,0,0,0,3571,3565,3544,3560,0,0,0,0,0,0,0,0,0,0,0,0,0,0,0,0,0,0,0,0,0,0,0,3192,3160,3152,3152,0,0,0,3195,3183,3197,0,0,0,3568,0,3552,3560,0,0,0,0,0,0,0,0,0,0,0,0,0,0,0,0,0,0,0,0,0,0,0,0,3168,3152,3152,0,0,0,0,0,0,0,0,0,3553,3557,3565,3574,0,0,0,0,0,0,0,0,0,0,3187,3185,3185,3185,3197,0,0,0,0,0,0,0,0,0,3168,3156,3180,0,0,0,0,0,0,0,0,0,3576,3561,0,0,0,0,0,0,0,0,0,0,0,0,3196,0,0,0,0,0,0,0,0,0,0,0,3186,3172,3153,3176,0,0,0,0,0,0,0,0,0,0,0,3577,3558,3572,0,0,0,0,0,0,0,0,0,0,0,0,0,0,0,0,0,0,0,0,0,0,3192,3180,3180,3190,0,0,0,0,0,0,0,0,0,0,0,0,3552,3538,3556,3556,3572,0,0,0,0,0,0,0,0,0,0,0,0,0,0,0,0,0,0,0,0,0,0,0,0,0,0,0,0,0,0,0,0,0,0,0,3576,3564,3564,3564,3574,0,0,0,0,0,0,0,0,0,0,0,0,0,0,0,0,0,0,0,0,0,0,0,0,0,0,0,0,0,0,0,0,0,0,0,0,0,0,3195,3185,3197,0,0,0,0,0,0,0,0,0,0,0,0,0,0,0,3426,3428,0,0,0,0,0,0,0,0,0,0,0,0,0,0,0,0,0,0,0,0,0,0,0,0,0,0,0,0,0,0,0,0,0,0,0,0,0,3435,3421,3430,0,0,0,0,0,0,0,0,0,0,0,0,0,0,0,0,0,0,0,0,0,0,0,0,0,0,3194,0,0,0,0,0,0,0,3438,0,0,0,0,0,0,0,0,0,0,0,0,0,0,0,0,0,0,0,0,0,0,0,0,0,3195,3185,3174,3172,3172,3172,3155,3188,0,0,0,0,0,0,0,3438,0,0,0,3435,3437,0,0,0,0,0,0,0,0,0,0,0,0,0,0,0,0,0,0,0,0,0,3170,3180,3180,3180,3164,3190,0,0,0,0,0,0,0,0,0,0,3438,0,0,0,0,0,0,0,0,0,0,0,0,0,0,0,0,0,3186,3172,3172,3172,3172,3172,3178,0,0,0,3184,0,0,0,0,0,0,0,0,0,0,0,0,0,0,0,0,0,0,0,0,0,0,0,0,0,0,0,0,0,0,0,0,0,0,0,0,0,0,0,0,0,0,0,0,0,0,0,0,0,0,0,0,0,0,0,0,0,0,0,0,0,0,0,0,0,0,0,0,0,0,0,0,0,0,0,0,0,0,0,0,0,0,0,0,0,0,0,0,0,0,0,0,0,0,0,0,0,0,0,0,0,0,0,0,0,0,0,0,0,0,0,0,0,0,0,0,0,0,0,0,0,0,0,0,0,0,0,0,0,0,0,0,0,0,0,0,0,0,0,0,0,0,0,0,0,0,0,0,0,0,0,0,0,0,0,0,0,0,0,0,0,0,0,0,0,0,0,0,0,0,0,0,0,0,0,0,0,0,0,0,0,0,0,0,0,0,0,0,0,0,0,0,0,0,0,0,0,0,0,0,0,0,0,0,0,0,0,0,0,0,0,0,0,0,0,0,0,0,0,0,0,0,0,0,0,0,0,0,0,0,0,0,0,0,0,0,0,0,0,0,0,0,0,0,0,0,0,0,0,0,0,0,0,0,0,0,0,0,0,0,0,0,0,0,0,0,0,0,0,0,0,0,0,0,0,0,0,0,0,0,0,0,0,0,0,0,0,0,0,0,0,0,0,0,0,0,0,0,0,0,0,0,0,0,0,0,0,0,0,0,0,0,0,0,0,0,0,0,0,0,0,0,0,0,0,0,0,0,0,0,0,0,0,0,0,0,0,0,0,0,0,0,0,0,0,0,0,0,0,0,0,0,0,0,0,0,0,0,0,0,0,0,0,0,0,0,0,0,0,0,0,0,0,0,0,0,0,0,0,0,0,0,0,0,0,0,0,0,0,0,0,0,0,0,0,0,0,0,0,0,0,0,0,0,0,0,0,0,0,0,0,0,0,0,0,0,0,0,0,0,0,0,0,0,0,0,0,0,0,0,0,0,0,0,0,0,0,0,0,0,0,0,0,0,0,0,0,0,0,0,0,0,0,0,0,0,0,0,0,0,0,0,0,0,0,0,0,0,0,0,0,0,0,0,0,0,0,0,0,0,0,0,0,0,0,0,0,0,0,0,0,0,0,0,0,0,0,0,0,0,0,0,0,0,0,0,0,0,0,0,0,0,0,0,0,0,0,0,0,0,0,0,0,0,0,0,0,0,0,0,0,0,0,0,0,0,0,0,0,0,0,0,0,0,0,0,0,0,0,0,0,0,0,0,0,0,0,0,0,0,0,0,0,0,0,0,0,0,0,0,0,0,0,0,0,0,0,0,0,0,0,0,0,0,0,0,0,0,0,0,0,0,0,0,0,0,0,0,0,0,0,0,0,0,0,0,0,0,0,0,0,0,0,0,0,0,0,0,0,0,0,0,0,0,0,0,0,0,0,0,0,0,0,0,0,0,0,0,0,0,0,0,0,0,0,0,0,0,0,0,0,0,0,0,0,0,0,0,0,0,0,0,0,0,0,0,0,0,0,0,0,0,0,0,0,0,0,0,0,0,0,0,0,0,0,0,0,0,0,0,0,0,0,0,0,0,0,0,0,0,0,0,0,0,0,0,0,0,0,0,0,0,0,0,0,530,515,531,0,0,0,0,0,0,0,0,0,0,0,0,0,0,0,0,0,0,0,0,0,0,0,0,0,0,0,0,0,0,0,0,0,0,0,0,0,530,515,531,0,0,0,0,0,0,0,0,0,0,0,0,33,0,0,0,0,0,0,0,0,0,0,0,0,0,0,0,0,0,0,0,0,0,0,0,0,530,515,531,0,0,0,0,0,0,0,0,0,0,0,0,0,0,0,0,0,0,0,0,0,0,0,0,0,0,0,0,0,0,0,0,0,0,0,0,0,530,0,515,0,0,0,0,0,0,0,0,0,0,0,0,0,0,0,0,0,0,0,0,0,0,0,0,0,0,0,0,0,0,0,0,0,0,0,0,0,0,0,0,0,0,0,0,0,0,0,0,0,0,0,0,0,0,0,0,0,0,0,0,0,0,0,0,0,0,0,0,0,0,0,0,0,0,0,0,0,0,0,0,0,0,0,0,0,0,0,0,0,0,0,0,0,0,0,0,0,0,0,0,0,0,0,0,0,0,0,0,0,0,0,0,0,0,0,0,0,0,0,0,0,0,0,0,0,0,0,0,0,0,0,0,0,0,0,0,0,0,0,0,0,0,0,0,0,0,0,0,0,0,0,0,0,0,0,0,0,0,0,0,0,0,0,0,0,0,0,0,0,0,0,0,0,0,0,0,0,0,0,0,0,0,0,0,0,0,0,0,0,0,0,0,0,0,0,0,0,0,0,0,0,0,0,0,0,0,0,0,0,0,0,0,0,0,0,0,0,0,0,0,0,0,0,0,0,0,0,0,0,0,0,0,0,0,0,0,0,0,0,0,0,0,0,0,0,0,0,0,0,0,0,0,0,0,0,0,0,0,0,0,0,0,0,0,0,0,0,0,0,0,0,0,0,0,0,0,0,0,0,0,0,0,0,0,0,0,0,0,0,0,0,0,0,0,0,0,0,0,0,0,0,0,0,0,0,0,0,0,0,0,0,0,0,0,0,0,0,0,0,0,0,0,0,0,0,0,0,0,0,0,0,0,0,0,0,0,0,0,0,0,0,0,0,0,0,0,0,0,0,33,0,0,0,0,0,0,0,0,0,0,0,0,0,0,0,0,0,0,0,41,0,0,0,0,0,0,0,0,0,0,0,0,0,0,0,0,0,0,0,0,0,0,0,0,0,0,0,0,0,0,0,0,0,0,0,0,0,0,0,0,0,0,0,0,0,0,0,0,0,0,0,0,0,0,0,0,0,0,0,0,0,0,0,0,0,0,0,0,0,0,0,0,0,0,0,0,0,0,0,0,0,0,0,0,0,0,0,0,0,0,0,0,0,0,0,0,0,0,0,0,0,0,0,0,0,0,0,0,0,0,0,0,0,0,0,0,0,0,0,0,0,0,0,0,0,0,0,0,0,0,0,0,0,0,0,0,0,0,0,0,0,0,0,0,0,0,0,0,0,0,0,0,0,0,0,0,0,0,0,0,0,0,0,0,0,0,0,0,0,0,0,0,0,0,0,0,0,0,0,0,0,0,0,0,0,0,0,0,0,0,0,0,0,0,0,0,0,0,0,0,0,0,0,0,0,0,0,0,0,0,0,0,0,0,0,0,0,33,0,0,0,0,0,0,0,0,0,0,0,0,0,0,0,0,0,0,0,0,0,0,0,0,0,0,0,0,0,0,0,0,0,0,0,0,0,0,0,0,0,0,0,0,0,0,0,0,0,0,0,0,0,0,0,0,0,0,0,0,0,0,0,0,0,0,0,0,0,0,0,0,0,0,0,0,0,0,0,0,0,0,0,0,0,0,0,0,0,0,0,0,0,0,0,0,0,0,0,0,0,0,0,0,0,0,0,0,0,0,0,0,0,0,0,0,0,0,0,0,0,0,0,0,0,0,0,0,0,0,0,0,0,0,0,0,0,0,0,0,0,0,0,0,0,0,0,0,0,0,0,0,0,0,0,0,0,0,0,0,0,0,0,0,0,0,0,0,0,0,0,0,0,0,0,0,0,0,0,0,0,0,0,0,0,0,0,0,0,0,0,0,0,0,0,0,0,0,0,0,0,33,0,0,0,0,0,0,0,0,0,0,0,0,0,0,0,0,0,0,0,0,0,0,0,0,0,0,0,0,0,0,0,0,0,0,0,0,0,0,0,0,0,0,0,0,0,0,0,0,0,0,0,0,0,0,0,0,0,0,0,0,0,0,0,0,0,0,0,0,0,0,0,0,0,0,0,0,0,0,0,0,0,0,0,0,0,0,0,0,0,0,0,0,0,0,0,0,0,0,0,0,0,0,0,0,0,0,0,0,0,0,0,0,0,0,0,0,0,0,0,0,0,0,0,0,0,0,0,0,0,0,0,0,0,0,0,0,0,0,0,0,0,0,0,0,0,0,0,0,0,0,0,0,0,0,0,0,0,0,0,0,0,0,0,0,0,0,0,0,0,0,0,0,0,0,0,0,0,0,0,0,0,0,0,0,0,0,0,0,0,0,0,0,0,0,0,0,0,0,0,0,0,0,0,0,0,0,0,0,0,0,0,0,0,0,0,0,0,0,0,0,0,0,0,0,0,0,0,0,0,0,0,0,0,0,0,0,0,0,0,0,0,0,0,0,0,0,0,0,0,0,0,0,0,0,0,0,0,0,0,0,0,0,0,0,0,0,0,0,0,0,0,0,0,0,0,0,0,0,0,0,0,0,0,0,0,0,0,0,0,0,0,0,0,0,0,0,0,0,0,0,0,0,0,0,0,0,0,0,0,0,0,0,0,0,0,0,0,0,0,0,0,0,0,0,0,0,0,0,0,0,0,0,0,0,0,0,0,0,0,0,0,0,0,0,0,0,0,0,0,0,0,0,0,0,0,0,0,0,0,0,0,0,0,0,0,0,0,0,0,0,0,0,0,0,0,0,0,0,0,0,0,0,0,0,0,0,0,0,0,0,0,0,0,0,0,0,0,0,0,0,0,0,0,0,0,0,0,0,0,0,0,0,0,0,0,0,0,0,0,0,0,0,0,0,0,0,0,0,0,0,0,0,0,0,0,0,0,0,0,0,0,0,0,0,0,0,0,0,0,0,0,0,0,0,0,0,0,0,0,0,0,0,0,0,0,0,0,0,0,0,0,0,0,0,0,0,0,0,0,0,0,0,0,0,57,0,0,0,0,0,0,0,0,0,0,0,0,0,0,0,0,0,0,0,0,0,0,0,0,0,0,0,0,0,0,0,0,0,0,0,0,0,0,0,0,0,0,0,0,0,0,0,0,0,0,0,0,0,0,0,0,0,0,0,0,0,0,0,0,0,0,0,0,0,0,0,0,0,0,0,0,0,0,0,0,0,0,0,0,0,0,0,0,0,0,0,0,0,0,0,0,0,0,0,0,0,0,0,0,0,0,0,0,0,0,0,0,0,0,0,0,0,0,0,0,0,0,0,0,0,0,0,0,0,0,0,0,0,0,0,0,0,0,0,0,0,0,0,0,0,0,0,0,0,0,0,0,0,0,0,0,0,0,0,0,0,0,0,0,0,0,0,0,0,0,0,0,0,0,0,0,0,0,0,0,0,0,0,0,0,0,0,0,0,0,0,0,0,0,0,0,0,0,0,0,0,0,0,0,0,0,0,0,0,0,0,0,0,0,0,0,0,0,0,0,0,0,0,0,0,0,0,0,0,0,0,0,0,0,0,0,0,0,0,0,0,0,0,0,0,0,0,0,0,0,0,0,0,0,0,0,0,0,0,0,0,0,0,0,0,0,0,0,0,0,0,0,0,0,0,0,0,0,0,0,0,0,0,0,0,0,0,0,0,0,0,0,0,0,0,0,0,0,5970,5972,0,0,0,0,0,0,0,0,0,0,0,0,0,0,0,0,0,0,0,0,0,0,0,0,0,0,0,0,0,0,0,0,0,0,0,0,0,5979,5965,5974,0,0,0,0,0,0,0,0,0,0,0,0,0,0,0,0,0,0,0,0,0,0,0,0,0,0,0,0,0,0,0,0,0,0,5982,0,0,0,0,0,0,0,0,0,0,0,0,0,0,0,0,0,0,0,0,0,0,0,0,0,0,0,0,0,0,0,0,0,0,0,0,0,0,0,0,5982,0,0,0,5979,5981,0,0,0,0,0,0,0,0,0,0,0,0,0,0,0,0,0,0,0,0,0,0,0,0,0,0,0,0,0,0,0,0,0,0,0,0,0,5982,0,0,0,0,0,0,0,0,0,0,0,0,0,0,0,0,0,0,0,0,0,0,0,0,0,0,0,0,0,0,0,0,0,0,0,0,0,0,0,0,0,0,0,0,0,0,0,0,0,0,0,0,0,0,0,0,0,0,0,0,0,0,0,0,0,0,0,0,0,0,0,0,0,0,0,0,0,0,0,0,0,0,0,0,0,0,0,0,0,0,0,0,0,0,0,0,0,0,0,0,0,0,0,0,0,0,0,0,0,0,0,0,49,0,0,0,0,0,0,0,0,0,0,0,0,0,0,0,0,0,0,0,0,0,0,0,0,0,0,0,0,0,0,0,0,0,0,0,0,0,0,0,57,0,0,0,0,0,0,0,0,0,0,0,0,0,0,0,0,0,0,0,0,0,0,0,0,0,0,0,0,0,0,0,0,0,0,0,0,0,0,49,0,0,0,0,0,0,0,0,0,0,0,0,0,0,0,0,0,0,0,0,0,0,0,0,0,0,0,0,0,0,0,0,0,0,0,0,49,0,0,57,0,0,49,0,49,49,0,0,0,0,0,0,0,0,0,0,0,0,0,0,0,0,0,0,0,0,0,0,0,0,0,0,0,49,0,0,57,0,0,0,49,0,57,0,57,57,0,0,0,0,0,0,0,0,0,0,0,0,0,0,0,0,0,0,0,0,0,0,0,0,0,0,0,57,0,0,0,0,0,0,57,0,0,49,0,0,0,0,0,0,0,0,0,0,0,0,0,0,0,0,0,0,0,0,0,0,0,0,0,0,0,0,0,0,0,0,49,0,0,0,0,0,0,57,0,0,0,0,0,0,0,0,0,0,0,0,0,0,0,0,0,0,0,0,0,0,0,0,0,0,0,0,0,0,0,0,57,0,0,0,0,0,0,0,0,0,0,0,0,0,0,0,0,0,0,0,0,0,0,0,0,0,0,0,0,49,0,0,0,0,0,0,0,0,0,0,0,0,0,0,0,0,0,0,0,0,0,0,0,0,0,0,0,0,0,0,0,0,0,0,0,0,49,0,0,57,0,0,0,0,0,0,0,0,0,0,0,0,0,0,0,0,0,0,33,0,0,0,0,0,0,0,0,0,0,0,0,0,0,0,0,0,0,0,0,0,0,0,0,0,0,0,0,0,0,0,0,0,0,0,0,0,0,49,33,0,0,0,0,0,0,0,0,0,0,0,0,0,0,0,0,0,0,0,0,0,0,0,0,0,0,0,0,0,0,0,0,49,0,0,0,0,0,57,33,0,0,0,0,0,0,0,0,0,0,0,0,0,0,0,0,0,0,0,0,0,0,0,0,0,0,0,0,0,0,49,0,57,0,0,49,0,0,0,33,0,0,0,0,0,0,0,0,0,0,0,0,0,0,0,0,0,0,0,0,0,49,0,49,0,0,0,0,0,0,0,0,0,0,0,0,0,0,0,33,0,0,0,0,0,0,0,0,0,0,0,0,0,0,0,0,0,0,0,0,0,0,0,57,0,0,0,0,0,0,0,0,0,0,0,0,0,0,0,33,0,0,0,0,0,0,0,0,0,0,0,0,0,0,0,0,0,0,0,0,0,0,0,0,49,0,0,0,0,0,0,0,0,0,0,0,0,0,0,33,0,0,0,0,0,0,0,0,0,0,0,0,0,0,0,0,0,0,0,0,0,0,0,0,57,0,0,0,0,49,0,0,0,0,0,0,0,0,0,33,33,49,0,0,0,0,0,0,0,0,0,0,0,0,0,0,0,0,0,0,0,49,0,49,0,0,0,0,0,57,0,0,0,0,0,0,49,0,0,33,33,57,0,0,0,0,0,0,0,0,0,0,0,0,0,0,0,0,0,0,0,57,0,57,0,49,0,0,0,0,0,0,0,41,0,0,57,0,0,33,0,0,0,0,0,0,0,0,0,0,0,0,0,0,0,0,0,0,0,0,0,0,0,0,0,57,0,0,0,0,0,0,0,0,0,0,0,0,0,0,0,49,0,0,0,0,49,0,0,0,0,0,0,0,0,0,0,0,0,0,0,0,0,0,49,0,0,0,0,0,49,0,0,0,0,0,0,0,0,0,0,57,0,0,0,0,57,0,0,0,0,0,0,0,0,0,0,0,0,0,0,0,0,0,57,0,41,0,0,0,57,0,0,0,41,0,0,0,33,33,33,0,33,33,33,0,0,0,0,0,0,0,0,0,0,0,0,0,0,0,41,0,0,33,0,0,0,33,0,0,0,0,0,0,0,0,0,33,0,0,0,41,0,0,0,0,0,0,0,0,0,0,0,0,0,0,0,0,0,0,0,33,0,33,0,0,41,33,0,33,33,0,0,0,33,33,0,33,0,0,0,0,0,0,0,0,0,0,0,0,0,0,0,0,0,0,0,0,0,0,0,0,49,0,0,0,0,0,0,0,0,0,0,0,0,0,0,0,0,0,49,0,0,0,0,0,0,0,0,0,0,0,0,0,0,0,0,0,0,0,0,0,57,0,0,0,0,0,0,0,0,0,0,0,0,0,0,0,0,0,57,0,0,0,0,0,0,0,0,0,0,0,0,0,0,0,0,0,0,0,0,0,0,0,0,0,0,41,33,0,0,41,0,0,0,0,0,0,0,0,41,0,0,0,0,0,0,0,0,0,0,0,0,0,0,0,0,41,33,49,0,0,0,0,0,0,0,0,0,0,0,0,0,0,0,0,0,0,49,41,0,0,0,0,0,0,0,0,0,0,0,0,0,0,0,0,0,0,49,0,0,0,0,0,0,0,0,0,0,0,0,0,0,0,49,0,0,0,57,0,0,0,0,0,0,0,0,0,0,0,0,0,0,0,0,0,0,0,57,0,0,0,0,0,0,0,0,0,0,0,0,0,0,0,57,0,0,0,0,0,41,0,0,0,0,0,0,0,0,0,0,0,0,0,0,49,0,0,0,0,0,0,0,0,0,0,49,0,0,0,41,0,0,0,0,0,41,0,0,0,0,0,0,0,0,0,0,0,0,0,0,0,0,0,0,57,0,41,0,0,0,0,0,0,49,0,57,0,0,49,0,0,0,0,0,0,0,0,0,49,0,0,0,0,0,0,0,0,0,0,0,0,0,0,0,0,33,0,0,0,0,0,0,49,57,0,0,0,0,0,0,0,0,0,0,49,0,0,0,0,0,0,0,0,0,0,0,0,0,0,0,0,0,0,41,0,0,41,0,0,0,49,0,57,0,0,49,0,0,0,0,0,0,0,0,0,0,0,0,0,0,0,0,0,0,0,49,0,0,0,0,0,0,0,49,33,41,0,0,0,0,57,0,0,0,0,57,0,0,0,0,0,0,0,0,0,0,0,0,0,0,0,0,0,0,0,57,0,0,0,0,0,0,0,57,0,0,0,0,0,0,0,0,0,49,0,0,0,0,0,0,0,0,0,0,0,49,0,0,0,0,0,0,0,0,0,0,0,0,0,0,0,0,0,0,49,0,0,0,0,0,0,0,49,57,0,0,0,0,0,0,0,0,0,0,0,0,0,0,0,0,0,0,0,0,0,0,0,0,0,0,0,0,0,0,0,0,0,0,0,0,0,0,0,0,0,0,0,0,0,0,0,0,0,0,0,0,0,0,0,0,0,0,0,0,0,0,0,0,0,0,0,0,0,0,0,0,49,0,41,0,0,0,0,0,0,0,0,0,0,0,0,0,0,0,0,0,0,0,0,0,0,0,0,0,0,0,0,0,0,0,0,0,0,0,0,0,57,49,0,0,49,0,0,0,0,0,0,0,0,49,0,0,0,0,0,0,0,0,0,0,0,0,0,0,0,0,0,0,0,0,0,0,0,0,0,0,0,57,0,0,57,0,0,0,187,0,0,0,0,0,49,0,0,0,0,0,0,0,0,0,0,0,0,0,0,0,0,0,0,0,0,0,0,0,0,0,0,0,49,0,49,33,0,0,49,0,0,0,0,0,57,0,0,0,0,0,0,0,0,0,0,0,0,0,0,0,0,0,0,0,0,0,0,0,0,0,0,0,0,0,57,0,0,0,57,0,0,0,0,0,0,0,0,0,0,0,0,0,0,0,0,0,0,0,0,0,0,0,0,0,0,0,0,0,0,0,0,0,0,0,0,49,33,0,0,0,0,0,49,33,0,0,0,0,0,0,0,0,0,0,0,0,0,0,0,0,0,0,0,0,0,0,0,0,0,0,0,0,0,0,0,57,0,0,0,0,0,0,57,0,0,0,0,0,0,0,0,0,0,0,0,0,0,0,0,0,0,0,0,0,0,0,0,0,0,0,0,0,0,0,0,0,33,0,0,0,187,0,0,0,0,0,0,0,0,0,0,0,0,0,0,0,0,0,0,0,0,0,0,0,0,0,0,0,0,0,0,0,0,0,49,0,0,49,33,0,0,0,0,0,0,0,0,0,0,0,0,0,0,0,0,0,0,0,0,0,0,0,0,0,0,0,0,0,0,0,0,0,0,49,57,0,0,57,0,0,0,0,0,0,0,0,0,0,0,0,0,0,0,0,0,0,0,0,0,0,0,0,0,0,0,0,0,0,0,0,0,0,0,57,0,0,0,0,49,0,0,0,0,0,0,0,0,0,0,0,0,0,0,0,0,0,0,0,0,0,0,0,0,0,0,0,0,0,0,0,0,0,0,0,0,0,0,0,0,0,0,0,0,0,0,0,0,0,0,0,0,0,0,0,0,33,0,0,0,0,0,0,0,0,0,0,0,0,0,0,0,0,0,0,0,0,49,0,0,0,0,0,0,0,0,0,0,0,0,0,0,0,0,0,0,0,0,0,0,0,0,0,0,0,0,0,0,0,0,0,0,0,0,49,0,0,49,0,0,0,0,0,0,0,0,0,0,0,0,0,0,0,0,0,0,0,0,0,0,0,0,0,0,0,0,0,0,0,0,0,0,49,0,57,0,0,57,0,0,0,0,0,0,0,0,49,0,0,0,0,0,0,0,0,0,0,0,0,0,0,0,0,0,0,0,0,0,0,0,0,0,57,0,0,49,49,0,0,0,0,0,0,0,0,0,57,0,0,0,0,0,0,0,0,0,0,0,0,0,0,0,0,0,0,0,0,0,0,0,0,0,0,0,0,57,57,0,0,49,0,0,0,0,0,0,0,0,0,0,0,0,0,0,0,0,0,0,0,0,0,0,0,0,0,0,0,0,0,0,0,0,0,0,0,0,0,0,0,57,0,0,0,0,0,0,0,0,0,0,0,0,0,0,0,0,0,0,0,0,0,0,0,0,0,0,0,0,0,0,0,0,0,49,0,0,0,0,0,0,0,0,0,0,49,0,0,0,0,0,0,0,0,0,0,0,0,0,0,0,0,0,0,0,0,0,0,0,0,0,0,0,0,57,0,0,49,0,0,0,0,49,0,0,57,0,0,0,0,0,0,0,0,0,0,0,0,0,0,0,0,0,0,0,0,0,0,0,0,0,0,0,0,0,0,0,57,0,0,0,0,57,0,0,0,0,0,0,0,0,0,0,0,0,0,0,0,0,0,0,0,0,0,0,0,0,0,0,0,0,0,0,0,0,0,0,0,0,0,0,0,0,0,0,0,0,0,0,0,0,0,0,0,0,0,0,0,0,0,0,0,0,0,0,0,0,0,0,0,0,0,0,0,0,0,0,0,0,0,0,0,0,0,0,0,0,0,0,0,0,0,0,0,0,0,0,0,0,0,0,0,0,0,0,0,0,0,0,0,0,0,0,0,0,0,0,0,0,0,0,0,0,0,0,0,0,0,0,0,0,0,0,0,0,0,0,0,0,0,0,0,0,0,0,0,0,0,0,0,0,0,0,0,0,0,0,0,0,0,0,0,0,0,0,0,0,0,0,0,0,0,0,0,0,0,0,0,0,0,0,0,0,0,0,0,0,0,0,0,0,0,0,0,0,0,0,0,0,0,0,0,0,0,0,0,0,0,0,0,0,0,0,0,0,0,0,0,0,0,0,0,0,0,0,0,0,0,0,0,0,0,0,0,0,0,0,0,0,0,0,0,0,0,0,0,0,0,0,0,0,0,0,0,0,0,0,0,0,0,0,0,0,0,0,0,0,0,0,0,0,0,0,0,0,0,0,0,0,0,0,0,0,0,0,0,0,0,0,0,0,0,0,0,0,0,0,0,0,0,0,0,0,0,0,0,0,0,0,0,0,0,0,0,0,0,0,0,0,0,0,0,0,0,0,0,0,0,5,0,0,0,0,0,0,0,0,0,0,0,0,0,0,0,0,0,0,0,0,0,0,0,0,0,0,0,0,0,0,0,0,0,0,0,0,5,0,0,0,0,0,0,0,0,0,0,0,0,0,0,0,0,0,0,0,0,0,0,0,0,0,0,0,0,0,0,0,0,0,0,0,0,0,0,5,0,0,0,0,0,0,0,0,0,0,0,0,0,0,0,0,0,0,0,0,0,0,0,0,0,0,0,0,0,0,0,0,0,0,0,0,0,0,0,5,0,0,0,0,0,0,0,0,0,0,0,0,0,0,0,0,0,0,0,0,0,0,0,0,0,0,0,0,0,0,0,0,0,0,0,0,0,0,5,0,0,0,0,0,0,0,0,0,0,0,0,0,0,0,0,0,0,0,0,0,0,0,0,0,0,0,0,0,0,0,0,0,0,0,0,0,0,0,0,0,0,0,0,0,0,0,0,0,0,0,0,0,0,0,0,0,0,0,0,0,0,0,0,0,0,0,0,0,0,0,0,0,0,0,0,0,0,0,0,0,0,0,0,0,0,0,0,0,0,0,0,0,0,0,0,0,0,0,0,0,0,0,0,0,0,0,0,0,0,0,0,0,0,0,0,0,0,0,0,0,0,0,0,0,0,0,0,0,5,0,0,0,0,0,0,0,0,0,0,0,0,0,0,0,0,0,0,0,0,0,0,0,0,0,0,0,0,0,0,0,0,0,0,0,0,0,0,0,5,0,0,0,0,0,0,0,0,0,0,0,0,0,0,0,0,0,0,0,0,0,0,0,0,0,0,0,0,0,0,0,0,0,0,0,0,0,0,0,5,0,0,0,0,0,0,0,0,0,0,0,0,0,0,0,0,0,0,0,0,0,0,0,0,0,0,0,0,0,0,0,0,0,0,0,0,0,0,0,5,0,0,0,0,0,0,0,0,0,0,0,0,0,0,0,0,0,0,0,0,0,0,0,0,0,0,0,0,0,0,5,0,0,0,0,0,0,0,0,5,0,0,0,0,0,0,0,0,0,0,0,0,0,0,0,0,0,0,0,0,0,0,5,0,0,0,0,0,0,0,0,0,0,0,0,0,0,0,0,5,0,0,0,0,0,0,0,0,0,0,0,0,0,0,0,0,0,0,0,0,0,0,0,0,0,0,0,0,0,0,0,0,0,0,0,0,0,0,0,5,0,0,0,0,0,0,0,0,0,0,0,0,0,0,0,0,0,0,0,0,0,0,0,5,0,0,0,0,0,0,0,0,0,0,0,0,0,0,0,5,0,0,0,0,0,0,0,0,0,0,0,0,0,0,0,0,0,0,0,0,0,0,0,5,0,0,0,0,0,0,5,0,0,0,0,0,0,0,5,0,0,0,0,0,0,0,0,0,0,0,0,0,0,0,0,0,0,0,0,0,0,0,0,5,0,0,0,0,0,0,5,0,0,0,0,0,0,5,0,0,0,0,0,0,0,0,0,0,0,0,0,0,0,0,0,0,0,0,0,0,0,0,5,0,0,0,0,0,0,0,5,0,0,0,0,0,0,5,0,0,0,0,0,0,0,0,0,0,5,0,0,0,0,0,0,0,0,0,0,0,0,0,5,0,0,0,0,0,0,0,0,0,0,0,0,0,0,5,0,0,0,0,0,0,0,0,0,5,0,0,0,0,0,0,0,0,0,0,0,0,0,5,0,0,0,0,0,0,0,0,0,0,5,0,0,0,0,5,0,0,0,0,0,0,0,0,0,5,0,0,0,0,0,0,0,0,0,0,0,0,5,0,0,0,0,0,0,0,0,0,0,5,0,0,0,5,0,0,0,0,0,0,0,0,0,0,0,0,0,0,0,0,0,0,0,0,0,0,0,0,5,0,0,0,0,0,0,0,0,0,5,0,0,0,0,0,0,0,0,0,0,0,0,0,0,0,0,0,0,0,0,0,0,0,0,0,0,0,0,5,0,0,0,0,0,0,0,0,0,0,5,0,0,0,0,0,0,0,0,0,0,5,0,0,0,0,0,0,0,0,0,0,0,0,0,0,0,0,5,0,0,0,0,0,0,0,0,0,0,0,0,0,0,0,0,0,0,0,0,0,0,5,0,0,0,0,0,0,0,0,0,0,0,0,0,0,0,0,5,0,0,0,0,0,0,0,0,0,0,0,0,0,0,0,0,0,0,0,0,0,0,5,0,0,0,0,0,0,0,0,0,0,0,0,0,0,0,0,5,0,0,0,0,0,0,0,0,0,0,0,0,0,0,0,0,0,0,0,0,0,0,5,0,0,0,0,0,0,0,0,0,0,0,0,0,0,0,0,5,0,0,0,0,0,0,0,0,0,0,0,0,0,0,0,0,0,5,0,0,0,5,0,0,0,0,0,0,0,0,0,0,0,0,0,0,0,0,0,5,0,0,0,0,0,0,0,0,0,0,0,5,0,0,0,0,0,5,0,0,0,0,0,0,0,0,0,0,0,0,0,0,0,0,0,0,0,0,5,0,0,0,0,0,0,5,0,0,0,0,0,5,0,0,0,0,5,0,0,0,0,0,0,0,0,0,0,0,0,0,0,0,0,0,0,0,0,0,5,0,0,0,0,0,5,0,0,0,0,0,5,0,0,0,0,0,5,0,0,0,0,0,0,0,0,0,0,0,0,5,0,0,0,0,0,0,0,5,0,0,0,0,0,0,5,0,0,0,0,0,0,0,0,0,0,0,5,0,0,0,0,0,0,0,0,0,0,0,5,0,0,0,0,0,0,0,0,5,0,0,0,0,0,5,0,0,0,0,0,0,0,0,0,0,0,5,0,0,0,0,0,0,0,0,0,0,0,5,0,0,0,0,0,0,0,0,5,0,0,0,0,0,0,5,0,0,0,0,0,0,0,0,0,0,5,0,0,0,0,0,0,0,0,0,0,0,0,5,0,0,0,0,0,0,0,0,5,0,0,0,0,0,0,5,0,0,0,0,0,0,0,0,0,0,5,0,0,0,5,0,0,0,0,0,0,0,0,5,0,0,0,0,0,0,0,0,5,0,0,0,0,0,0,0,0,0,0,0,0,0,0,0,0,0,5,0,0,5,0,0,0,0,0,0,0,0,0,5,0,0,0,0,0,0,0,0,0,0,0,0,0,0,0,0,0,0,0,0,0,0,0,0,0,5,0,0,0,5,0,0,0,0,0,0,0,0,0,0,0,0,0,0,0,0,0,0,0,0,0,0,0,0,0,0,0,0,0,0,0,0,0,0,0,5,0,0,5,0,0,0,0,0,0,0,0,0,0,0,0,0,0,0,0,0,0,0,0,0,0,0,0,0,0,0,0,0,0,0,0,0,0,0,5,0,0,0,5,0,0,0,0,0,0,0,0,0,0,0,0,0,0,0,0,0,0,0,0,0,0,5,0,0,0,0,0,0,0,0,0,0,0,5,0,0,0,5,0,0,0,0,0,0,0,0,0,0,0,0,0,0,0,0,0,0,0,0,0,0,0,0,0,0,0,0,0,0,0,0,0,0,5,0,0,0,0,5,0,0,0,0,0,0,0,0,0,0,0,0,0,0,0,0,0,0,0,0,0,0,0,0,0,0,0,0,0,0,0,0,0,0,0,0,0,5,0,0,0,0,0,0,0,0,0,0,0,0,0,0,0,0,0,0,0,0,0,0,0,0,0,0,0,0,0,0,0,0,0,0,0,0,0,0,0,5,0,0,0,0,0,0,0,0,0,0,0,0,0,0,0,0,0,0,0,0,0,0,0,0,0,0,0,0,0,0,0,0,0,0,0,0,0,0,5,0,0,0,0,0,0,0,0,0,0,0,0,0,0,0,0,0,0,0,0,0,0,0,0,0,0,0,0,0,0,0,5,0,0,0,0,0,0,5,0,0,0,0,0,0,5,0,0,0,0,0,0,0,0,0,0,0,0,0,0,0,0,0,0,0,0,0,0,0,0,0,5,0,0,0,0,0,0,5,0,0,0,0,0,5,0,0,0,0,0,0,0,0,0,0,0,0,0,0,0,0,0,0,0,0,0,0,0,0,0,0,5,0,0,0,0,0,0,0,0,0,0,0,5,0,0,0,0,0,0,0,0,0,0,0,0,0,0,0,0,0,0,0,0,0,0,0,0,0,0,5,0,0,0,0,0,0,0,0,0,0,0,0,0,0,0,0,0,0,0,0,0,0,0,0,0,0,0,0,0,0,0,0,0,0,0,0,0,0,5,0,0,0,0,0,0,0,0,0,0,0,0,0,0,5,0,0,0,0,0,0,0,0,0,0,0,0,0,0,0,0,0,0,0,0,0,0,0,5,0,0,0,0,0,0,0,0,0,0,0,0,0,0,0,0,0,0,0,0,0,0,5,0,0,0,0,0,0,0,0,0,0,0,0,0,0,0,0,5,0,0,0,0,0,0,0,0,0,0,0,0,0,0,0,0,0,0,0,0,5,0,0,0,0,0,0,0,0,0,0,0,0,0,0,0,0,0,5,0,0,0,0,0,0,0,0,0,0,0,0,0,0,0,0,0,5,0,0,0,0,0,0,0,0,0,0,0,0,0,0,0,0,0,0,0,0,0,5,0,0,0,0,0,0,0,0,0,0,0,0,0,0,0,5,0,0,0,0,0,0,0,0,0,0,0,0,0,0,0,0,0,0,0,0,0,0,0,5,0,0,0,0,0,0,0,0,0,0,0,0,5,0,0,0,0,0,0,0,0,0,0,0,0,0,0,0,0,0,0,0,0,0,0,0,0,0,0,5,0,0,0,0,0,0,0,0,0,0,0,5,0,0,0,0,0,0,0,0,0,0,0,0,0,0,0,0,0,0,0,0,0,0,0,0,0,0,0,5,0,0,0,0,0,0,0,0,5,0,0,0,0,0,0,0,0,0,0,0,0,0,0,0,0,0,0,0,0,0,0,0,0,0,0,0,0,0,0,5,0,0,0,0,0,0,0,0,0,0,0,0,0,0,0,0,0,0,0,0,0,0,0,0,0,0,0,0,0,0,0,0,0,0,0,0,0,0,0,0,0,0,0,0,0,0,0,0,0,0,0,0,0,0,0,0,0,0,0,0,0,0,0,0,0,0,0,0,0,0,0,0,0,0,0,0,0,0,0,0,0,0,0,0,0,0,0,0,0,0,0,0,0,0,0,0,0,0,0,0,0,0,0,5,0,0,0,0,0,0,0,0,0,0,0,0,0,0,0,0,0,0,0,0,0,0,0,0,0,0,0,0,0,0,0,0,0,0,0,0,0,0,5,0,0,0,0,0,0,0,0,0,0,0,0,0,0,0,0,0,0,0,0,0,0,0,0,0,0,0,0,0,0,0,0,0,0,0,0,5,0,0,0,0,0,0,0,0,0,0,0,0,0,0,0,0,0,0,0,0,0,0,0,0,0,0,0,0,0,0,0,0,0,0,0,0,0,0,0,0,0,0,0,0,5,0,0,0,0,0,0,0,0,0,0,0,0,0,0,0,0,0,0,0,0,0,0,0,0,0,0,0,0,0,0,0,0,0,0,0,0,0,0,5,0,0,0,0,0,0,0,0,0,0,0,0,0,0,0,0,0,0,0,0,0,0,0,0,0,0,0,0,0,0,0,0,0,0,0,0,0,0,0,0,0,0,0,0,0,0,0,0,0,0,0,0,0,0,0,0,0,0,0,0,0,0,0,0,0,0,0,0,0,0,0,0,0,0,0,0,0,0,0,0,0,0,0,0,0,0,0,0,0,0,0,0,0,0,0,0,0,0,0,0,0,0,0,0,0,0,0,0,0,0,0,0,0,0,0,0,0,0,0,0,0,0,0,0,0,0,0,0,0,0,0,0,0,0,0,0,0,0,0,0,0,0,0,0,0,0,0,0,0,0,0,0,0,0,0,0,0,0,0,0,0,0,0,0,0,0,0,0,0,0,0,0,0,0,0,0,0,0,0,0,0,0,0,0,0,0,0,0,0,0,0,0,0,0,0,0,0,0,0,0,0,0,0,0,0,0,0,0,0,0,0,0,0,0,0,0,0,0,0,0,0,0,0,0,0,0,0,0,0,0,0,0,0,0,0,0,0,0,0,0,0,0,0,0,0,0,0,0,0,0,0,0,0,0,0,0,0,0,0,0,0,0,0,0,0,0,0,0,0,0,0,0,0,0,0,0,0,0,0,0,0,0,0,0,0,0,0,0,0,0,0,0,0,0,0,0,0,0,0,0,0,0,0,0,0,0,0,0,0,0,0,0,0,0,0,0,0,0,0,0,0,0,0,0,0,0,0,0,0,0,0,0,0,0,0,0,0,0,0,0,0,0,0,0,0,0,0,0,0,0,0,0,0,0,0,0,0,0,0,0,0,0,0,0,0,0,0,0,0,0,0,0,0,0,0,0,0,0,0,0,0,0,0,0,0,0,0,0,0,0,0,0,0,0,0,0,0,0,0,0,0,0,0,0,0,0,0,0,0,0,0,0,0,0,0,0,0,0,0,0,0,0,0,0,0,0,0,0,0,0,0,0,0,0,0,0,0,0,0,0,0,0,0,0,0,0,0,0,0,0,0,0,0,0,0,0,0,0,0,0,0,0,0,0,0,0,0,0,0,0,0,0,0,0,0,0,0,0,0,0,0,0,0,0,0,0,0,0,0,0,0,0,0,0,0,0,0,0,0,0,0,0,0,0,0,0,0,0,0,0,0,0,0,0,0,0,0,0,0,0,0,0,0,0,0,0,0,0,0,0,0,0,0,0,0,0,0,0,0,0,0,0,0,0,0,0,0,0,0,0,0,0,0,0,0,0,0,0,0,0,0,0,0,0,0,0,0,0,0,0,0,0,0,0,0,0,0,0,0,0,0,0,0,0,0,0,0,0,0,0,0,0,0,0,0,0,0,0,0,0,0,0,0,0,0,0,0,0,0,0,0,0,0,0,0,0,0,0,0,0,0,0,0,0,0,0,0,0,0,0,0,0,0,0,0,0,0,0,0,0,0,0,0,0,0,0,0,0,0,0,0,0,0,0,0,0,0,0,0,0,0,0,0,0,0,0,0,0,0,0,0,0,0,0,0,0,0,0,0,0,0,0,0,0,0,0,0,0,0,0,0,0,0,0,0,0,0,0,0,0,0,0,0,0,0,0,0,0,0,0,0,0,0,0,0,0,0,0,0,0,0,0,0,0,0,0,0,0,0,0,0,0,0,0,0,0,0,0,0,0,0,0,0,0,0,0,0,0,0,0,0,0,0,0,0,0,0,0,0,0,0,0,0,0,0,0,0,0,0,0,0,0,0,0,0,0,0,0,0,0,0,0,0,0,0,0,0,0,0,0,0,0,0,0,0,0,0,0,0,0,0,0,0,0,0,0,0,0,0,0,0,0,0,0,0,0,0,0,0,0,0,0,0,0,0,0,0,0,0,0,0,0,0,0,0,0,0,0,0,0,0,0,0,0,0,0,0,0,0,0,0,0,0,0,0,0,0,0,0,0,0,0,0,0,0,0,0,0,0,0,0,0,0,0,0,0,0,0,0,0,0,0,0,0,0,0,0,0,0,0,0,0,0,0,0,0,0,0,0,0,0,0,0,0,0,0,0,0,0,0,0,0,0,0,0,0,0,0,0,0,0,0,0,0,0,0,0,0,0,0,0,0,0,0,0,0,0,0,0,0,0,0,0,0,0,0,0,0,0,0,0,0,0,0,0,0,0,0,0,0,0,0,0,0,0,0,0,0,0,0,0,0,0,0,0,0,0,0,0,0,0,0,0,0,0,0,0,0,0,0,0,0,0,0,0,0,0,0,0,0,0,0,0,0,0,0,0,0,0,0,0,0,0,0,0,0,0,0,0,0,0,0,0,0,0,0,0,0,0,0,0,0,0,0,0,0,0,0,0,0,0,0,0,0,0,0,0,0,0,0,0,0,0,0,0,0,0,0,0,0,0,0,0,0,0,0,0,0,0,0,0,0,0,0,0,0,0,0,0,0,0,0,0,0,0,0,0,0,0,0,0,0,0,0,0,0,0,0,0,0,0,0,0,0,0,0,0,0,0,0,0,0,0,0,0,0,0,0,0,0,0,0,0,0,0,0,0,0,0,0,0,0,0,0,0,0,0,0,0,0,0,0,0,0,0,0,0,0,0,0,0,0,0,0,0,0,0,0,0,0,0,0,0,0,0,0,0,0,0,0,0,0,0,0,0,0,0,0,0,0,0,0,0,0,0,0,0,0,0,0,0,0,0,0,0,0,0,0,0,0,0,0,0,0,0,0,0,0,0,0,0,0,0,0,0,0,0,0,0,0,0,0,0,0,0,0,0,0,0,0,0,0,0,0,0,0,0,0,0,0,0,0,0,0,0,0,0,0,0,0,0,0,0,0,0,0,0,0,0,0,0,0,0,0,0,0,0,0,0,0,0,0,0,0,0,0,0,0,0,0,0,0,0,0,0,0,0,0,0,0,0,0,0,0,0,0,0,0,0,0,0,0,0,0,0,0,0,0,0,0,0,0,0,0,0,0,0,0,0,0,0,0,0,0,0,0,0,0,0,0,0,0,0,0,0,0,0,0,0,0,0,0,0,0,0,0,0,0,0,0,0,0,0,0,0,0,0,0,0,0,0,0,0,0,0,0,0,0,0,0,0,0,0,0,0,0,0,0,0,0,0,0,0,0,0,0,0,0,0,0,0,0,0,0,0,0,0,0,0,0,0,0,0,0,0,0,0,0,0,0,0,0,0,0,0,0,0,0,0,0,0,0,0,0,0,0,0,0,0,0,0,0,0,0,0,0,0,0,0,0,0,0,0,0,0,0,0,0,0,0,0,0,0,0,0,0,0,0,0,0,0,0,0,0,0,0,0,0,0,0,0,0,0,0,0,0,0,0,0,0,0,0,0,0,0,0,0,0,0,0,0,0,0,0,0,0,0,0,0,0,0,0,0,0,0,0,0,0,0,0,0,0,0,0,0,0,0,0,0,0,0,0,0,0,0,0,0,0,0,0,0,0,0,0,0,0,0,0,0,0,0,0,0,0,0,0,0,0,0,0,0,0,0,0,0,0,0,0,0,0,0,0,0,0,0,0,0,0,0,0,0,0,0,0,0,0,0,0,0,0,0,0,0,0,0,0,0,0,0,0,0,0,0,0,0,0,0,0,0,0,0,0,0,0,0,0,0,0,0,0,0,0,0,0,0,0,0,0,0,0,0,0,0,0,0,0,0,0,0,0,0,0,0,0,0,0,0,0,0,0,0,0,0,0,0,0,0,0,0,0,0,0,0,0,0,0,0,0,0,0,0,0,0,0,0,0,0,0,0,0,0,0,0,0,0,0,0,0,0,0,0,0,0,0,0,0,0,0,0,0,0,0,0,0,0,0,0,0,0,0,0,0,0,0,0,0,0,0,0,0,0,0,0,0,0,0,0,0,0,0,0,0,0,0,0,0,0,0,0,0,0,0,0,0,0,0,0,0,0,0,0,0,0,0,0,0,0,0,0,0,0,0,0,0,0,0,0,0,0,0,0,0,0,0,0,0,0,0,0,0,0,0,0,0,0,0,0,0,0,0,0,0,0,0,0,0,0,0,0,0,0,0,0,0,0,0,0,0,0,0,0,0,0,0,0,0,0,0,0,0,0,0,0,0,0,0,0,0,0,0,0,0,0,0,0,0,0,0,0,0,0,0,0,0,0,0,0,0,0,0,0,0,0,0,0,0,0,0,0,0,0,0,0,0,0,0,0,0,0,0,0,0,0,0,0,0,0,0,0,0,0,0,0,0,0,0,0,0,0,0,0,0,0,0,0,0,0,0,0,0,0,0,0,0,0,0,0,0,0,0,0,0,0,0,0,0,0,0,0,0,0,0,0,0,0,0,0,0,0,0,0,0,0,0,0,0,0,0,0,0,0,0,0,0,0,0,0,0,0,0,0,0,0,0,0,0,0,0,0,0,0,0,0,0,0,0,0,0,0,0,0,0,0,0,0,0,0,0,0,0,0,0,0,0,0,0,0,0,0,0,0,0,0,0,0,0,0,0,0,0,0,0,0,0,0,0,0,0,0,0,0,0,0,0,0,0,0,0,0,0,0,0,0,0,0,0,0,0,0,0,0,0,0,0,0,0,0,0,0,0,0,0,0,0,0,0,0,0,0,0,0,0,0,0,0,0,0,0,0,0,0,0,0,0,0,0,0,0,0,0,0,0,0,0,0,0,0,0,0,0,0,0,0,0,0,0,0,0,0,0,0,0,0,0,0,0,0,0,0,0,0,0,0,0,0,0,0,0,0,0,0,0,0,0,0,0,0,0,0,0,0,0,0,0,0,0,0,0,0,0,0,0,0,0,0,0,0,0,0,0,0,0,0,0,0,0,0,0,0,0,0,0,0,0,0,0,0,0,0,0,0,0,0,0,0,0,0,0,0,0,0,0,0,0,0,0,0,0,0,0,0,0,0,0,0,0,0,0,0,0,0,0,0,0,0,0,0,0,0,0,0,0,0,0,0,0,0,0,0,0,0,0,0,0,0,0,0,0,0,0,0,0,0,0,0,0,0,0,0,0,0,0,0,0,0,0,0,0,0,0,0,0,0,0,0,0,0,0,0,0,0,0,0,0,0,0,0,0,0,0,0,0,0,0,0,0,0,0,0,0,0,0,0,0,0,0,0,0,0,0,0,0,0,0,0,0,0,0,0,0,0,0,0,0,0,0,0,0,0,0,0,0,0,0,0,0,0,0,0,0,0,0,0,0,0,0,0,0,0,0,0,0,0,0,0,0,0,0,0,0,0,0,0,0,0,0,0,0,0,0,0,0,0,0,0,0,0,0,0,0,0,0,0,0,0,0,0,0,0,0,0,0,0,0,0,0,0,0,0,0,0,0,0,0,0,0,0,0,0,0,0,0,0,0,0,0,0,0,0,0,0,0,0,0,0,0,0,0,0,0,0,0,0,0,0,0,0,0,0,0,0,0,0,0,0,0,0,0,0,0,0,0,0,0,0,0,0,0,0,0,0,0,0,0,0,0,0,0,0,0,0,0,0,0,0,0,0,0,0,0,0,0,0,0,0,0,0,0,0,0,0,0,0,0,0,0,0,0,0,0,0,0,0,0,0,0,0,0,0,0,0,0,0,0,0,0,0,0,0,0,0,0,0,0,0,0,0,0,0,0,0,0,0,0,0,0,0,0,0,0,0,0,0,0,0,0,0,0,0,0,0,0,0,0,0,0,0,0,0,0,0,0,0,0,0,0,0,0,0,0,0,0,0,0,0,0,0,0,0,0,0,0,0,0,0,0,0,0,0,0,0,0,0,0,0,0,0,0,0,0,0,0,0,0,0,0,0,0,0,0,0,0,0,0,0,0,0,0,0,0,0,0,0,0,0,0,0,0,0,0,0,0,0,0,0,0,0,0,0,0,0,0,0,0,0,0,0,0,0,0,0,0,0,0,0,0,0,0,0,0,0,0,0,0,0,0,0,0,0,0,0,0,0,0,0,0,0,0,0,0,0,0,0,0,0,0,0],
"events":[
null,
{"id":1,"name":"Transfer (cave B9)","note":"","pages":[{"conditions":{"actorId":1,"actorValid":false,"itemId":1,"itemValid":false,"selfSwitchCh":"A","selfSwitchValid":false,"switch1Id":1,"switch1Valid":false,"switch2Id":1,"switch2Valid":false,"variableId":1,"variableValid":false,"variableValue":0},"directionFix":false,"image":{"tileId":3,"characterName":"","characterIndex":0,"direction":2,"pattern":0},"list":[{"code":250,"indent":0,"parameters":[{"name":"Move1","volume":90,"pitch":100,"pan":0}]},{"code":201,"indent":0,"parameters":[0,125,2,4,2,0]},{"code":0,"indent":0,"parameters":[]}],"moveFrequency":3,"moveRoute":{"list":[{"code":0,"parameters":[]}],"repeat":true,"skippable":false,"wait":false},"moveSpeed":3,"moveType":0,"priorityType":0,"stepAnime":false,"through":false,"trigger":1,"walkAnime":true}],"x":32,"y":50},
{"id":2,"name":"EV002","note":"<cl: fire 100 #e0fff0>","pages":[{"conditions":{"actorId":1,"actorValid":false,"itemId":1,"itemValid":false,"selfSwitchCh":"A","selfSwitchValid":false,"switch1Id":1,"switch1Valid":false,"switch2Id":1,"switch2Valid":false,"variableId":1,"variableValid":true,"variableValue":0},"directionFix":true,"image":{"tileId":35,"characterName":"","characterIndex":0,"direction":2,"pattern":0},"list":[{"code":0,"indent":0,"parameters":[]}],"moveFrequency":3,"moveRoute":{"list":[{"code":0,"parameters":[]}],"repeat":true,"skippable":false,"wait":false},"moveSpeed":3,"moveType":0,"priorityType":1,"stepAnime":true,"through":false,"trigger":0,"walkAnime":false}],"x":23,"y":16},
{"id":3,"name":"EV003","note":"","pages":[{"conditions":{"actorId":1,"actorValid":false,"itemId":1,"itemValid":false,"selfSwitchCh":"A","selfSwitchValid":false,"switch1Id":1,"switch1Valid":false,"switch2Id":1,"switch2Valid":false,"variableId":1,"variableValid":false,"variableValue":0},"directionFix":false,"image":{"characterIndex":0,"characterName":"","direction":2,"pattern":0,"tileId":0},"list":[{"code":357,"indent":0,"parameters":["Community_Lighting_MZ","masterSwitch","Plugin On/Off",{"enabled":"true"}]},{"code":657,"indent":0,"parameters":["Enabled = true"]},{"code":357,"indent":0,"parameters":["Community_Lighting_MZ","setTint","Set Tint",{"color":"#22282f","fadeSpeed":"0"}]},{"code":657,"indent":0,"parameters":["Tint Color = #22282f"]},{"code":657,"indent":0,"parameters":["Fade Speed = 0"]},{"code":223,"indent":0,"parameters":[[-40,-30,-30,10],1,false]},{"code":357,"indent":0,"parameters":["Community_Lighting_MZ","playerLightRadius","Player Light Radius",{"radius":"250","color":"#eeeeee","brightness":"2","fadeSpeed":"1"}]},{"code":657,"indent":0,"parameters":["Radius = 250"]},{"code":657,"indent":0,"parameters":["Color = #eeeeee"]},{"code":657,"indent":0,"parameters":["Brightness = 2"]},{"code":657,"indent":0,"parameters":["fadeSpeed = 1"]},{"code":132,"indent":0,"parameters":[{"name":"Battle6","volume":90,"pitch":100,"pan":0}]},{"code":214,"indent":0,"parameters":[]},{"code":0,"indent":0,"parameters":[]}],"moveFrequency":3,"moveRoute":{"list":[{"code":0,"parameters":[]}],"repeat":true,"skippable":false,"wait":false},"moveSpeed":3,"moveType":0,"priorityType":0,"stepAnime":false,"through":false,"trigger":4,"walkAnime":true}],"x":0,"y":0},
{"id":4,"name":"EV004","note":"<cl: fire 100 #e0fff0>","pages":[{"conditions":{"actorId":1,"actorValid":false,"itemId":1,"itemValid":false,"selfSwitchCh":"A","selfSwitchValid":false,"switch1Id":1,"switch1Valid":false,"switch2Id":1,"switch2Valid":false,"variableId":1,"variableValid":true,"variableValue":0},"directionFix":true,"image":{"tileId":35,"characterName":"","characterIndex":0,"direction":2,"pattern":0},"list":[{"code":0,"indent":0,"parameters":[]}],"moveFrequency":3,"moveRoute":{"list":[{"code":0,"parameters":[]}],"repeat":true,"skippable":false,"wait":false},"moveSpeed":3,"moveType":0,"priorityType":1,"stepAnime":true,"through":false,"trigger":0,"walkAnime":false}],"x":19,"y":16},
{"id":5,"name":"EV005","note":"<cl: Flashlight l12 w8 #f0ffef on 3>","pages":[{"conditions":{"actorId":1,"actorValid":false,"itemId":1,"itemValid":false,"selfSwitchCh":"A","selfSwitchValid":false,"switch1Id":1,"switch1Valid":false,"switch2Id":1,"switch2Valid":false,"variableId":1,"variableValid":false,"variableValue":0},"directionFix":true,"image":{"tileId":0,"characterName":"","direction":4,"pattern":0,"characterIndex":1},"list":[{"code":0,"indent":0,"parameters":[]}],"moveFrequency":3,"moveRoute":{"list":[{"code":0,"parameters":[]}],"repeat":true,"skippable":false,"wait":false},"moveSpeed":3,"moveType":0,"priorityType":0,"stepAnime":true,"through":false,"trigger":0,"walkAnime":false}],"x":5,"y":0},
{"id":6,"name":"Treasure (Magic Water)","note":"","pages":[{"conditions":{"actorId":1,"actorValid":false,"itemId":1,"itemValid":false,"selfSwitchCh":"A","selfSwitchValid":false,"switch1Id":1,"switch1Valid":false,"switch2Id":1,"switch2Valid":false,"variableId":1,"variableValid":false,"variableValue":0},"directionFix":true,"image":{"characterIndex":0,"characterName":"!Chest","direction":2,"pattern":1,"tileId":0},"list":[{"code":250,"indent":0,"parameters":[{"name":"Chest1","volume":90,"pitch":100,"pan":0}]},{"code":205,"indent":0,"parameters":[0,{"repeat":false,"skippable":false,"wait":true,"list":[{"code":36},{"code":17},{"code":15,"parameters":[3]},{"code":18},{"code":15,"parameters":[3]},{"code":0}]}]},{"code":505,"indent":0,"parameters":[{"code":36}]},{"code":505,"indent":0,"parameters":[{"code":17}]},{"code":505,"indent":0,"parameters":[{"code":15,"parameters":[3]}]},{"code":505,"indent":0,"parameters":[{"code":18}]},{"code":505,"indent":0,"parameters":[{"code":15,"parameters":[3]}]},{"code":123,"indent":0,"parameters":["A",0]},{"code":126,"indent":0,"parameters":[8,0,0,1]},{"code":101,"indent":0,"parameters":["",0,0,2,""]},{"code":401,"indent":0,"parameters":["<Magic Water> was found!"]},{"code":0,"indent":0,"parameters":[]}],"moveFrequency":3,"moveRoute":{"list":[{"code":0,"parameters":[]}],"repeat":true,"skippable":false,"wait":false},"moveSpeed":3,"moveType":0,"priorityType":1,"stepAnime":false,"through":false,"trigger":0,"walkAnime":false},{"conditions":{"actorId":1,"actorValid":false,"itemId":1,"itemValid":false,"selfSwitchCh":"A","selfSwitchValid":true,"switch1Id":1,"switch1Valid":false,"switch2Id":1,"switch2Valid":false,"variableId":1,"variableValid":false,"variableValue":0},"directionFix":true,"image":{"characterIndex":0,"characterName":"!Chest","direction":8,"pattern":1,"tileId":0},"list":[{"code":0,"indent":0,"parameters":[]}],"moveFrequency":3,"moveRoute":{"list":[{"code":0,"parameters":[]}],"repeat":true,"skippable":false,"wait":false},"moveSpeed":3,"moveType":0,"priorityType":1,"stepAnime":false,"through":false,"trigger":0,"walkAnime":false}],"x":16,"y":46},
{"id":7,"name":"timeslot0","note":"<cl: fire 100 #e0f0e8>","pages":[{"conditions":{"actorId":1,"actorValid":false,"itemId":1,"itemValid":false,"selfSwitchCh":"A","selfSwitchValid":false,"switch1Id":1,"switch1Valid":false,"switch2Id":1,"switch2Valid":false,"variableId":8,"variableValid":false,"variableValue":0},"directionFix":true,"image":{"tileId":0,"characterName":"!Flame","direction":6,"pattern":0,"characterIndex":6},"list":[{"code":122,"indent":0,"parameters":[16,16,0,0,0]},{"code":117,"indent":0,"parameters":[5]},{"code":111,"indent":0,"parameters":[1,9,0,0,5]},{"code":101,"indent":1,"parameters":["",0,0,2,"\\N[11]"]},{"code":401,"indent":1,"parameters":["Now we are done! Let's head back."]},{"code":101,"indent":1,"parameters":["",0,0,2,"\\N[11]"]},{"code":401,"indent":1,"parameters":["Let's assist \\N[13] capture some <Shade Minion> using <Empty Monster Ball>!"]},{"code":101,"indent":1,"parameters":["",0,0,2,"\\N[14]"]},{"code":401,"indent":1,"parameters":["\\N[13], the weaker monster the easier we can capture them right?"]},{"code":101,"indent":1,"parameters":["",0,0,2,"\\N[13]"]},{"code":401,"indent":1,"parameters":["Right, reduce their HP percentage as much as you could, just don't kill them. It's a probability game but I should have enough <Empty Monster Ball>s."]},{"code":101,"indent":1,"parameters":["",0,0,2,"\\N[12]"]},{"code":401,"indent":1,"parameters":["Just so you know. I got lots of convenience from \\N[13]'s passive skill <Perception> which allow us the see the enemy HP bar."]},{"code":101,"indent":1,"parameters":["",0,0,2,"\\N[14]"]},{"code":401,"indent":1,"parameters":["Same here!"]},{"code":121,"indent":1,"parameters":[34,34,0]},{"code":0,"indent":1,"parameters":[]},{"code":412,"indent":0,"parameters":[]},{"code":0,"indent":0,"parameters":[]}],"moveFrequency":3,"moveRoute":{"list":[{"code":0,"parameters":[]}],"repeat":true,"skippable":false,"wait":false},"moveSpeed":3,"moveType":0,"priorityType":1,"stepAnime":true,"through":false,"trigger":0,"walkAnime":false},{"conditions":{"actorId":1,"actorValid":false,"itemId":1,"itemValid":false,"selfSwitchCh":"A","selfSwitchValid":true,"switch1Id":1,"switch1Valid":false,"switch2Id":1,"switch2Valid":false,"variableId":1,"variableValid":false,"variableValue":0},"directionFix":true,"image":{"tileId":0,"characterName":"!Flame","direction":2,"pattern":0,"characterIndex":7},"list":[{"code":0,"indent":0,"parameters":[]}],"moveFrequency":3,"moveRoute":{"list":[{"code":0,"parameters":[]}],"repeat":true,"skippable":false,"wait":false},"moveSpeed":3,"moveType":0,"priorityType":1,"stepAnime":true,"through":true,"trigger":0,"walkAnime":false}],"x":20,"y":6},
{"id":8,"name":"Treasure (Empty Script)","note":"<cl: fire 100 #e0fff0>","pages":[{"conditions":{"actorId":1,"actorValid":false,"itemId":1,"itemValid":false,"selfSwitchCh":"A","selfSwitchValid":false,"switch1Id":1,"switch1Valid":false,"switch2Id":1,"switch2Valid":false,"variableId":1,"variableValid":false,"variableValue":0},"directionFix":true,"image":{"characterIndex":0,"characterName":"!Chest","direction":2,"pattern":1,"tileId":0},"list":[{"code":250,"indent":0,"parameters":[{"name":"Chest1","volume":90,"pitch":100,"pan":0}]},{"code":205,"indent":0,"parameters":[0,{"repeat":false,"skippable":false,"wait":true,"list":[{"code":36},{"code":17},{"code":15,"parameters":[3]},{"code":18},{"code":15,"parameters":[3]},{"code":0}]}]},{"code":505,"indent":0,"parameters":[{"code":36}]},{"code":505,"indent":0,"parameters":[{"code":17}]},{"code":505,"indent":0,"parameters":[{"code":15,"parameters":[3]}]},{"code":505,"indent":0,"parameters":[{"code":18}]},{"code":505,"indent":0,"parameters":[{"code":15,"parameters":[3]}]},{"code":123,"indent":0,"parameters":["A",0]},{"code":126,"indent":0,"parameters":[141,0,0,1]},{"code":101,"indent":0,"parameters":["",0,0,2,""]},{"code":401,"indent":0,"parameters":["<Chrono Script> was found!"]},{"code":101,"indent":0,"parameters":["",0,0,2,"\\N[11]"]},{"code":401,"indent":0,"parameters":["This must be the <Chronos> that <Blazing Sword> asks for."]},{"code":101,"indent":0,"parameters":["",0,0,2,"\\N[12]"]},{"code":401,"indent":0,"parameters":["Does it mention we should take it somewhere?"]},{"code":357,"indent":0,"parameters":["GALV_CamControlMZ","focusCharacter","Focus Character",{"charId":"7","speed":"800"}]},{"code":657,"indent":0,"parameters":["Character Id = 7"]},{"code":657,"indent":0,"parameters":["Scroll Speed = 800"]},{"code":101,"indent":0,"parameters":["",0,0,2,"\\N[11]"]},{"code":401,"indent":0,"parameters":["I believe we should find the <Time Swirl>."]},{"code":101,"indent":0,"parameters":["",0,0,2,"\\N[12]"]},{"code":401,"indent":0,"parameters":["Hmmm, I wonder what this <Time> magic is. It's out of scope of traditional elemental magic."]},{"code":101,"indent":0,"parameters":["",0,0,2,"\\N[11]"]},{"code":401,"indent":0,"parameters":["As we do more, you'll decipher it in the end. \\N[12], you are smarter than 4 of us combined in magic study."]},{"code":101,"indent":0,"parameters":["",0,0,2,"\\N[12]"]},{"code":401,"indent":0,"parameters":["I know! But from your mouth sounds much better!"]},{"code":357,"indent":0,"parameters":["GALV_CamControlMZ","focusCharacter","Focus Character",{"charId":"0","speed":"800"}]},{"code":657,"indent":0,"parameters":["Character Id = 0"]},{"code":657,"indent":0,"parameters":["Scroll Speed = 800"]},{"code":0,"indent":0,"parameters":[]}],"moveFrequency":3,"moveRoute":{"list":[{"code":0,"parameters":[]}],"repeat":true,"skippable":false,"wait":false},"moveSpeed":3,"moveType":0,"priorityType":1,"stepAnime":false,"through":false,"trigger":0,"walkAnime":false},{"conditions":{"actorId":1,"actorValid":false,"itemId":1,"itemValid":false,"selfSwitchCh":"A","selfSwitchValid":true,"switch1Id":1,"switch1Valid":false,"switch2Id":1,"switch2Valid":false,"variableId":1,"variableValid":false,"variableValue":0},"directionFix":true,"image":{"characterIndex":0,"characterName":"!Chest","direction":8,"pattern":1,"tileId":0},"list":[{"code":0,"indent":0,"parameters":[]}],"moveFrequency":3,"moveRoute":{"list":[{"code":0,"parameters":[]}],"repeat":true,"skippable":false,"wait":false},"moveSpeed":3,"moveType":0,"priorityType":1,"stepAnime":false,"through":false,"trigger":0,"walkAnime":false}],"x":8,"y":9},
{"id":9,"name":"EV009","note":"<cl: fire 100 #e0fff0>","pages":[{"conditions":{"actorId":1,"actorValid":false,"itemId":1,"itemValid":false,"selfSwitchCh":"A","selfSwitchValid":false,"switch1Id":1,"switch1Valid":false,"switch2Id":1,"switch2Valid":false,"variableId":1,"variableValid":true,"variableValue":0},"directionFix":true,"image":{"tileId":35,"characterName":"","characterIndex":0,"direction":2,"pattern":0},"list":[{"code":0,"indent":0,"parameters":[]}],"moveFrequency":3,"moveRoute":{"list":[{"code":0,"parameters":[]}],"repeat":true,"skippable":false,"wait":false},"moveSpeed":3,"moveType":0,"priorityType":1,"stepAnime":true,"through":false,"trigger":0,"walkAnime":false}],"x":19,"y":22},
{"id":10,"name":"EV010","note":"<cl: fire 100 #e0fff0>","pages":[{"conditions":{"actorId":1,"actorValid":false,"itemId":1,"itemValid":false,"selfSwitchCh":"A","selfSwitchValid":false,"switch1Id":1,"switch1Valid":false,"switch2Id":1,"switch2Valid":false,"variableId":1,"variableValid":true,"variableValue":0},"directionFix":true,"image":{"tileId":35,"characterName":"","characterIndex":0,"direction":2,"pattern":0},"list":[{"code":0,"indent":0,"parameters":[]}],"moveFrequency":3,"moveRoute":{"list":[{"code":0,"parameters":[]}],"repeat":true,"skippable":false,"wait":false},"moveSpeed":3,"moveType":0,"priorityType":1,"stepAnime":true,"through":false,"trigger":0,"walkAnime":false}],"x":24,"y":12},
{"id":11,"name":"EV011","note":"","pages":[{"conditions":{"actorId":1,"actorValid":false,"itemId":1,"itemValid":false,"selfSwitchCh":"A","selfSwitchValid":false,"switch1Id":1,"switch1Valid":false,"switch2Id":1,"switch2Valid":false,"variableId":1,"variableValid":false,"variableValue":0},"directionFix":true,"image":{"tileId":0,"characterName":"!Other2","direction":2,"pattern":1,"characterIndex":0},"list":[{"code":0,"indent":0,"parameters":[]}],"moveFrequency":3,"moveRoute":{"list":[{"code":0,"parameters":[]}],"repeat":true,"skippable":false,"wait":false},"moveSpeed":3,"moveType":0,"priorityType":1,"stepAnime":true,"through":false,"trigger":0,"walkAnime":true}],"x":5,"y":7},
{"id":12,"name":"EV012","note":"","pages":[{"conditions":{"actorId":1,"actorValid":false,"itemId":1,"itemValid":false,"selfSwitchCh":"A","selfSwitchValid":false,"switch1Id":1,"switch1Valid":false,"switch2Id":1,"switch2Valid":false,"variableId":1,"variableValid":false,"variableValue":0},"directionFix":true,"image":{"tileId":0,"characterName":"!Other2","direction":2,"pattern":1,"characterIndex":0},"list":[{"code":0,"indent":0,"parameters":[]}],"moveFrequency":3,"moveRoute":{"list":[{"code":0,"parameters":[]}],"repeat":true,"skippable":false,"wait":false},"moveSpeed":3,"moveType":0,"priorityType":1,"stepAnime":true,"through":false,"trigger":0,"walkAnime":true}],"x":20,"y":17},
{"id":13,"name":"EV013","note":"","pages":[{"conditions":{"actorId":1,"actorValid":false,"itemId":1,"itemValid":false,"selfSwitchCh":"A","selfSwitchValid":false,"switch1Id":1,"switch1Valid":false,"switch2Id":1,"switch2Valid":false,"variableId":1,"variableValid":false,"variableValue":0},"directionFix":true,"image":{"tileId":0,"characterName":"!Other2","direction":2,"pattern":1,"characterIndex":0},"list":[{"code":0,"indent":0,"parameters":[]}],"moveFrequency":3,"moveRoute":{"list":[{"code":0,"parameters":[]}],"repeat":true,"skippable":false,"wait":false},"moveSpeed":3,"moveType":0,"priorityType":1,"stepAnime":true,"through":false,"trigger":0,"walkAnime":true}],"x":21,"y":17},
{"id":14,"name":"EV014","note":"","pages":[{"conditions":{"actorId":1,"actorValid":false,"itemId":1,"itemValid":false,"selfSwitchCh":"A","selfSwitchValid":false,"switch1Id":1,"switch1Valid":false,"switch2Id":1,"switch2Valid":false,"variableId":1,"variableValid":false,"variableValue":0},"directionFix":true,"image":{"tileId":0,"characterName":"!Other2","direction":2,"pattern":1,"characterIndex":0},"list":[{"code":0,"indent":0,"parameters":[]}],"moveFrequency":3,"moveRoute":{"list":[{"code":0,"parameters":[]}],"repeat":true,"skippable":false,"wait":false},"moveSpeed":3,"moveType":0,"priorityType":1,"stepAnime":true,"through":false,"trigger":0,"walkAnime":true}],"x":22,"y":17},
{"id":15,"name":"EV015","note":"<cl: fire 100 #e0fff0>","pages":[{"conditions":{"actorId":1,"actorValid":false,"itemId":1,"itemValid":false,"selfSwitchCh":"A","selfSwitchValid":false,"switch1Id":1,"switch1Valid":false,"switch2Id":1,"switch2Valid":false,"variableId":1,"variableValid":true,"variableValue":0},"directionFix":true,"image":{"tileId":35,"characterName":"","characterIndex":0,"direction":2,"pattern":0},"list":[{"code":0,"indent":0,"parameters":[]}],"moveFrequency":3,"moveRoute":{"list":[{"code":0,"parameters":[]}],"repeat":true,"skippable":false,"wait":false},"moveSpeed":3,"moveType":0,"priorityType":1,"stepAnime":true,"through":false,"trigger":0,"walkAnime":false}],"x":21,"y":12},
{"id":16,"name":"EV016","note":"","pages":[{"conditions":{"actorId":1,"actorValid":false,"itemId":1,"itemValid":false,"selfSwitchCh":"A","selfSwitchValid":false,"switch1Id":1,"switch1Valid":false,"switch2Id":1,"switch2Valid":false,"variableId":1,"variableValid":false,"variableValue":0},"directionFix":true,"image":{"tileId":0,"characterName":"!Other2","direction":2,"pattern":1,"characterIndex":0},"list":[{"code":0,"indent":0,"parameters":[]}],"moveFrequency":3,"moveRoute":{"list":[{"code":0,"parameters":[]}],"repeat":true,"skippable":false,"wait":false},"moveSpeed":3,"moveType":0,"priorityType":1,"stepAnime":true,"through":false,"trigger":0,"walkAnime":true}],"x":13,"y":31},
{"id":17,"name":"EV017","note":"","pages":[{"conditions":{"actorId":1,"actorValid":false,"itemId":1,"itemValid":false,"selfSwitchCh":"A","selfSwitchValid":false,"switch1Id":1,"switch1Valid":false,"switch2Id":1,"switch2Valid":false,"variableId":1,"variableValid":false,"variableValue":0},"directionFix":true,"image":{"tileId":0,"characterName":"!Other2","direction":2,"pattern":1,"characterIndex":0},"list":[{"code":0,"indent":0,"parameters":[]}],"moveFrequency":3,"moveRoute":{"list":[{"code":0,"parameters":[]}],"repeat":true,"skippable":false,"wait":false},"moveSpeed":3,"moveType":0,"priorityType":1,"stepAnime":true,"through":false,"trigger":0,"walkAnime":true}],"x":14,"y":31},
{"id":18,"name":"Treasure (Full Potion)","note":"","pages":[{"conditions":{"actorId":1,"actorValid":false,"itemId":1,"itemValid":false,"selfSwitchCh":"A","selfSwitchValid":false,"switch1Id":1,"switch1Valid":false,"switch2Id":1,"switch2Valid":false,"variableId":1,"variableValid":false,"variableValue":0},"directionFix":true,"image":{"characterIndex":0,"characterName":"!Chest","direction":2,"pattern":1,"tileId":0},"list":[{"code":250,"indent":0,"parameters":[{"name":"Chest1","volume":90,"pitch":100,"pan":0}]},{"code":205,"indent":0,"parameters":[0,{"repeat":false,"skippable":false,"wait":true,"list":[{"code":36},{"code":17},{"code":15,"parameters":[3]},{"code":18},{"code":15,"parameters":[3]},{"code":0}]}]},{"code":505,"indent":0,"parameters":[{"code":36}]},{"code":505,"indent":0,"parameters":[{"code":17}]},{"code":505,"indent":0,"parameters":[{"code":15,"parameters":[3]}]},{"code":505,"indent":0,"parameters":[{"code":18}]},{"code":505,"indent":0,"parameters":[{"code":15,"parameters":[3]}]},{"code":123,"indent":0,"parameters":["A",0]},{"code":126,"indent":0,"parameters":[9,0,0,1]},{"code":101,"indent":0,"parameters":["",0,0,2,""]},{"code":401,"indent":0,"parameters":["<Full Potion> was found!"]},{"code":0,"indent":0,"parameters":[]}],"moveFrequency":3,"moveRoute":{"list":[{"code":0,"parameters":[]}],"repeat":true,"skippable":false,"wait":false},"moveSpeed":3,"moveType":0,"priorityType":1,"stepAnime":false,"through":false,"trigger":0,"walkAnime":false},{"conditions":{"actorId":1,"actorValid":false,"itemId":1,"itemValid":false,"selfSwitchCh":"A","selfSwitchValid":true,"switch1Id":1,"switch1Valid":false,"switch2Id":1,"switch2Valid":false,"variableId":1,"variableValid":false,"variableValue":0},"directionFix":true,"image":{"characterIndex":0,"characterName":"!Chest","direction":8,"pattern":1,"tileId":0},"list":[{"code":0,"indent":0,"parameters":[]}],"moveFrequency":3,"moveRoute":{"list":[{"code":0,"parameters":[]}],"repeat":true,"skippable":false,"wait":false},"moveSpeed":3,"moveType":0,"priorityType":1,"stepAnime":false,"through":false,"trigger":0,"walkAnime":false}],"x":18,"y":18},
{"id":19,"name":"lucasfirsttime","note":"","pages":[{"conditions":{"actorId":1,"actorValid":false,"itemId":1,"itemValid":false,"selfSwitchCh":"A","selfSwitchValid":false,"switch1Id":1,"switch1Valid":false,"switch2Id":1,"switch2Valid":false,"variableId":1,"variableValid":false,"variableValue":0},"directionFix":false,"image":{"characterIndex":0,"characterName":"","direction":2,"pattern":0,"tileId":0},"list":[{"code":101,"indent":0,"parameters":["",0,1,1,"\\N[1]"]},{"code":401,"indent":0,"parameters":["(What is this???...)"]},{"code":101,"indent":0,"parameters":["",0,1,1,"\\N[1]"]},{"code":401,"indent":0,"parameters":["(Like I'm in dream again, floating like a ghost...)"]},{"code":101,"indent":0,"parameters":["",0,0,2,"\\N[11]"]},{"code":401,"indent":0,"parameters":["So this is the end of the dungeon. I've no idea but I heard voice in <Blazing Sword> says we gotta find something here."]},{"code":101,"indent":0,"parameters":["",0,1,1,"\\N[1]"]},{"code":401,"indent":0,"parameters":["Wow, maybe I'm in dad's adventure memory? He never talked about it and I don't even know he has friends!"]},{"code":101,"indent":0,"parameters":["",0,0,2,"\\N[12]"]},{"code":401,"indent":0,"parameters":["Oh, \\N[11] come on. Did you bring us here just because of telepathy from this sword you got it from <Temple of Time>?"]},{"code":101,"indent":0,"parameters":["",0,0,2,"\\N[11]"]},{"code":401,"indent":0,"parameters":["Sorry \\N[12], but you know I don't usually ask such ridiculous things unless it's important."]},{"code":101,"indent":0,"parameters":["",0,1,1,"\\N[1]"]},{"code":401,"indent":0,"parameters":["(\\N[12], interesting name.)"]},{"code":101,"indent":0,"parameters":["",0,0,2,"\\N[12]"]},{"code":401,"indent":0,"parameters":["\\N[11], could you please speak to me more softly? I'm just curious about the context."]},{"code":101,"indent":0,"parameters":["",0,0,2,"\\N[11]"]},{"code":401,"indent":0,"parameters":["No, I speak softly... Sorry I believed this sword is asking me to do something here to impact our future in some positive way. I even doubt that but it's true that I can peek a bit into future through this <Blazing Sword>."]},{"code":101,"indent":0,"parameters":["",0,1,1,"\\N[1]"]},{"code":401,"indent":0,"parameters":["(I guess the future is connect to me now)"]},{"code":101,"indent":0,"parameters":["",0,0,2,"\\N[14]"]},{"code":401,"indent":0,"parameters":["\\N[11]'s <God of Time> has saved us a few times, does it? No harm to believe a few more absurd request, I guess? I surely only believe Holy Light and God. But I respect other belief."]},{"code":101,"indent":0,"parameters":["",0,0,2,"\\N[13]"]},{"code":401,"indent":0,"parameters":["Sorry to interrup \\N[14]. As this is the deepest level of the cave. We cannot proceed any further. The things \\N[11] mentioned must be at this level. We can search a bit around here. "]},{"code":101,"indent":0,"parameters":["",0,1,1,"\\N[1]"]},{"code":401,"indent":0,"parameters":["(OMG, \\N[14] and this lady is \\N[13]!!!)"]},{"code":101,"indent":0,"parameters":["",0,0,2,"\\N[13]"]},{"code":401,"indent":0,"parameters":["We barely escaped from that shady creature. I'm still thinking how we can defeat it. It seems to have endless HP."]},{"code":101,"indent":0,"parameters":["",0,0,2,"\\N[12]"]},{"code":401,"indent":0,"parameters":["Not if I learnt <Demi>. I should have learnt it at school. But it's dark magic, I don't like them. Too nerdy!"]},{"code":101,"indent":0,"parameters":["",0,0,2,"\\N[14]"]},{"code":401,"indent":0,"parameters":["I'm with you! <Light> magic spell sounds much better!"]},{"code":101,"indent":0,"parameters":["",0,0,2,"\\N[13]"]},{"code":401,"indent":0,"parameters":["I noticed <Shade Minion>s are using the forbidden skill <Curse of One>. I'm wondering if I could mimic that."]},{"code":101,"indent":0,"parameters":["",0,0,2,"\\N[14]"]},{"code":401,"indent":0,"parameters":["Hey, \\N[13]. You are genius! We can capture some <Shade Minion>s and then use this trick to that stubborn <Shade King>!"]},{"code":101,"indent":0,"parameters":["",0,1,1,""]},{"code":401,"indent":0,"parameters":["\\N[13] is a <Hunter> who can capture new monster and save them into <Monster Ball>. Try to reduce enemy health to minimal and throw <Monster Ball> to catch one <Shade Minions>"]},{"code":101,"indent":0,"parameters":["",0,0,2,"\\N[11]"]},{"code":401,"indent":0,"parameters":["K, sounds all my fault. But I'm not daydreaming and this might be our chance to break the enternal loop that <God of Time> mentioned."]},{"code":101,"indent":0,"parameters":["",0,0,2,"\\N[12]"]},{"code":401,"indent":0,"parameters":["\\N[11] I was just joking around and we like to see your serious expression. You'll always be someone we can rely on and trust in. 😘"]},{"code":101,"indent":0,"parameters":["",0,0,2,"\\N[11]"]},{"code":401,"indent":0,"parameters":["Thanks \\N[12]!😂 Oh, \\N[13], good thinking! We'll help you capture some <Shade Minion>s along our way back after we finish the business here. Does that sound good to everyone?"]},{"code":101,"indent":0,"parameters":["",0,0,2,""]},{"code":401,"indent":0,"parameters":["(All: Sounds perfect!)"]},{"code":101,"indent":0,"parameters":["",0,0,2,"\\N[11]"]},{"code":401,"indent":0,"parameters":["Let's find out the <Chronos>!"]},{"code":101,"indent":0,"parameters":["",0,1,1,""]},{"code":401,"indent":0,"parameters":["Now you can control \\N[11] and his friends to perform tasks that can impact future. In this case, you need to find the particular treasure containing <Chronos> and send it to future through <Time Swirl>. Now go and find the <Chronos> in treasure box!"]},{"code":357,"indent":0,"parameters":["GALV_CamControlMZ","focusCharacter","Focus Character",{"charId":"7","speed":"800"}]},{"code":657,"indent":0,"parameters":["Character Id = 7"]},{"code":657,"indent":0,"parameters":["Scroll Speed = 800"]},{"code":101,"indent":0,"parameters":["",0,1,1,""]},{"code":401,"indent":0,"parameters":["<Time Swirl> is like a unrevertible delivery of item from \\N[11] to \\N[1]. Try to find as much as possible when you control \\N[11] to send critical item as you can."]},{"code":357,"indent":0,"parameters":["GALV_CamControlMZ","focusCharacter","Focus Character",{"charId":"0","speed":"800"}]},{"code":657,"indent":0,"parameters":["Character Id = 0"]},{"code":657,"indent":0,"parameters":["Scroll Speed = 800"]},{"code":101,"indent":0,"parameters":["",0,1,1,""]},{"code":401,"indent":0,"parameters":["Once you are done, you can follow \\N[13]'s <Rainbow Stones> to trace back to exit."]},{"code":125,"indent":0,"parameters":[0,0,10000]},{"code":126,"indent":0,"parameters":[5,0,0,10]},{"code":126,"indent":0,"parameters":[8,0,0,20]},{"code":126,"indent":0,"parameters":[10,0,0,10]},{"code":126,"indent":0,"parameters":[6,0,0,3]},{"code":126,"indent":0,"parameters":[1495,0,0,40]},{"code":126,"indent":0,"parameters":[146,0,0,20]},{"code":126,"indent":0,"parameters":[71,0,0,20]},{"code":126,"indent":0,"parameters":[153,0,0,20]},{"code":123,"indent":0,"parameters":["A",0]},{"code":0,"indent":0,"parameters":[]}],"moveFrequency":3,"moveRoute":{"list":[{"code":0,"parameters":[]}],"repeat":true,"skippable":false,"wait":false},"moveSpeed":3,"moveType":0,"priorityType":0,"stepAnime":false,"through":false,"trigger":3,"walkAnime":true},{"conditions":{"actorId":1,"actorValid":false,"itemId":1,"itemValid":false,"selfSwitchCh":"A","selfSwitchValid":true,"switch1Id":1,"switch1Valid":false,"switch2Id":1,"switch2Valid":false,"variableId":1,"variableValid":false,"variableValue":0},"directionFix":false,"image":{"characterIndex":0,"characterName":"","direction":2,"pattern":0,"tileId":0},"list":[{"code":0,"indent":0,"parameters":[]}],"moveFrequency":3,"moveRoute":{"list":[{"code":0,"parameters":[]}],"repeat":true,"skippable":false,"wait":false},"moveSpeed":3,"moveType":0,"priorityType":0,"stepAnime":false,"through":false,"trigger":0,"walkAnime":true}],"x":1,"y":0},
{"id":20,"name":"EV020","note":"<cl: fire 100 #e0fff0>","pages":[{"conditions":{"actorId":1,"actorValid":false,"itemId":1,"itemValid":false,"selfSwitchCh":"A","selfSwitchValid":false,"switch1Id":1,"switch1Valid":false,"switch2Id":1,"switch2Valid":false,"variableId":1,"variableValid":true,"variableValue":0},"directionFix":true,"image":{"tileId":35,"characterName":"","characterIndex":0,"direction":2,"pattern":0},"list":[{"code":0,"indent":0,"parameters":[]}],"moveFrequency":3,"moveRoute":{"list":[{"code":0,"parameters":[]}],"repeat":true,"skippable":false,"wait":false},"moveSpeed":3,"moveType":0,"priorityType":1,"stepAnime":true,"through":false,"trigger":0,"walkAnime":false}],"x":22,"y":13},
{"id":21,"name":"EV021","note":"<cl: fire 100 #e0fff0>","pages":[{"conditions":{"actorId":1,"actorValid":false,"itemId":1,"itemValid":false,"selfSwitchCh":"A","selfSwitchValid":false,"switch1Id":1,"switch1Valid":false,"switch2Id":1,"switch2Valid":false,"variableId":1,"variableValid":true,"variableValue":0},"directionFix":true,"image":{"tileId":35,"characterName":"","characterIndex":0,"direction":2,"pattern":0},"list":[{"code":0,"indent":0,"parameters":[]}],"moveFrequency":3,"moveRoute":{"list":[{"code":0,"parameters":[]}],"repeat":true,"skippable":false,"wait":false},"moveSpeed":3,"moveType":0,"priorityType":1,"stepAnime":true,"through":false,"trigger":0,"walkAnime":false}],"x":22,"y":21},
{"id":22,"name":"EV022","note":"<cl: fire 100 #e0fff0>","pages":[{"conditions":{"actorId":1,"actorValid":false,"itemId":1,"itemValid":false,"selfSwitchCh":"A","selfSwitchValid":false,"switch1Id":1,"switch1Valid":false,"switch2Id":1,"switch2Valid":false,"variableId":1,"variableValid":true,"variableValue":0},"directionFix":true,"image":{"tileId":35,"characterName":"","characterIndex":0,"direction":2,"pattern":0},"list":[{"code":0,"indent":0,"parameters":[]}],"moveFrequency":3,"moveRoute":{"list":[{"code":0,"parameters":[]}],"repeat":true,"skippable":false,"wait":false},"moveSpeed":3,"moveType":0,"priorityType":1,"stepAnime":true,"through":false,"trigger":0,"walkAnime":false}],"x":18,"y":30},
{"id":23,"name":"EV023","note":"<cl: fire 100 #e0fff0>","pages":[{"conditions":{"actorId":1,"actorValid":false,"itemId":1,"itemValid":false,"selfSwitchCh":"A","selfSwitchValid":false,"switch1Id":1,"switch1Valid":false,"switch2Id":1,"switch2Valid":false,"variableId":1,"variableValid":true,"variableValue":0},"directionFix":true,"image":{"tileId":35,"characterName":"","characterIndex":0,"direction":2,"pattern":0},"list":[{"code":0,"indent":0,"parameters":[]}],"moveFrequency":3,"moveRoute":{"list":[{"code":0,"parameters":[]}],"repeat":true,"skippable":false,"wait":false},"moveSpeed":3,"moveType":0,"priorityType":1,"stepAnime":true,"through":false,"trigger":0,"walkAnime":false}],"x":4,"y":33},
{"id":24,"name":"EV024","note":"<cl: fire 100 #e0fff0>","pages":[{"conditions":{"actorId":1,"actorValid":false,"itemId":1,"itemValid":false,"selfSwitchCh":"A","selfSwitchValid":false,"switch1Id":1,"switch1Valid":false,"switch2Id":1,"switch2Valid":false,"variableId":1,"variableValid":true,"variableValue":0},"directionFix":true,"image":{"tileId":35,"characterName":"","characterIndex":0,"direction":2,"pattern":0},"list":[{"code":0,"indent":0,"parameters":[]}],"moveFrequency":3,"moveRoute":{"list":[{"code":0,"parameters":[]}],"repeat":true,"skippable":false,"wait":false},"moveSpeed":3,"moveType":0,"priorityType":1,"stepAnime":true,"through":false,"trigger":0,"walkAnime":false}],"x":12,"y":9},
{"id":25,"name":"EV025","note":"<cl: fire 100 #e0fff0>","pages":[{"conditions":{"actorId":1,"actorValid":false,"itemId":1,"itemValid":false,"selfSwitchCh":"A","selfSwitchValid":false,"switch1Id":1,"switch1Valid":false,"switch2Id":1,"switch2Valid":false,"variableId":1,"variableValid":true,"variableValue":0},"directionFix":true,"image":{"tileId":35,"characterName":"","characterIndex":0,"direction":2,"pattern":0},"list":[{"code":0,"indent":0,"parameters":[]}],"moveFrequency":3,"moveRoute":{"list":[{"code":0,"parameters":[]}],"repeat":true,"skippable":false,"wait":false},"moveSpeed":3,"moveType":0,"priorityType":1,"stepAnime":true,"through":false,"trigger":0,"walkAnime":false}],"x":16,"y":45},
{"id":26,"name":"EV026","note":"<cl: fire 100 #e0fff0>","pages":[{"conditions":{"actorId":1,"actorValid":false,"itemId":1,"itemValid":false,"selfSwitchCh":"A","selfSwitchValid":false,"switch1Id":1,"switch1Valid":false,"switch2Id":1,"switch2Valid":false,"variableId":1,"variableValid":true,"variableValue":0},"directionFix":true,"image":{"tileId":35,"characterName":"","characterIndex":0,"direction":2,"pattern":0},"list":[{"code":0,"indent":0,"parameters":[]}],"moveFrequency":3,"moveRoute":{"list":[{"code":0,"parameters":[]}],"repeat":true,"skippable":false,"wait":false},"moveSpeed":3,"moveType":0,"priorityType":1,"stepAnime":true,"through":false,"trigger":0,"walkAnime":false}],"x":35,"y":32},
{"id":27,"name":"EV027","note":"<cl: fire 100 #e0fff0>","pages":[{"conditions":{"actorId":1,"actorValid":false,"itemId":1,"itemValid":false,"selfSwitchCh":"A","selfSwitchValid":false,"switch1Id":1,"switch1Valid":false,"switch2Id":1,"switch2Valid":false,"variableId":1,"variableValid":true,"variableValue":0},"directionFix":true,"image":{"tileId":35,"characterName":"","characterIndex":0,"direction":2,"pattern":0},"list":[{"code":0,"indent":0,"parameters":[]}],"moveFrequency":3,"moveRoute":{"list":[{"code":0,"parameters":[]}],"repeat":true,"skippable":false,"wait":false},"moveSpeed":3,"moveType":0,"priorityType":1,"stepAnime":true,"through":false,"trigger":0,"walkAnime":false}],"x":36,"y":19},
{"id":28,"name":"EV028","note":"<cl: fire 100 #e0fff0>","pages":[{"conditions":{"actorId":1,"actorValid":false,"itemId":1,"itemValid":false,"selfSwitchCh":"A","selfSwitchValid":false,"switch1Id":1,"switch1Valid":false,"switch2Id":1,"switch2Valid":false,"variableId":1,"variableValid":true,"variableValue":0},"directionFix":true,"image":{"tileId":35,"characterName":"","characterIndex":0,"direction":2,"pattern":0},"list":[{"code":0,"indent":0,"parameters":[]}],"moveFrequency":3,"moveRoute":{"list":[{"code":0,"parameters":[]}],"repeat":true,"skippable":false,"wait":false},"moveSpeed":3,"moveType":0,"priorityType":1,"stepAnime":true,"through":false,"trigger":0,"walkAnime":false}],"x":24,"y":1},
{"id":29,"name":"EV029","note":"<cl: light 50 #fff3ff>","pages":[{"conditions":{"actorId":1,"actorValid":false,"itemId":1,"itemValid":false,"selfSwitchCh":"A","selfSwitchValid":false,"switch1Id":1,"switch1Valid":false,"switch2Id":1,"switch2Valid":false,"variableId":1,"variableValid":false,"variableValue":0},"directionFix":true,"image":{"tileId":37,"characterName":"","characterIndex":0,"direction":2,"pattern":0},"list":[{"code":0,"indent":0,"parameters":[]}],"moveFrequency":3,"moveRoute":{"list":[{"code":0,"parameters":[]}],"repeat":true,"skippable":false,"wait":false},"moveSpeed":3,"moveType":0,"priorityType":0,"stepAnime":false,"through":false,"trigger":0,"walkAnime":false}],"x":21,"y":24},
{"id":30,"name":"EV030","note":"<cl: light 50 #fff3ff>","pages":[{"conditions":{"actorId":1,"actorValid":false,"itemId":1,"itemValid":false,"selfSwitchCh":"A","selfSwitchValid":false,"switch1Id":1,"switch1Valid":false,"switch2Id":1,"switch2Valid":false,"variableId":1,"variableValid":false,"variableValue":0},"directionFix":true,"image":{"tileId":37,"characterName":"","characterIndex":0,"direction":2,"pattern":0},"list":[{"code":0,"indent":0,"parameters":[]}],"moveFrequency":3,"moveRoute":{"list":[{"code":0,"parameters":[]}],"repeat":true,"skippable":false,"wait":false},"moveSpeed":3,"moveType":0,"priorityType":0,"stepAnime":false,"through":false,"trigger":0,"walkAnime":false}],"x":25,"y":26},
{"id":31,"name":"EV031","note":"<cl: light 50 #fff3ff>","pages":[{"conditions":{"actorId":1,"actorValid":false,"itemId":1,"itemValid":false,"selfSwitchCh":"A","selfSwitchValid":false,"switch1Id":1,"switch1Valid":false,"switch2Id":1,"switch2Valid":false,"variableId":1,"variableValid":false,"variableValue":0},"directionFix":true,"image":{"tileId":37,"characterName":"","characterIndex":0,"direction":2,"pattern":0},"list":[{"code":0,"indent":0,"parameters":[]}],"moveFrequency":3,"moveRoute":{"list":[{"code":0,"parameters":[]}],"repeat":true,"skippable":false,"wait":false},"moveSpeed":3,"moveType":0,"priorityType":0,"stepAnime":false,"through":false,"trigger":0,"walkAnime":false}],"x":25,"y":30},
{"id":32,"name":"EV032","note":"<cl: light 50 #fff3ff>","pages":[{"conditions":{"actorId":1,"actorValid":false,"itemId":1,"itemValid":false,"selfSwitchCh":"A","selfSwitchValid":false,"switch1Id":1,"switch1Valid":false,"switch2Id":1,"switch2Valid":false,"variableId":1,"variableValid":false,"variableValue":0},"directionFix":true,"image":{"tileId":37,"characterName":"","characterIndex":0,"direction":2,"pattern":0},"list":[{"code":0,"indent":0,"parameters":[]}],"moveFrequency":3,"moveRoute":{"list":[{"code":0,"parameters":[]}],"repeat":true,"skippable":false,"wait":false},"moveSpeed":3,"moveType":0,"priorityType":0,"stepAnime":false,"through":false,"trigger":0,"walkAnime":false}],"x":23,"y":34},
{"id":33,"name":"EV033","note":"<cl: light 50 #fff3ff>","pages":[{"conditions":{"actorId":1,"actorValid":false,"itemId":1,"itemValid":false,"selfSwitchCh":"A","selfSwitchValid":false,"switch1Id":1,"switch1Valid":false,"switch2Id":1,"switch2Valid":false,"variableId":1,"variableValid":false,"variableValue":0},"directionFix":true,"image":{"tileId":37,"characterName":"","characterIndex":0,"direction":2,"pattern":0},"list":[{"code":0,"indent":0,"parameters":[]}],"moveFrequency":3,"moveRoute":{"list":[{"code":0,"parameters":[]}],"repeat":true,"skippable":false,"wait":false},"moveSpeed":3,"moveType":0,"priorityType":0,"stepAnime":false,"through":false,"trigger":0,"walkAnime":false}],"x":21,"y":38},
{"id":34,"name":"EV034","note":"<cl: light 50 #fff3ff>","pages":[{"conditions":{"actorId":1,"actorValid":false,"itemId":1,"itemValid":false,"selfSwitchCh":"A","selfSwitchValid":false,"switch1Id":1,"switch1Valid":false,"switch2Id":1,"switch2Valid":false,"variableId":1,"variableValid":false,"variableValue":0},"directionFix":true,"image":{"tileId":37,"characterName":"","characterIndex":0,"direction":2,"pattern":0},"list":[{"code":0,"indent":0,"parameters":[]}],"moveFrequency":3,"moveRoute":{"list":[{"code":0,"parameters":[]}],"repeat":true,"skippable":false,"wait":false},"moveSpeed":3,"moveType":0,"priorityType":0,"stepAnime":false,"through":false,"trigger":0,"walkAnime":false}],"x":18,"y":41},
{"id":35,"name":"EV035","note":"<cl: light 50 #fff3ff>","pages":[{"conditions":{"actorId":1,"actorValid":false,"itemId":1,"itemValid":false,"selfSwitchCh":"A","selfSwitchValid":false,"switch1Id":1,"switch1Valid":false,"switch2Id":1,"switch2Valid":false,"variableId":1,"variableValid":false,"variableValue":0},"directionFix":true,"image":{"tileId":37,"characterName":"","characterIndex":0,"direction":2,"pattern":0},"list":[{"code":0,"indent":0,"parameters":[]}],"moveFrequency":3,"moveRoute":{"list":[{"code":0,"parameters":[]}],"repeat":true,"skippable":false,"wait":false},"moveSpeed":3,"moveType":0,"priorityType":0,"stepAnime":false,"through":false,"trigger":0,"walkAnime":false}],"x":14,"y":44},
{"id":36,"name":"EV036","note":"<cl: light 50 #fff3ff>","pages":[{"conditions":{"actorId":1,"actorValid":false,"itemId":1,"itemValid":false,"selfSwitchCh":"A","selfSwitchValid":false,"switch1Id":1,"switch1Valid":false,"switch2Id":1,"switch2Valid":false,"variableId":1,"variableValid":false,"variableValue":0},"directionFix":true,"image":{"tileId":37,"characterName":"","characterIndex":0,"direction":2,"pattern":0},"list":[{"code":0,"indent":0,"parameters":[]}],"moveFrequency":3,"moveRoute":{"list":[{"code":0,"parameters":[]}],"repeat":true,"skippable":false,"wait":false},"moveSpeed":3,"moveType":0,"priorityType":0,"stepAnime":false,"through":false,"trigger":0,"walkAnime":false}],"x":13,"y":48},
{"id":37,"name":"EV037","note":"<cl: light 50 #fff3ff>","pages":[{"conditions":{"actorId":1,"actorValid":false,"itemId":1,"itemValid":false,"selfSwitchCh":"A","selfSwitchValid":false,"switch1Id":1,"switch1Valid":false,"switch2Id":1,"switch2Valid":false,"variableId":1,"variableValid":false,"variableValue":0},"directionFix":true,"image":{"tileId":37,"characterName":"","characterIndex":0,"direction":2,"pattern":0},"list":[{"code":0,"indent":0,"parameters":[]}],"moveFrequency":3,"moveRoute":{"list":[{"code":0,"parameters":[]}],"repeat":true,"skippable":false,"wait":false},"moveSpeed":3,"moveType":0,"priorityType":0,"stepAnime":false,"through":false,"trigger":0,"walkAnime":false}],"x":12,"y":52},
{"id":38,"name":"EV038","note":"<cl: light 50 #fff3ff>","pages":[{"conditions":{"actorId":1,"actorValid":false,"itemId":1,"itemValid":false,"selfSwitchCh":"A","selfSwitchValid":false,"switch1Id":1,"switch1Valid":false,"switch2Id":1,"switch2Valid":false,"variableId":1,"variableValid":false,"variableValue":0},"directionFix":true,"image":{"tileId":37,"characterName":"","characterIndex":0,"direction":2,"pattern":0},"list":[{"code":0,"indent":0,"parameters":[]}],"moveFrequency":3,"moveRoute":{"list":[{"code":0,"parameters":[]}],"repeat":true,"skippable":false,"wait":false},"moveSpeed":3,"moveType":0,"priorityType":0,"stepAnime":false,"through":false,"trigger":0,"walkAnime":false}],"x":13,"y":57},
{"id":39,"name":"EV039","note":"<cl: light 50 #fff3ff>","pages":[{"conditions":{"actorId":1,"actorValid":false,"itemId":1,"itemValid":false,"selfSwitchCh":"A","selfSwitchValid":false,"switch1Id":1,"switch1Valid":false,"switch2Id":1,"switch2Valid":false,"variableId":1,"variableValid":false,"variableValue":0},"directionFix":true,"image":{"tileId":37,"characterName":"","characterIndex":0,"direction":2,"pattern":0},"list":[{"code":0,"indent":0,"parameters":[]}],"moveFrequency":3,"moveRoute":{"list":[{"code":0,"parameters":[]}],"repeat":true,"skippable":false,"wait":false},"moveSpeed":3,"moveType":0,"priorityType":0,"stepAnime":false,"through":false,"trigger":0,"walkAnime":false}],"x":18,"y":57},
{"id":40,"name":"EV040","note":"<cl: light 50 #fff3ff>","pages":[{"conditions":{"actorId":1,"actorValid":false,"itemId":1,"itemValid":false,"selfSwitchCh":"A","selfSwitchValid":false,"switch1Id":1,"switch1Valid":false,"switch2Id":1,"switch2Valid":false,"variableId":1,"variableValid":false,"variableValue":0},"directionFix":true,"image":{"tileId":37,"characterName":"","characterIndex":0,"direction":2,"pattern":0},"list":[{"code":0,"indent":0,"parameters":[]}],"moveFrequency":3,"moveRoute":{"list":[{"code":0,"parameters":[]}],"repeat":true,"skippable":false,"wait":false},"moveSpeed":3,"moveType":0,"priorityType":0,"stepAnime":false,"through":false,"trigger":0,"walkAnime":false}],"x":22,"y":55},
{"id":41,"name":"EV041","note":"<cl: light 50 #fff3ff>","pages":[{"conditions":{"actorId":1,"actorValid":false,"itemId":1,"itemValid":false,"selfSwitchCh":"A","selfSwitchValid":false,"switch1Id":1,"switch1Valid":false,"switch2Id":1,"switch2Valid":false,"variableId":1,"variableValid":false,"variableValue":0},"directionFix":true,"image":{"tileId":37,"characterName":"","characterIndex":0,"direction":2,"pattern":0},"list":[{"code":0,"indent":0,"parameters":[]}],"moveFrequency":3,"moveRoute":{"list":[{"code":0,"parameters":[]}],"repeat":true,"skippable":false,"wait":false},"moveSpeed":3,"moveType":0,"priorityType":0,"stepAnime":false,"through":false,"trigger":0,"walkAnime":false}],"x":26,"y":53},
{"id":42,"name":"EV042","note":"<cl: light 50 #fff3ff>","pages":[{"conditions":{"actorId":1,"actorValid":false,"itemId":1,"itemValid":false,"selfSwitchCh":"A","selfSwitchValid":false,"switch1Id":1,"switch1Valid":false,"switch2Id":1,"switch2Valid":false,"variableId":1,"variableValid":false,"variableValue":0},"directionFix":true,"image":{"tileId":37,"characterName":"","characterIndex":0,"direction":2,"pattern":0},"list":[{"code":0,"indent":0,"parameters":[]}],"moveFrequency":3,"moveRoute":{"list":[{"code":0,"parameters":[]}],"repeat":true,"skippable":false,"wait":false},"moveSpeed":3,"moveType":0,"priorityType":0,"stepAnime":false,"through":false,"trigger":0,"walkAnime":false}],"x":30,"y":52},
{"id":43,"name":"Transfer (cave B9)","note":"","pages":[{"conditions":{"actorId":1,"actorValid":false,"itemId":1,"itemValid":false,"selfSwitchCh":"A","selfSwitchValid":false,"switch1Id":1,"switch1Valid":false,"switch2Id":1,"switch2Valid":false,"variableId":1,"variableValid":false,"variableValue":0},"directionFix":false,"image":{"tileId":0,"characterName":"","direction":2,"pattern":0,"characterIndex":1},"list":[{"code":122,"indent":0,"parameters":[13,13,0,0,77]},{"code":122,"indent":0,"parameters":[14,14,0,0,21]},{"code":122,"indent":0,"parameters":[15,15,0,0,19]},{"code":117,"indent":0,"parameters":[4]},{"code":0,"indent":0,"parameters":[]}],"moveFrequency":3,"moveRoute":{"list":[{"code":0,"parameters":[]}],"repeat":true,"skippable":false,"wait":false},"moveSpeed":3,"moveType":0,"priorityType":0,"stepAnime":false,"through":false,"trigger":1,"walkAnime":true}],"x":39,"y":49},
{"id":44,"name":"Treasure (Magic Water)","note":"","pages":[{"conditions":{"actorId":1,"actorValid":false,"itemId":1,"itemValid":false,"selfSwitchCh":"A","selfSwitchValid":false,"switch1Id":1,"switch1Valid":false,"switch2Id":1,"switch2Valid":false,"variableId":1,"variableValid":false,"variableValue":0},"directionFix":true,"image":{"characterIndex":0,"characterName":"!Chest","direction":2,"pattern":1,"tileId":0},"list":[{"code":250,"indent":0,"parameters":[{"name":"Chest1","volume":90,"pitch":100,"pan":0}]},{"code":205,"indent":0,"parameters":[0,{"repeat":false,"skippable":false,"wait":true,"list":[{"code":36},{"code":17},{"code":15,"parameters":[3]},{"code":18},{"code":15,"parameters":[3]},{"code":0}]}]},{"code":505,"indent":0,"parameters":[{"code":36}]},{"code":505,"indent":0,"parameters":[{"code":17}]},{"code":505,"indent":0,"parameters":[{"code":15,"parameters":[3]}]},{"code":505,"indent":0,"parameters":[{"code":18}]},{"code":505,"indent":0,"parameters":[{"code":15,"parameters":[3]}]},{"code":123,"indent":0,"parameters":["A",0]},{"code":126,"indent":0,"parameters":[8,0,0,1]},{"code":101,"indent":0,"parameters":["",0,0,2,""]},{"code":401,"indent":0,"parameters":["<Magic Water> was found!"]},{"code":0,"indent":0,"parameters":[]}],"moveFrequency":3,"moveRoute":{"list":[{"code":0,"parameters":[]}],"repeat":true,"skippable":false,"wait":false},"moveSpeed":3,"moveType":0,"priorityType":1,"stepAnime":false,"through":false,"trigger":0,"walkAnime":false},{"conditions":{"actorId":1,"actorValid":false,"itemId":1,"itemValid":false,"selfSwitchCh":"A","selfSwitchValid":true,"switch1Id":1,"switch1Valid":false,"switch2Id":1,"switch2Valid":false,"variableId":1,"variableValid":false,"variableValue":0},"directionFix":true,"image":{"characterIndex":0,"characterName":"!Chest","direction":8,"pattern":1,"tileId":0},"list":[{"code":0,"indent":0,"parameters":[]}],"moveFrequency":3,"moveRoute":{"list":[{"code":0,"parameters":[]}],"repeat":true,"skippable":false,"wait":false},"moveSpeed":3,"moveType":0,"priorityType":1,"stepAnime":false,"through":false,"trigger":0,"walkAnime":false}],"x":17,"y":32},
{"id":45,"name":"Treasure (Water Orb)","note":"","pages":[{"conditions":{"actorId":1,"actorValid":false,"itemId":1,"itemValid":false,"selfSwitchCh":"A","selfSwitchValid":false,"switch1Id":1,"switch1Valid":false,"switch2Id":1,"switch2Valid":false,"variableId":1,"variableValid":false,"variableValue":0},"directionFix":true,"image":{"characterIndex":0,"characterName":"!Chest","direction":2,"pattern":1,"tileId":0},"list":[{"code":250,"indent":0,"parameters":[{"name":"Chest1","volume":90,"pitch":100,"pan":0}]},{"code":205,"indent":0,"parameters":[0,{"repeat":false,"skippable":false,"wait":true,"list":[{"code":36},{"code":17},{"code":15,"parameters":[3]},{"code":18},{"code":15,"parameters":[3]},{"code":0}]}]},{"code":505,"indent":0,"parameters":[{"code":36}]},{"code":505,"indent":0,"parameters":[{"code":17}]},{"code":505,"indent":0,"parameters":[{"code":15,"parameters":[3]}]},{"code":505,"indent":0,"parameters":[{"code":18}]},{"code":505,"indent":0,"parameters":[{"code":15,"parameters":[3]}]},{"code":123,"indent":0,"parameters":["A",0]},{"code":126,"indent":0,"parameters":[47,0,0,1]},{"code":101,"indent":0,"parameters":["",0,0,2,""]},{"code":401,"indent":0,"parameters":["<Water Orb> was found!"]},{"code":0,"indent":0,"parameters":[]}],"moveFrequency":3,"moveRoute":{"list":[{"code":0,"parameters":[]}],"repeat":true,"skippable":false,"wait":false},"moveSpeed":3,"moveType":0,"priorityType":1,"stepAnime":false,"through":false,"trigger":0,"walkAnime":false},{"conditions":{"actorId":1,"actorValid":false,"itemId":1,"itemValid":false,"selfSwitchCh":"A","selfSwitchValid":true,"switch1Id":1,"switch1Valid":false,"switch2Id":1,"switch2Valid":false,"variableId":1,"variableValid":false,"variableValue":0},"directionFix":true,"image":{"characterIndex":0,"characterName":"!Chest","direction":8,"pattern":1,"tileId":0},"list":[{"code":0,"indent":0,"parameters":[]}],"moveFrequency":3,"moveRoute":{"list":[{"code":0,"parameters":[]}],"repeat":true,"skippable":false,"wait":false},"moveSpeed":3,"moveType":0,"priorityType":1,"stepAnime":false,"through":false,"trigger":0,"walkAnime":false}],"x":31,"y":24},
{"id":46,"name":"Treasure (Magic Water Concentrate)","note":"","pages":[{"conditions":{"actorId":1,"actorValid":false,"itemId":1,"itemValid":false,"selfSwitchCh":"A","selfSwitchValid":false,"switch1Id":1,"switch1Valid":false,"switch2Id":1,"switch2Valid":false,"variableId":1,"variableValid":false,"variableValue":0},"directionFix":true,"image":{"characterIndex":0,"characterName":"!Chest","direction":2,"pattern":1,"tileId":0},"list":[{"code":250,"indent":0,"parameters":[{"name":"Chest1","volume":90,"pitch":100,"pan":0}]},{"code":205,"indent":0,"parameters":[0,{"repeat":false,"skippable":false,"wait":true,"list":[{"code":36},{"code":17},{"code":15,"parameters":[3]},{"code":18},{"code":15,"parameters":[3]},{"code":0}]}]},{"code":505,"indent":0,"parameters":[{"code":36}]},{"code":505,"indent":0,"parameters":[{"code":17}]},{"code":505,"indent":0,"parameters":[{"code":15,"parameters":[3]}]},{"code":505,"indent":0,"parameters":[{"code":18}]},{"code":505,"indent":0,"parameters":[{"code":15,"parameters":[3]}]},{"code":123,"indent":0,"parameters":["A",0]},{"code":126,"indent":0,"parameters":[16,0,0,1]},{"code":101,"indent":0,"parameters":["",0,0,2,""]},{"code":401,"indent":0,"parameters":["<Magic Water Concentrate> was found!"]},{"code":0,"indent":0,"parameters":[]}],"moveFrequency":3,"moveRoute":{"list":[{"code":0,"parameters":[]}],"repeat":true,"skippable":false,"wait":false},"moveSpeed":3,"moveType":0,"priorityType":1,"stepAnime":false,"through":false,"trigger":0,"walkAnime":false},{"conditions":{"actorId":1,"actorValid":false,"itemId":1,"itemValid":false,"selfSwitchCh":"A","selfSwitchValid":true,"switch1Id":1,"switch1Valid":false,"switch2Id":1,"switch2Valid":false,"variableId":1,"variableValid":false,"variableValue":0},"directionFix":true,"image":{"characterIndex":0,"characterName":"!Chest","direction":8,"pattern":1,"tileId":0},"list":[{"code":0,"indent":0,"parameters":[]}],"moveFrequency":3,"moveRoute":{"list":[{"code":0,"parameters":[]}],"repeat":true,"skippable":false,"wait":false},"moveSpeed":3,"moveType":0,"priorityType":1,"stepAnime":false,"through":false,"trigger":0,"walkAnime":false}],"x":5,"y":33},
{"id":47,"name":"Treasure (Water Orb)","note":"","pages":[{"conditions":{"actorId":1,"actorValid":false,"itemId":1,"itemValid":false,"selfSwitchCh":"A","selfSwitchValid":false,"switch1Id":1,"switch1Valid":false,"switch2Id":1,"switch2Valid":false,"variableId":1,"variableValid":false,"variableValue":0},"directionFix":true,"image":{"characterIndex":0,"characterName":"!Chest","direction":2,"pattern":1,"tileId":0},"list":[{"code":250,"indent":0,"parameters":[{"name":"Chest1","volume":90,"pitch":100,"pan":0}]},{"code":205,"indent":0,"parameters":[0,{"repeat":false,"skippable":false,"wait":true,"list":[{"code":36},{"code":17},{"code":15,"parameters":[3]},{"code":18},{"code":15,"parameters":[3]},{"code":0}]}]},{"code":505,"indent":0,"parameters":[{"code":36}]},{"code":505,"indent":0,"parameters":[{"code":17}]},{"code":505,"indent":0,"parameters":[{"code":15,"parameters":[3]}]},{"code":505,"indent":0,"parameters":[{"code":18}]},{"code":505,"indent":0,"parameters":[{"code":15,"parameters":[3]}]},{"code":123,"indent":0,"parameters":["A",0]},{"code":126,"indent":0,"parameters":[47,0,0,1]},{"code":101,"indent":0,"parameters":["",0,0,2,""]},{"code":401,"indent":0,"parameters":["<Water Orb> was found!"]},{"code":0,"indent":0,"parameters":[]}],"moveFrequency":3,"moveRoute":{"list":[{"code":0,"parameters":[]}],"repeat":true,"skippable":false,"wait":false},"moveSpeed":3,"moveType":0,"priorityType":1,"stepAnime":false,"through":false,"trigger":0,"walkAnime":false},{"conditions":{"actorId":1,"actorValid":false,"itemId":1,"itemValid":false,"selfSwitchCh":"A","selfSwitchValid":true,"switch1Id":1,"switch1Valid":false,"switch2Id":1,"switch2Valid":false,"variableId":1,"variableValid":false,"variableValue":0},"directionFix":true,"image":{"characterIndex":0,"characterName":"!Chest","direction":8,"pattern":1,"tileId":0},"list":[{"code":0,"indent":0,"parameters":[]}],"moveFrequency":3,"moveRoute":{"list":[{"code":0,"parameters":[]}],"repeat":true,"skippable":false,"wait":false},"moveSpeed":3,"moveType":0,"priorityType":1,"stepAnime":false,"through":false,"trigger":0,"walkAnime":false}],"x":17,"y":56}
]
}