[
null,
{"id":1,"expanded":true,"name":"MAP001","order":3,"parentId":0,"scrollX":2446.7999999999997,"scrollY":1215},
{"id":2,"expanded":true,"name":"MAP002","order":129,"parentId":38,"scrollX":2808.6,"scrollY":1811.3999999999999},
{"id":3,"expanded":false,"name":"MAP003","order":130,"parentId":2,"scrollX":613.8,"scrollY":484.2},
{"id":4,"expanded":false,"name":"MAP004","order":131,"parentId":38,"scrollX":1001.4,"scrollY":577.8},
{"id":5,"expanded":false,"name":"MAP005","order":132,"parentId":4,"scrollX":792.8571428571428,"scrollY":564.8571428571428},
{"id":6,"expanded":true,"name":"Woodside Village998","order":12,"parentId":1,"scrollX":1254,"scrollY":1669},
{"id":7,"expanded":true,"name":"library","order":13,"parentId":6,"scrollX":666.5454545454546,"scrollY":458.72727272727275},
{"id":8,"expanded":false,"name":"goblin room","order":14,"parentId":7,"scrollX":666.5454545454546,"scrollY":450},
{"id":9,"expanded":false,"name":"INN","order":15,"parentId":6,"scrollX":666.5454545454546,"scrollY":450},
{"id":10,"expanded":false,"name":"armor shop","order":23,"parentId":6,"scrollX":675.2727272727273,"scrollY":501.2727272727273},
{"id":11,"expanded":true,"name":"Small haunted house","order":16,"parentId":6,"scrollX":667.6363636363636,"scrollY":547.0909090909091},
{"id":12,"expanded":true,"name":"haunted1","order":17,"parentId":11,"scrollX":1238.3999999999999,"scrollY":504.59999999999997},
{"id":13,"expanded":true,"name":"haunted2","order":18,"parentId":12,"scrollX":3078,"scrollY":1045.8},
{"id":14,"expanded":true,"name":"haunted3","order":19,"parentId":12,"scrollX":742.8,"scrollY":504.59999999999997},
{"id":15,"expanded":false,"name":"MAP015","order":21,"parentId":6,"scrollX":666.5454545454546,"scrollY":450},
{"id":16,"expanded":false,"name":"MAP016","order":22,"parentId":6,"scrollX":666.5454545454546,"scrollY":458.72727272727275},
{"id":17,"expanded":false,"name":"crystal5","order":49,"parentId":22,"scrollX":1657.1999999999998,"scrollY":1895.3999999999999},
{"id":18,"expanded":true,"name":"MAP021 (F2)","order":31,"parentId":21,"scrollX":912,"scrollY":640},
{"id":19,"expanded":true,"name":"game intro","order":4,"parentId":1,"scrollX":666.5454545454546,"scrollY":450},
{"id":20,"expanded":true,"name":"Crystall Village997","order":25,"parentId":1,"scrollX":885.5999999999999,"scrollY":504.59999999999997},
{"id":21,"expanded":true,"name":"MAP021","order":26,"parentId":20,"scrollX":752.4,"scrollY":850.1999999999999},
{"id":22,"expanded":true,"name":"cystal1","order":45,"parentId":1,"scrollX":742.8,"scrollY":504.59999999999997},
{"id":23,"expanded":true,"name":"crystal2","order":46,"parentId":22,"scrollX":752.4,"scrollY":504.59999999999997},
{"id":24,"expanded":false,"name":"crystal3","order":47,"parentId":22,"scrollX":742.8,"scrollY":504.59999999999997},
{"id":25,"expanded":false,"name":"crystal4","order":48,"parentId":22,"scrollX":742.8,"scrollY":743.4},
{"id":26,"expanded":false,"name":"inn","order":27,"parentId":21,"scrollX":675.2727272727273,"scrollY":467.4545454545455},
{"id":27,"expanded":true,"name":"weaponshop","order":28,"parentId":21,"scrollX":681.75,"scrollY":506.25},
{"id":28,"expanded":false,"name":"crystal6","order":50,"parentId":22,"scrollX":742.8,"scrollY":733.8},
{"id":29,"expanded":false,"name":"crystal7","order":51,"parentId":22,"scrollX":742.8,"scrollY":795},
{"id":30,"expanded":false,"name":"crystal8-exit","order":52,"parentId":22,"scrollX":742.8,"scrollY":504.59999999999997},
{"id":31,"expanded":true,"name":"itemshop","order":29,"parentId":21,"scrollX":510,"scrollY":403},
{"id":32,"expanded":false,"name":"armorshop","order":30,"parentId":21,"scrollX":575,"scrollY":366.5},
{"id":33,"expanded":true,"name":"Haveston996","order":53,"parentId":1,"scrollX":1657.1999999999998,"scrollY":1570.1999999999998},
{"id":34,"expanded":true,"name":"inn","order":54,"parentId":33,"scrollX":742.8,"scrollY":504.59999999999997},
{"id":35,"expanded":false,"name":"tent","order":55,"parentId":33,"scrollX":985.7142857142857,"scrollY":628.2857142857142},
{"id":36,"expanded":true,"name":"Pub","order":33,"parentId":18,"scrollX":742.8,"scrollY":685.8},
{"id":37,"expanded":false,"name":"Public Sea","order":34,"parentId":36,"scrollX":1647.6,"scrollY":1255.8},
{"id":38,"expanded":true,"name":"test","order":128,"parentId":1,"scrollX":695.5,"scrollY":469},
{"id":39,"expanded":true,"name":"corruptwoods0:dungeon:","order":67,"parentId":1,"scrollX":742.8,"scrollY":514.1999999999999},
{"id":40,"expanded":true,"name":"corruptwoods1:dungeon:","order":68,"parentId":39,"scrollX":575,"scrollY":488.5},
{"id":41,"expanded":false,"name":"corruptwoods2:dungeon:","order":69,"parentId":40,"scrollX":583,"scrollY":497.5},
{"id":42,"expanded":false,"name":"corruptwoods3:dungeon:","order":70,"parentId":40,"scrollX":759.6,"scrollY":514.1999999999999},
{"id":43,"expanded":false,"name":"corruptwoods4:dungeon:","order":71,"parentId":40,"scrollX":759.6,"scrollY":504.59999999999997},
{"id":44,"expanded":false,"name":"corruptwoods5:dungeon:","order":72,"parentId":40,"scrollX":752.4,"scrollY":504.59999999999997},
{"id":45,"expanded":false,"name":"corruptwoods6:dungeon:","order":73,"parentId":40,"scrollX":742.8,"scrollY":514.1999999999999},
{"id":46,"expanded":true,"name":"crystal-tunnel-outside","order":42,"parentId":1,"scrollX":742.8,"scrollY":514.1999999999999},
{"id":47,"expanded":true,"name":"gameintro-fight","order":5,"parentId":19,"scrollX":624.6,"scrollY":489.59999999999997},
{"id":48,"expanded":false,"name":"gameintro1","order":6,"parentId":19,"scrollX":999.4285714285713,"scrollY":614.5714285714286},
{"id":49,"expanded":false,"name":"Weapon Shop","order":56,"parentId":33,"scrollX":742.8,"scrollY":504.59999999999997},
{"id":50,"expanded":false,"name":"Item Shop","order":57,"parentId":33,"scrollX":454.5,"scrollY":478.5},
{"id":51,"expanded":false,"name":"Armor Shop","order":58,"parentId":33,"scrollX":1231.2,"scrollY":980.4},
{"id":52,"expanded":false,"name":"Alex Home","order":59,"parentId":33,"scrollX":779.1428571428571,"scrollY":564.8571428571428},
{"id":53,"expanded":false,"name":"Bar","order":60,"parentId":33,"scrollX":681.75,"scrollY":494.25},
{"id":54,"expanded":false,"name":"Blacksmith Workshop","order":61,"parentId":33,"scrollX":690,"scrollY":430.2},
{"id":55,"expanded":false,"name":"Magic shop","order":62,"parentId":33,"scrollX":751,"scrollY":473},
{"id":56,"expanded":false,"name":"House 1","order":63,"parentId":33,"scrollX":575,"scrollY":387.5,"quick":false},
{"id":57,"expanded":false,"name":"house 2","order":64,"parentId":33,"scrollX":495.8181818181818,"scrollY":543.8181818181819,"quick":false},
{"id":58,"expanded":false,"name":"house 3","order":65,"parentId":33,"scrollX":909,"scrollY":659,"quick":false},
{"id":59,"expanded":true,"name":"icytunnel0","order":74,"parentId":1,"scrollX":752.4,"scrollY":589.8},
{"id":60,"expanded":false,"name":"icytunnel1:dungeon:","order":75,"parentId":59,"scrollX":975.5999999999999,"scrollY":504.59999999999997},
{"id":61,"expanded":false,"name":"icytunnel2:dungeon:","order":76,"parentId":59,"scrollX":742.8,"scrollY":514.1999999999999},
{"id":62,"expanded":false,"name":"icytunnel3:dungeon:","order":77,"parentId":59,"scrollX":752.4,"scrollY":654.6},
{"id":63,"expanded":false,"name":"icytunnel4:dungeon:","order":78,"parentId":59,"scrollX":742.8,"scrollY":514.1999999999999},
{"id":64,"expanded":false,"name":"icytunnel5-boss:dungeon:","order":79,"parentId":59,"scrollX":752.4,"scrollY":504.59999999999997},
{"id":65,"expanded":true,"name":"icytunnel6:dungeon:","order":80,"parentId":59,"scrollX":675.2727272727273,"scrollY":514.3636363636364},
{"id":66,"expanded":true,"name":"Jensen's Workshop:dungeon:","order":83,"parentId":59,"scrollX":766.6666666666666,"scrollY":488.6666666666667},
{"id":67,"expanded":true,"name":"volcano4:dungeon:","order":91,"parentId":117,"scrollX":742.8,"scrollY":733.8,"quick":false},
{"id":68,"expanded":false,"name":"\\N[6]'s home","order":66,"parentId":33,"scrollX":766.6666666666666,"scrollY":488.6666666666667,"quick":false},
{"id":69,"expanded":true,"name":"Verdane995","order":117,"parentId":1,"scrollX":1105.3333333333333,"scrollY":1670,"quick":false},
{"id":70,"expanded":true,"name":"Castle 1F","order":118,"parentId":69,"scrollX":1092,"scrollY":726.75,"quick":false},
{"id":71,"expanded":false,"name":"Castle 3F","order":119,"parentId":69,"scrollX":913.5,"scrollY":858.75,"quick":false},
{"id":72,"expanded":false,"name":"Castle 2F","order":120,"parentId":69,"scrollX":1000.5,"scrollY":662.25,"quick":false},
{"id":73,"expanded":true,"name":"verdane town","order":121,"parentId":69,"scrollX":2385,"scrollY":3192.6,"quick":false},
{"id":74,"expanded":true,"name":"icytunnel-hidden:dungeon:","order":81,"parentId":65,"scrollX":742.8,"scrollY":514.1999999999999},
{"id":75,"expanded":true,"name":"icytunnel-jensen-hideout","order":82,"parentId":65,"scrollX":609,"scrollY":361.5},
{"id":76,"expanded":true,"name":"Castle B1","order":123,"parentId":69,"scrollX":862.5,"scrollY":698.25,"quick":false},
{"id":77,"expanded":true,"name":"cave B10:dungeon:","order":105,"parentId":1,"scrollX":1167.6,"scrollY":2106.6,"quick":true},
{"id":78,"expanded":true,"name":"cave B9:dungeon:","order":106,"parentId":77,"scrollX":937.1999999999999,"scrollY":1614.6,"quick":false},
{"id":79,"expanded":true,"name":"cave B8:dungeon:","order":107,"parentId":77,"scrollX":742.8,"scrollY":1645.8,"quick":false},
{"id":80,"expanded":true,"name":"cave B7:dungeon:","order":108,"parentId":77,"scrollX":742.8,"scrollY":514.1999999999999,"quick":false},
{"id":81,"expanded":true,"name":"cave B6:dungeon:","order":109,"parentId":77,"scrollX":742.8,"scrollY":523.8,"quick":false},
{"id":82,"expanded":true,"name":"cave B5:dungeon:","order":111,"parentId":77,"scrollX":1273.2,"scrollY":733.8,"quick":false},
{"id":83,"expanded":true,"name":"goblin fisher's cave","order":110,"parentId":81,"scrollX":742.8,"scrollY":685.8,"quick":false},
{"id":84,"expanded":true,"name":"heavyrain01","order":93,"parentId":1,"scrollX":777.5999999999999,"scrollY":613.8,"quick":false},
{"id":85,"expanded":true,"name":"heavyrain02","order":94,"parentId":84,"scrollX":780,"scrollY":482,"quick":false},
{"id":86,"expanded":false,"name":"heavyrain03","order":95,"parentId":84,"scrollX":766.6666666666666,"scrollY":624.6666666666666,"quick":false},
{"id":87,"expanded":false,"name":"heavyrain04","order":96,"parentId":84,"scrollX":766.6666666666666,"scrollY":624.6666666666666,"quick":false},
{"id":88,"expanded":true,"name":"heavyrain05","order":97,"parentId":84,"scrollX":766.6666666666666,"scrollY":682,"quick":false},
{"id":89,"expanded":false,"name":"heavyrain09","order":104,"parentId":84,"scrollX":751,"scrollY":473,"quick":false},
{"id":90,"expanded":true,"name":"heavyrain07","order":99,"parentId":84,"scrollX":766.6666666666666,"scrollY":560.6666666666666,"quick":false},
{"id":91,"expanded":false,"name":"heavyrain06","order":98,"parentId":84,"scrollX":766.6666666666666,"scrollY":1431.3333333333333,"quick":false},
{"id":92,"expanded":true,"name":"heavyrain08","order":102,"parentId":84,"scrollX":1934.3999999999999,"scrollY":1949.3999999999999,"quick":false},
{"id":93,"expanded":true,"name":"mountaincave01","order":100,"parentId":90,"scrollX":742.8,"scrollY":624.6,"quick":false},
{"id":94,"expanded":false,"name":"mountaincave02","order":101,"parentId":93,"scrollX":613.8,"scrollY":1206.6,"quick":false},
{"id":95,"expanded":false,"name":"Castle B3","order":125,"parentId":76,"scrollX":862.5,"scrollY":549.75,"quick":false},
{"id":96,"expanded":false,"name":"libary","order":122,"parentId":73,"scrollX":1568,"scrollY":4100,"quick":false},
{"id":97,"expanded":false,"name":"Castle B2","order":124,"parentId":76,"scrollX":862.5,"scrollY":902.25,"quick":false},
{"id":98,"expanded":true,"name":"icytunnel-official-1","order":84,"parentId":59,"scrollX":742.8,"scrollY":514.1999999999999,"quick":false},
{"id":99,"expanded":false,"name":"Castle B12","order":126,"parentId":76,"scrollX":862.5,"scrollY":537.75,"quick":false},
{"id":100,"expanded":false,"name":"MAP021 (F3)","order":35,"parentId":18,"scrollX":798,"scrollY":685.8,"quick":false},
{"id":101,"expanded":true,"name":"House1","order":36,"parentId":18,"scrollX":742.8,"scrollY":514.1999999999999,"quick":false},
{"id":102,"expanded":false,"name":"House2","order":37,"parentId":18,"scrollX":742.8,"scrollY":504.59999999999997,"quick":false},
{"id":103,"expanded":true,"name":"Lighthouse enter","order":38,"parentId":18,"scrollX":752.4,"scrollY":693,"quick":false},
{"id":104,"expanded":false,"name":"Lighthouse enter","order":32,"parentId":18,"scrollX":675.2727272727273,"scrollY":1644.5454545454545,"quick":false},
{"id":105,"expanded":true,"name":"cave B4","order":112,"parentId":77,"scrollX":1533.3333333333333,"scrollY":964,"quick":false},
{"id":106,"expanded":true,"name":"cave B3","order":113,"parentId":77,"scrollX":1380,"scrollY":879.5999999999999,"quick":false},
{"id":107,"expanded":true,"name":"cave B2","order":114,"parentId":77,"scrollX":575,"scrollY":593.5,"quick":false},
{"id":108,"expanded":false,"name":"cave B1","order":115,"parentId":77,"scrollX":575,"scrollY":593.5,"quick":false},
{"id":109,"expanded":true,"name":"icytunnel-official-2","order":85,"parentId":98,"scrollX":742.8,"scrollY":514.1999999999999,"quick":false},
{"id":110,"expanded":true,"name":"icytunnel-official-3","order":86,"parentId":98,"scrollX":1716,"scrollY":458.72727272727275,"quick":false},
{"id":111,"expanded":false,"name":"rest area","order":87,"parentId":110,"scrollX":675.2727272727273,"scrollY":450,"quick":false},
{"id":112,"expanded":false,"name":"time-temple","order":43,"parentId":46,"scrollX":752.4,"scrollY":624.6,"quick":false},
{"id":113,"expanded":false,"name":"reid-dream","order":44,"parentId":46,"scrollX":1254,"scrollY":995.4,"quick":false},
{"id":114,"expanded":false,"name":"armor shop","order":127,"parentId":69,"scrollX":1020,"scrollY":822},
{"id":115,"expanded":false,"name":"Storage","order":39,"parentId":18,"scrollX":742.8,"scrollY":514.1999999999999,"quick":false},
{"id":116,"expanded":false,"name":"sandcave:dungeon:","order":116,"parentId":1,"scrollX":742.8,"scrollY":624.6,"quick":false},
{"id":117,"expanded":true,"name":"volcano1:dungeon:","order":88,"parentId":59,"scrollX":742.8,"scrollY":504.59999999999997,"quick":false},
{"id":118,"expanded":false,"name":"volcano2:dungeon:","order":89,"parentId":117,"scrollX":742.8,"scrollY":667.8,"quick":false},
{"id":119,"expanded":false,"name":"volcano3:dungeon:","order":90,"parentId":117,"scrollX":832,"scrollY":768,"quick":false},
{"id":120,"expanded":true,"name":"test","order":133,"parentId":38,"scrollX":766.6666666666666,"scrollY":478},
{"id":121,"expanded":true,"name":"gameintro1-v2","order":7,"parentId":19,"scrollX":666.5454545454546,"scrollY":450},
{"id":122,"expanded":true,"name":"gameintro-fight-v2","order":10,"parentId":19,"scrollX":583,"scrollY":430.5},
{"id":123,"expanded":true,"name":"Eternium","order":134,"parentId":0,"scrollX":3408,"scrollY":2820},
{"id":124,"expanded":true,"name":"cave B10","order":135,"parentId":123,"scrollX":1177.2,"scrollY":2091,"quick":true},
{"id":125,"expanded":true,"name":"cave B9","order":136,"parentId":124,"scrollX":742.8,"scrollY":504.59999999999997,"quick":false},
{"id":126,"expanded":true,"name":"cave B8","order":137,"parentId":124,"scrollX":742.8,"scrollY":809.4,"quick":false},
{"id":127,"expanded":false,"name":"Relic","order":24,"parentId":6,"scrollX":675.2727272727273,"scrollY":450,"quick":false},
{"id":128,"expanded":false,"name":"credit","order":1,"parentId":0,"scrollX":675.2727272727273,"scrollY":467.4545454545455,"quick":false},
{"id":129,"expanded":false,"name":"heavyrain-campfire","order":103,"parentId":92,"scrollX":751,"scrollY":473,"quick":false},
{"id":130,"expanded":true,"name":"cave B7","order":138,"parentId":124,"scrollX":742.8,"scrollY":514.1999999999999,"quick":false},
{"id":131,"expanded":true,"name":"cave B6","order":139,"parentId":124,"scrollX":742.8,"scrollY":925.8,"quick":false},
{"id":132,"expanded":true,"name":"cave B5","order":140,"parentId":124,"scrollX":850.8,"scrollY":733.8,"quick":false},
{"id":133,"expanded":false,"name":"World 1","order":141,"parentId":123,"scrollX":3994.285714285714,"scrollY":2561.142857142857,"quick":false},
{"id":134,"expanded":false,"name":"World 2","order":142,"parentId":123,"scrollX":885.3333333333334,"scrollY":1653.3333333333333,"quick":false},
{"id":135,"expanded":false,"name":"Adventurers' Guild","order":40,"parentId":18,"scrollX":742.8,"scrollY":514.1999999999999,"quick":false},
{"id":136,"expanded":false,"name":"post","order":92,"parentId":59,"scrollX":575,"scrollY":366.5,"quick":false},
{"id":137,"expanded":true,"name":"shiproom","order":8,"parentId":121,"scrollX":575,"scrollY":366.5,"quick":false},
{"id":138,"expanded":false,"name":"map","order":9,"parentId":137,"scrollX":690,"scrollY":430.2,"quick":false},
{"id":139,"expanded":false,"name":"beginning","order":2,"parentId":0,"scrollX":666.5454545454546,"scrollY":458.72727272727275,"quick":false},
{"id":140,"expanded":false,"name":"darkness","order":11,"parentId":19,"scrollX":675.2727272727273,"scrollY":450,"quick":false},
{"id":141,"expanded":false,"name":"crystal-outside-dragonattack","order":41,"parentId":20,"scrollX":742.8,"scrollY":1902.6,"quick":false},
{"id":142,"expanded":true,"name":"Small haunted house story","order":20,"parentId":11,"scrollX":742.8,"scrollY":925.8}
]