{
"autoplayBgm":true,"autoplayBgs":false,"battleback1Name":"","battleback2Name":"","bgm":{"name":"FF4/06 Welcome to Our Town!","pan":0,"pitch":100,"volume":90},"bgs":{"name":"","pan":0,"pitch":100,"volume":90},"disableDashing":false,"displayName":"","encounterList":[],"encounterStep":30,"height":30,"note":"","parallaxLoopX":false,"parallaxLoopY":false,"parallaxName":"","parallaxShow":true,"parallaxSx":0,"parallaxSy":0,"scrollType":0,"specifyBattleback":false,"tilesetId":3,"width":20,
"data":[6756,6780,6780,6780,6780,6780,6780,6780,6780,6780,6780,6780,6780,6780,6780,6780,6780,6780,6780,6760,6776,3234,3220,3220,3220,3220,3220,3236,7095,7098,7095,3234,3220,3220,3220,3220,3220,3220,3236,6768,6776,3216,3200,3200,3200,3200,3200,3224,7101,1641,7101,3216,3200,3200,3200,3200,3200,3200,3224,6768,6776,3216,3200,3200,3200,3200,3200,3206,3233,3233,3233,3209,3200,3200,3200,3200,3200,3200,3224,6768,6776,3240,3228,3228,3228,3228,3228,3238,1640,1641,1642,3240,3228,3228,3228,3228,3228,3228,3238,6768,6776,7090,7090,7090,7090,7090,7090,7094,1640,1641,1642,7091,7090,7090,7090,7090,7090,7090,7090,6768,6776,7096,7096,7096,7096,7096,7096,7100,1640,1641,1642,7097,7096,7096,7096,7096,7096,7096,7096,6768,6776,3234,3220,3220,3220,3220,3220,3236,1640,1641,1642,3234,3220,3220,3220,3220,3220,3220,3236,6768,6776,3216,3200,3200,3200,3200,3200,3224,1640,1641,1642,3216,3200,3200,3200,3200,3200,3200,3224,6768,6776,3216,3200,3200,3200,3200,3200,3224,1640,1641,1642,3216,3200,3200,3200,3200,3200,3200,3224,6768,6776,3216,3200,3200,3200,3200,3200,3224,1640,1641,1642,3216,3200,3200,3200,3200,3200,3200,3224,6768,6776,3216,3200,3200,3200,3200,3200,3224,1640,1641,1642,3216,3200,3200,3200,3200,3200,3200,3224,6768,6776,3216,3200,3200,3200,3200,3200,3224,1640,1641,1642,3216,3200,3200,3200,3200,3200,3200,3224,6768,6776,3216,3200,3200,3200,3200,3200,3224,1640,1641,1642,3216,3200,3200,3200,3200,3200,3200,3224,6768,6776,3216,3200,3200,3200,3200,3200,3224,1640,1641,1642,3216,3200,3200,3200,3200,3200,3200,3224,6768,6776,3216,3200,3200,3200,3200,3200,3224,1640,1641,1642,3216,3200,3200,3200,3200,3200,3200,3224,6768,6776,3216,3200,3200,3200,3200,3200,3224,1640,1641,1642,3216,3200,3200,3200,3200,3200,3200,3224,6768,6776,3216,3200,3200,3200,3200,3200,3224,1640,1641,1642,3216,3200,3200,3200,3200,3200,3200,3224,6768,6776,3216,3200,3200,3200,3200,3200,3224,1640,1641,1642,3216,3200,3200,3200,3200,3200,3200,3224,6768,6776,3216,3200,3200,3200,3200,3200,3224,1640,1641,1642,3216,3200,3200,3200,3200,3200,3200,3224,6768,6776,3216,3200,3200,3200,3200,3200,3224,1640,1641,1642,3216,3200,3200,3200,3200,3200,3200,3224,6768,6776,3216,3200,3200,3200,3200,3200,3224,1640,1641,1642,3216,3200,3200,3200,3200,3200,3200,3224,6768,6776,3216,3200,3200,3200,3200,3200,3224,1640,1641,1642,3216,3200,3200,3200,3200,3200,3200,3224,6768,6776,3216,3200,3200,3200,3200,3200,3202,3220,3220,3220,3201,3200,3200,3200,3200,3200,3200,3224,6768,6776,3216,3200,3200,3200,3200,3200,3200,3200,3200,3200,3200,3200,3200,3200,3200,3200,3200,3224,6768,6776,3216,3200,3200,3200,3200,3200,3200,3200,3200,3200,3200,3200,3200,3200,3200,3200,3200,3224,6768,6776,3216,3200,3200,3200,3200,3200,3200,3200,3200,3200,3200,3200,3200,3200,3200,3200,3200,3224,6768,6776,3216,3200,3200,3200,3200,3200,3200,3200,3200,3200,3200,3200,3200,3200,3200,3200,3200,3224,6768,6776,3240,3228,3228,3228,3228,3228,3228,3228,3228,3228,3228,3228,3228,3228,3228,3228,3228,3238,6768,6754,6772,6772,6772,6772,6772,6772,6772,6788,1641,6786,6772,6772,6772,6772,6772,6772,6772,6772,6753,0,0,0,0,0,0,0,0,0,0,0,0,0,0,0,0,0,0,0,0,0,7091,7090,7094,7103,7091,7090,7090,7094,7103,7091,7090,7090,7090,7094,7103,7091,7090,7094,0,0,7097,7096,7100,17,7097,7096,7096,7100,17,7097,7096,7096,7096,7100,17,7097,7096,7100,0,0,3234,3220,3220,3220,3220,3220,3220,3220,3220,3220,3220,3220,3220,3220,3220,3220,3220,3236,0,0,3240,3228,3228,3228,3228,3228,3228,3228,3228,3228,3228,3228,3228,3228,3228,3228,3228,3238,0,0,0,0,0,0,0,0,0,0,0,0,0,0,0,0,0,0,0,0,0,0,0,0,0,0,0,0,0,0,0,0,0,0,0,0,0,0,0,0,0,0,3770,3378,3380,3338,3722,4106,0,0,0,0,0,4106,3722,3338,3378,3380,3770,4154,0,0,3760,3360,3368,3328,3712,4096,0,0,0,0,0,4096,3712,3328,3360,3368,3760,4144,0,0,3760,3360,3368,3328,3712,4096,0,0,0,0,0,4096,3712,3328,3360,3368,3760,4144,0,0,3760,3360,3368,3328,3712,4096,0,0,0,0,0,4096,3712,3328,3360,3368,3760,4144,0,0,3760,3360,3368,3328,3712,4096,0,0,0,0,0,4096,3712,3328,3360,3368,3760,4144,0,0,3760,3360,3368,3328,3712,4096,0,0,0,0,0,4096,3712,3328,3360,3368,3760,4144,0,0,3760,3360,3368,3328,3712,4096,0,0,0,0,0,4096,3712,3328,3360,3368,3760,4144,0,0,3760,3360,3368,3328,3712,4096,0,0,0,0,0,4096,3712,3328,3360,3368,3760,4144,0,0,3760,3360,3368,3328,3712,4096,0,0,0,0,0,4096,3712,3328,3360,3368,3760,4144,0,0,3760,3360,3368,3328,3712,4096,0,0,0,0,0,4096,3712,3328,3360,3368,3760,4144,0,0,3760,3360,3368,3328,3712,4096,0,0,0,0,0,4096,3712,3328,3360,3368,3760,4144,0,0,3760,3360,3368,3328,3712,4096,0,0,0,0,0,4096,3712,3328,3360,3368,3760,4144,0,0,3760,3360,3368,3328,3712,4096,0,0,0,0,0,4096,3712,3328,3360,3368,3760,4144,0,0,3760,3360,3368,3328,3712,4096,0,0,0,0,0,4096,3712,3328,3360,3368,3760,4144,0,0,3760,3360,3368,3328,3712,4096,0,0,0,0,0,4096,3712,3328,3360,3368,3760,4144,0,0,3760,3360,3368,3328,3712,4096,0,0,0,0,0,4096,3712,3328,3360,3368,3760,4144,0,0,3760,3360,3368,3328,3712,4108,0,0,0,0,0,4108,3712,3328,3360,3368,3760,4144,0,0,3760,3360,3368,3328,3721,3713,3713,3713,3713,3713,3713,3713,3719,3328,3360,3368,3760,4144,0,0,3760,3360,3368,3337,3329,3329,3329,3329,3329,3329,3329,3329,3329,3335,3360,3368,3760,4144,0,0,3760,3360,3346,3364,3364,3364,3364,3364,3364,3364,3364,3364,3364,3364,3345,3368,3760,4144,0,0,3760,3384,3372,3372,3372,3372,3372,3372,3372,3372,3372,3372,3372,3372,3372,3382,3760,4144,0,0,3769,3761,3761,3761,3761,3761,3761,3761,3761,3761,3761,3761,3761,3761,3761,3761,3767,4156,0,0,0,0,0,0,0,0,0,0,4154,0,0,0,0,0,0,0,0,0,0,0,0,0,0,0,0,0,0,0,0,0,0,0,0,0,0,0,0,0,0,0,0,0,0,0,0,0,0,0,591,0,0,0,0,0,582,0,0,0,0,0,0,0,0,0,0,0,0,0,0,0,0,0,0,0,0,0,0,0,0,0,0,0,0,0,0,0,0,0,0,0,0,0,0,0,0,0,0,0,0,0,480,481,481,481,481,481,482,3243,3233,3245,480,481,481,481,481,481,481,482,0,0,0,0,0,581,0,0,0,0,0,0,0,0,0,0,583,0,0,0,0,0,0,0,0,0,0,0,0,0,0,0,0,0,0,0,0,0,0,0,0,0,0,0,0,0,0,0,0,0,0,0,0,0,0,0,0,0,0,0,0,0,0,0,0,0,0,0,0,0,0,0,0,0,0,0,0,0,0,0,0,0,0,0,0,0,0,0,0,0,0,0,0,0,0,0,0,0,0,0,0,0,0,0,0,0,0,0,0,0,0,0,0,0,0,0,0,0,0,0,0,0,0,0,0,0,0,0,0,0,0,0,0,0,0,0,0,0,0,0,0,0,0,0,0,0,0,0,0,0,0,0,0,0,0,0,0,0,0,0,0,0,0,0,0,0,0,0,0,0,0,0,0,0,0,0,0,0,0,0,0,0,0,0,0,0,0,0,0,0,0,0,0,0,0,0,0,0,0,0,0,0,0,0,0,0,0,0,0,0,0,0,0,0,0,0,0,0,0,0,0,0,0,0,0,0,0,0,0,0,0,0,0,0,0,0,0,0,0,0,0,0,0,0,0,0,0,0,0,0,0,0,0,0,0,0,0,0,0,0,0,0,0,0,0,0,0,0,0,0,0,0,0,0,0,0,0,0,0,0,0,0,0,0,0,0,0,0,0,0,0,0,0,0,0,0,0,0,0,0,0,0,0,0,0,0,0,0,0,0,0,0,0,0,0,0,0,0,0,0,0,0,0,0,0,0,0,0,0,0,0,0,0,0,0,0,0,0,0,0,0,0,0,0,0,0,0,0,497,0,0,0,496,0,0,0,0,0,0,0,0,0,0,0,0,0,0,0,0,0,0,0,0,0,0,0,0,0,0,0,0,0,0,0,0,0,0,0,0,0,0,0,0,0,0,0,0,0,0,0,0,0,0,0,0,0,0,0,0,0,0,0,0,0,0,0,0,0,0,0,0,0,0,0,0,0,0,0,0,0,0,0,0,0,0,0,0,0,0,0,0,0,0,0,0,0,0,0,0,0,0,0,0,0,0,0,0,0,0,0,0,0,0,0,0,0,0,0,0,0,0,0,0,0,0,0,0,0,0,0,0,0,0,0,0,0,0,0,0,0,0,0,0,0,0,0,0,0,0,0,0,0,0,0,0,0,0,0,0,0,0,0,0,0,0,0,0,0,0,0,0,0,0,0,0,577,0,0,0,0,0,0,0,0,0,0,0,0,0,0,0,0,0,0,0,0,0,0,0,0,0,0,0,0,0,0,0,0,0,0,0,0,343,0,0,0,0,0,0,0,0,0,0,0,0,0,0,0,0,343,0,0,0,0,0,0,0,0,489,0,0,0,488,0,0,0,0,0,0,0,0,0,0,0,0,580,0,0,497,0,0,0,496,0,0,0,579,0,0,0,0,0,0,0,0,644,0,0,497,0,0,0,496,0,0,0,644,0,0,0,0,0,0,0,343,0,343,0,497,0,0,0,496,0,0,342,0,342,0,0,0,0,0,0,0,0,0,0,497,0,0,0,496,0,0,0,0,0,0,0,0,0,0,0,0,0,0,0,497,0,0,0,496,0,0,0,0,0,0,0,0,0,0,0,0,0,0,0,497,0,0,0,496,0,0,0,0,0,0,0,0,0,0,0,0,0,0,0,497,0,0,0,496,0,0,0,0,0,0,0,0,0,0,0,0,0,0,0,497,0,0,0,496,0,0,0,0,0,0,0,0,0,0,0,0,0,0,0,497,0,0,0,496,0,0,0,0,0,0,0,0,0,0,0,0,0,0,0,497,0,0,0,496,0,0,0,0,0,0,0,0,0,0,0,0,0,0,0,497,0,0,0,496,0,0,0,0,0,0,0,0,0,0,0,0,0,0,0,497,0,0,0,496,0,0,0,0,0,0,0,0,0,0,0,0,0,0,0,497,0,0,0,496,0,0,0,0,0,0,0,0,0,0,0,0,0,0,0,497,0,0,0,496,0,0,0,0,0,0,0,0,0,0,0,0,0,0,0,497,0,0,0,496,0,0,0,0,0,0,0,0,0,0,0,0,0,0,0,497,0,0,0,496,0,0,0,0,0,0,0,0,0,0,0,0,0,0,0,497,0,0,0,496,0,0,0,0,0,0,0,0,0,0,0,0,0,0,0,505,0,0,0,504,0,0,0,0,0,0,0,0,0,0,0,0,0,0,0,0,0,0,0,0,0,0,0,0,0,0,0,0,0,0,0,0,0,0,0,0,0,0,0,0,0,0,0,0,0,0,0,0,0,0,0,0,0,0,0,0,0,0,0,0,0,0,0,0,0,0,0,0,0,0,0,0,0,0,0,0,0,0,0,0,0,0,0,0,0,0,0,0,0,0,0,0,0,0,0,0,0,0,0,0,0,0,0,0,0,0,0,0,0,0,0,0,0,0,0,0,0,0,0,0,0,0,0,0,0,0,0,0,0,0,0,0,0,0,0,0,0,0,0,0,0,0,0,0,0,0,0,0,0,0,0,0,0,0,0,0,0,0,0,0,0,0,0,0,0,0,0,0,0,5,0,0,0,0,0,0,0,0,0,0,0,0,0,0,0,0,0,0,0,5,0,0,12,0,0,0,0,13,0,0,0,0,0,12,0,0,0,0,0,5,0,0,0,0,0,0,0,0,0,0,0,0,0,0,0,0,0,0,0,5,0,0,0,0,0,0,0,0,0,0,0,0,0,0,0,0,0,0,0,0,0,0,0,0,0,0,0,0,0,5,0,0,0,0,0,0,0,0,0,0,0,0,0,0,0,0,0,0,0,5,0,0,0,0,0,0,0,0,0,5,0,0,0,0,0,0,0,0,0,5,0,0,0,0,0,0,0,0,0,5,0,0,0,0,0,0,0,0,0,5,0,0,0,0,0,0,0,0,0,5,0,0,0,0,0,0,0,0,0,5,0,0,0,0,0,0,0,0,0,5,0,0,0,0,0,0,0,0,0,5,0,0,0,0,0,0,0,0,0,5,0,0,0,0,0,0,0,0,0,5,0,0,0,0,0,0,0,0,0,5,0,0,0,0,0,0,0,0,0,5,0,0,0,0,0,0,0,0,0,5,0,0,0,0,0,0,0,0,0,5,0,0,0,0,0,0,0,0,0,5,0,0,0,0,0,0,0,0,0,5,0,0,0,0,0,0,0,0,0,5,0,0,0,0,0,0,0,0,0,5,0,0,0,0,0,0,0,0,0,5,0,0,0,0,0,0,0,0,0,5,0,0,0,0,0,0,0,0,0,5,0,0,0,0,0,0,0,0,0,5,0,0,0,0,0,0,0,0,0,5,0,0,0,0,0,0,0,0,0,5,0,0,0,0,0,0,0,0,0,5,0,0,0,0,0,0,0,0,0,5,0,0,0,0,0,0,0,0,0,5,0,0,0,0,0,0,0,0,0,5,0,0,0,0,0,0,0,0,0,5,0,0,0,0,0,0,0,0,0,5,0,0,0,0,0,0,0,0,0,5,0,0,0,0,0,0,0,0,0,0,0,0,0,0,0,0,0,0,0,5,0,0,0,0,0,0,0,0,0,0,0,0,0,0,0,0,0,0,0,5,0,0,0,0,0,0,0,0,0,0,0,0,0,0,0,0,0,0,0,5,0,0,0,0,0,0,0,0,0,0,0,0,0,0,0,0,0,0,0,5,0,0,0,0,0,0,0,0,0,0,0,0,0,0,0,0,0,0,0,5,0,0,0,0,0,0,0,0,0,0,0,0,0,0,0,0,0,0,0,5,0,0,0,0,0,0,0,0,0,0,0,0,0,0,0,0,0,0,0,0,0,0,0,0,0,0,0,0,0,0,0,0,0,0,0,0,0,0,0,0,0,0,0,0,0,0,0,0,0,0,0,0,0,0,0,0,0,0,0,0,0,0,0,0,0,0,0,0,0,0,0,0,0,0,0,0,0,0,0,0,0,0,0,0,0,0,0,0,0,0,0,0,0,0,0,0,0,0,0,0,0,0,0,0,0,0,0,0,0,0,0,0,0,0,0,0,0,0,0,0,0,0,0,0,0,0,0,0,0,0,0,0,0,0,0,0,0,0,0,0,0,0,0,0,0,0,0,0,0,0,0,0,0,0,0,0,0,0,0,0,0,0,0,0,0,0,0,0,0,0,0,0,0,0,0,0,0,0,0,0,0,0,0,0,0,0,0,0,0,0,0,0,0,0,0,0,0,0,0,0,0,0,0,0,0,0,0,0,0,0,0,0,0,0,0,0,0,0,0,0,0,0,0,0,0,0,0,0,0,0,0,0,0,0,0,0,0,0,0,0,0,0,0,0,0,0,0,0,0,0,0,0,0,0,0,0,0,0,0,0,0,0,0,0,0,0,0,0,0,0,0,0,0,0,0,0,0,0,0,0,0,0,0,0,0,0,0,0,0,0,0,0,0,0,0,0,0,0,0,0,0,0,0,0,0,0,0,0,0,0,0,0,0,0,0,0,0,0,0,0,0,0,0,0,0,0,0,0,0,0,0,0,0,0,0,0,0,0,0,0,0,0,0,0,0,0,0,0,0,0,0,0,0,0,0,0,0,0,0,0,0,0,0,0,0,0,0,0,0,0,0,0,0,0,0,0,0,0,0,0,0,0,0,0,0,0,0,0,0,0,0,0,0,0,0,0,0,0,0,0,0,0,0,0,0,0,0,0,0,0,0,0,0,0,0,0,0,0,0,0,0,0,0,0,0,0,0,0,0,0,0,0,0,0,0,0,0,0,0,0,0,0,0,0,0,0,0,0,0,0,0,0,0,0,0,0,0,0,0,0,0,0,0,0,0,0,0,0,0,0,0,0,0,0,0,0,0,0,0,0,0,0,0,0,0,0,0,0,0,0,0,0,0,0,0,0,0,0,0,0,0,0,0,0,0,0,0,0,0,0,0,0,0,0,0,0,0,0,0,0,0,0,0,0,0,0,0,0,0,0,0,0,0,0,0,0,0,0,0,0,0,0,0,0,0,0,0,0,0,0,0,0,0,0,0,0,0,0,0,0,0,0,0,0,0,0,0,0,0,0,0,0,0,0,0,0,0,0,0,0,0,0,0,0,0,0,0,0,0,0,0,0,0,0,0,0,0,0,0,0,0,0,0,0,0,0,0,0,0,0,0,0,0,0,0,0,0,0,0,0,0,0,0,0,0,0,0,0,0,0,0,0,0,0,0,0,0,0],
"events":[
null,
{"id":1,"name":"Door (MAP026)","note":"","pages":[{"conditions":{"actorId":1,"actorValid":false,"itemId":1,"itemValid":false,"selfSwitchCh":"A","selfSwitchValid":false,"switch1Id":1,"switch1Valid":false,"switch2Id":1,"switch2Valid":false,"variableId":1,"variableValid":false,"variableValue":0},"directionFix":false,"image":{"characterIndex":4,"characterName":"!Door1","direction":2,"pattern":1,"tileId":0},"list":[{"code":250,"indent":0,"parameters":[{"name":"Open1","volume":90,"pitch":100,"pan":0}]},{"code":205,"indent":0,"parameters":[0,{"repeat":false,"skippable":false,"wait":true,"list":[{"code":17},{"code":15,"parameters":[3]},{"code":18},{"code":15,"parameters":[3]},{"code":19},{"code":37},{"code":0}]}]},{"code":505,"indent":0,"parameters":[{"code":17}]},{"code":505,"indent":0,"parameters":[{"code":15,"parameters":[3]}]},{"code":505,"indent":0,"parameters":[{"code":18}]},{"code":505,"indent":0,"parameters":[{"code":15,"parameters":[3]}]},{"code":505,"indent":0,"parameters":[{"code":19}]},{"code":505,"indent":0,"parameters":[{"code":37}]},{"code":205,"indent":0,"parameters":[-1,{"repeat":false,"skippable":true,"wait":true,"list":[{"code":12},{"code":0}]}]},{"code":505,"indent":0,"parameters":[{"code":12}]},{"code":250,"indent":0,"parameters":[{"name":"Move1","volume":90,"pitch":100,"pan":0}]},{"code":201,"indent":0,"parameters":[0,26,9,14,0,0]},{"code":0,"indent":0,"parameters":[]}],"moveFrequency":3,"moveRoute":{"list":[{"code":0,"parameters":[]}],"repeat":true,"skippable":false,"wait":false},"moveSpeed":3,"moveType":0,"priorityType":1,"stepAnime":false,"through":false,"trigger":1,"walkAnime":false}],"x":15,"y":2},
{"id":2,"name":"Transfer (Crystall Village)","note":"","pages":[{"conditions":{"actorId":1,"actorValid":false,"itemId":1,"itemValid":false,"selfSwitchCh":"A","selfSwitchValid":false,"switch1Id":1,"switch1Valid":false,"switch2Id":1,"switch2Valid":false,"variableId":1,"variableValid":false,"variableValue":0},"directionFix":false,"image":{"characterIndex":0,"characterName":"","direction":2,"pattern":0,"tileId":0},"list":[{"code":250,"indent":0,"parameters":[{"name":"Move1","volume":90,"pitch":100,"pan":0}]},{"code":201,"indent":0,"parameters":[0,20,24,6,2,1]},{"code":0,"indent":0,"parameters":[]}],"moveFrequency":3,"moveRoute":{"list":[{"code":0,"parameters":[]}],"repeat":true,"skippable":false,"wait":false},"moveSpeed":3,"moveType":0,"priorityType":0,"stepAnime":false,"through":false,"trigger":1,"walkAnime":true}],"x":9,"y":29},
{"id":3,"name":"Door (MAP027)","note":"","pages":[{"conditions":{"actorId":1,"actorValid":false,"itemId":1,"itemValid":false,"selfSwitchCh":"A","selfSwitchValid":false,"switch1Id":1,"switch1Valid":false,"switch2Id":1,"switch2Valid":false,"variableId":1,"variableValid":false,"variableValue":0},"directionFix":false,"image":{"characterIndex":4,"characterName":"!Door1","direction":2,"pattern":1,"tileId":0},"list":[{"code":250,"indent":0,"parameters":[{"name":"Open1","volume":90,"pitch":100,"pan":0}]},{"code":205,"indent":0,"parameters":[0,{"repeat":false,"skippable":false,"wait":true,"list":[{"code":17},{"code":15,"parameters":[3]},{"code":18},{"code":15,"parameters":[3]},{"code":19},{"code":37},{"code":0}]}]},{"code":505,"indent":0,"parameters":[{"code":17}]},{"code":505,"indent":0,"parameters":[{"code":15,"parameters":[3]}]},{"code":505,"indent":0,"parameters":[{"code":18}]},{"code":505,"indent":0,"parameters":[{"code":15,"parameters":[3]}]},{"code":505,"indent":0,"parameters":[{"code":19}]},{"code":505,"indent":0,"parameters":[{"code":37}]},{"code":205,"indent":0,"parameters":[-1,{"repeat":false,"skippable":true,"wait":true,"list":[{"code":12},{"code":0}]}]},{"code":505,"indent":0,"parameters":[{"code":12}]},{"code":250,"indent":0,"parameters":[{"name":"Move1","volume":90,"pitch":100,"pan":0}]},{"code":201,"indent":0,"parameters":[0,27,9,14,0,0]},{"code":0,"indent":0,"parameters":[]}],"moveFrequency":3,"moveRoute":{"list":[{"code":0,"parameters":[]}],"repeat":true,"skippable":false,"wait":false},"moveSpeed":3,"moveType":0,"priorityType":1,"stepAnime":false,"through":false,"trigger":1,"walkAnime":false}],"x":4,"y":2},
{"id":4,"name":"Door (MAP021 (F2))","note":"","pages":[{"conditions":{"actorId":1,"actorValid":false,"itemId":1,"itemValid":false,"selfSwitchCh":"A","selfSwitchValid":false,"switch1Id":1,"switch1Valid":false,"switch2Id":1,"switch2Valid":false,"variableId":1,"variableValid":false,"variableValue":0},"directionFix":false,"image":{"characterIndex":4,"characterName":"!Door1","direction":2,"pattern":1,"tileId":0},"list":[{"code":250,"indent":0,"parameters":[{"name":"Open1","volume":90,"pitch":100,"pan":0}]},{"code":205,"indent":0,"parameters":[0,{"repeat":false,"skippable":false,"wait":true,"list":[{"code":17},{"code":15,"parameters":[3]},{"code":18},{"code":15,"parameters":[3]},{"code":19},{"code":37},{"code":0}]}]},{"code":505,"indent":0,"parameters":[{"code":17}]},{"code":505,"indent":0,"parameters":[{"code":15,"parameters":[3]}]},{"code":505,"indent":0,"parameters":[{"code":18}]},{"code":505,"indent":0,"parameters":[{"code":15,"parameters":[3]}]},{"code":505,"indent":0,"parameters":[{"code":19}]},{"code":505,"indent":0,"parameters":[{"code":37}]},{"code":205,"indent":0,"parameters":[-1,{"repeat":false,"skippable":true,"wait":true,"list":[{"code":12},{"code":0}]}]},{"code":505,"indent":0,"parameters":[{"code":12}]},{"code":250,"indent":0,"parameters":[{"name":"Move1","volume":90,"pitch":100,"pan":0}]},{"code":201,"indent":0,"parameters":[0,18,19,19,0,0]},{"code":0,"indent":0,"parameters":[]}],"moveFrequency":3,"moveRoute":{"list":[{"code":0,"parameters":[]}],"repeat":true,"skippable":false,"wait":false},"moveSpeed":3,"moveType":0,"priorityType":1,"stepAnime":false,"through":false,"trigger":1,"walkAnime":false}],"x":9,"y":2},
{"id":5,"name":"Door (itemshop)","note":"","pages":[{"conditions":{"actorId":1,"actorValid":false,"itemId":1,"itemValid":false,"selfSwitchCh":"A","selfSwitchValid":false,"switch1Id":1,"switch1Valid":false,"switch2Id":1,"switch2Valid":false,"variableId":1,"variableValid":false,"variableValue":0},"directionFix":false,"image":{"characterIndex":4,"characterName":"!Door1","direction":2,"pattern":1,"tileId":0},"list":[{"code":250,"indent":0,"parameters":[{"name":"Open1","volume":90,"pitch":100,"pan":0}]},{"code":205,"indent":0,"parameters":[0,{"repeat":false,"skippable":false,"wait":true,"list":[{"code":17},{"code":15,"parameters":[3]},{"code":18},{"code":15,"parameters":[3]},{"code":19},{"code":37},{"code":0}]}]},{"code":505,"indent":0,"parameters":[{"code":17}]},{"code":505,"indent":0,"parameters":[{"code":15,"parameters":[3]}]},{"code":505,"indent":0,"parameters":[{"code":18}]},{"code":505,"indent":0,"parameters":[{"code":15,"parameters":[3]}]},{"code":505,"indent":0,"parameters":[{"code":19}]},{"code":505,"indent":0,"parameters":[{"code":37}]},{"code":205,"indent":0,"parameters":[-1,{"repeat":false,"skippable":true,"wait":true,"list":[{"code":12},{"code":0}]}]},{"code":505,"indent":0,"parameters":[{"code":12}]},{"code":250,"indent":0,"parameters":[{"name":"Move1","volume":90,"pitch":100,"pan":0}]},{"code":201,"indent":0,"parameters":[0,31,9,14,0,0]},{"code":0,"indent":0,"parameters":[]}],"moveFrequency":3,"moveRoute":{"list":[{"code":0,"parameters":[]}],"repeat":true,"skippable":false,"wait":false},"moveSpeed":3,"moveType":0,"priorityType":1,"stepAnime":false,"through":false,"trigger":1,"walkAnime":false}],"x":4,"y":6},
{"id":6,"name":"Door (armorshop)","note":"","pages":[{"conditions":{"actorId":1,"actorValid":false,"itemId":1,"itemValid":false,"selfSwitchCh":"A","selfSwitchValid":false,"switch1Id":1,"switch1Valid":false,"switch2Id":1,"switch2Valid":false,"variableId":1,"variableValid":false,"variableValue":0},"directionFix":false,"image":{"characterIndex":4,"characterName":"!Door1","direction":2,"pattern":1,"tileId":0},"list":[{"code":250,"indent":0,"parameters":[{"name":"Open1","volume":90,"pitch":100,"pan":0}]},{"code":205,"indent":0,"parameters":[0,{"repeat":false,"skippable":false,"wait":true,"list":[{"code":17},{"code":15,"parameters":[3]},{"code":18},{"code":15,"parameters":[3]},{"code":19},{"code":37},{"code":0}]}]},{"code":505,"indent":0,"parameters":[{"code":17}]},{"code":505,"indent":0,"parameters":[{"code":15,"parameters":[3]}]},{"code":505,"indent":0,"parameters":[{"code":18}]},{"code":505,"indent":0,"parameters":[{"code":15,"parameters":[3]}]},{"code":505,"indent":0,"parameters":[{"code":19}]},{"code":505,"indent":0,"parameters":[{"code":37}]},{"code":205,"indent":0,"parameters":[-1,{"repeat":false,"skippable":true,"wait":true,"list":[{"code":12},{"code":0}]}]},{"code":505,"indent":0,"parameters":[{"code":12}]},{"code":250,"indent":0,"parameters":[{"name":"Move1","volume":90,"pitch":100,"pan":0}]},{"code":201,"indent":0,"parameters":[0,32,9,14,0,0]},{"code":0,"indent":0,"parameters":[]}],"moveFrequency":3,"moveRoute":{"list":[{"code":0,"parameters":[]}],"repeat":true,"skippable":false,"wait":false},"moveSpeed":3,"moveType":0,"priorityType":1,"stepAnime":false,"through":false,"trigger":1,"walkAnime":false}],"x":15,"y":6},
{"id":7,"name":"villager Generated","note":"Generated by add_npc.py v0.1","pages":[{"conditions":{"actorId":1,"actorValid":false,"itemId":1,"itemValid":false,"selfSwitchCh":"A","selfSwitchValid":false,"switch1Id":1,"switch1Valid":false,"switch2Id":1,"switch2Valid":false,"variableId":1,"variableValid":false,"variableValue":0},"directionFix":false,"image":{"tileId":0,"characterName":"People1","direction":2,"pattern":1,"characterIndex":6},"list":[{"code":101,"indent":0,"parameters":["People1",6,0,2,"Villager"]},{"code":401,"indent":0,"parameters":["Welcome to Crystal Village, the heart of"]},{"code":401,"indent":0,"parameters":["trade in Terranova. Enjoy your stay!"]},{"code":0,"indent":0,"parameters":[]}],"moveFrequency":3,"moveRoute":{"list":[{"code":0,"parameters":[]}],"repeat":true,"skippable":false,"wait":false},"moveSpeed":2,"moveType":1,"priorityType":1,"stepAnime":false,"through":false,"trigger":0,"walkAnime":true}],"x":12,"y":7},
{"id":8,"name":"villager Generated","note":"Generated by add_npc.py v0.1","pages":[{"conditions":{"actorId":1,"actorValid":false,"itemId":1,"itemValid":false,"selfSwitchCh":"A","selfSwitchValid":false,"switch1Id":1,"switch1Valid":false,"switch2Id":1,"switch2Valid":false,"variableId":1,"variableValid":false,"variableValue":0},"directionFix":false,"image":{"tileId":0,"characterName":"People1","direction":2,"pattern":1,"characterIndex":1},"list":[{"code":101,"indent":0,"parameters":["People1",1,0,2,"Villager"]},{"code":401,"indent":0,"parameters":["Our days revolve around the bustling trade"]},{"code":401,"indent":0,"parameters":["activities. It's always exciting to see"]},{"code":401,"indent":0,"parameters":["new goods arriving."]},{"code":0,"indent":0,"parameters":[]}],"moveFrequency":3,"moveRoute":{"list":[{"code":0,"parameters":[]}],"repeat":true,"skippable":false,"wait":false},"moveSpeed":2,"moveType":1,"priorityType":1,"stepAnime":false,"through":false,"trigger":0,"walkAnime":true}],"x":7,"y":17},
{"id":9,"name":"villager Generated","note":"Generated by add_npc.py v0.1","pages":[{"conditions":{"actorId":1,"actorValid":false,"itemId":1,"itemValid":false,"selfSwitchCh":"A","selfSwitchValid":false,"switch1Id":1,"switch1Valid":false,"switch2Id":1,"switch2Valid":false,"variableId":1,"variableValid":false,"variableValue":0},"directionFix":false,"image":{"tileId":0,"characterName":"People1","direction":2,"pattern":1,"characterIndex":0},"list":[{"code":101,"indent":0,"parameters":["People1",0,0,2,"Villager"]},{"code":401,"indent":0,"parameters":["I remember the time when QuickSilver"]},{"code":401,"indent":0,"parameters":["didn't exist. We had free access to the"]},{"code":401,"indent":0,"parameters":["Crystal Tunnel without any worries."]},{"code":0,"indent":0,"parameters":[]}],"moveFrequency":3,"moveRoute":{"list":[{"code":0,"parameters":[]}],"repeat":true,"skippable":false,"wait":false},"moveSpeed":3,"moveType":1,"priorityType":1,"stepAnime":false,"through":false,"trigger":0,"walkAnime":true}],"x":2,"y":11},
{"id":10,"name":"villager Generated","note":"Generated by add_npc.py v0.1","pages":[{"conditions":{"actorId":1,"actorValid":false,"itemId":1,"itemValid":false,"selfSwitchCh":"A","selfSwitchValid":false,"switch1Id":1,"switch1Valid":false,"switch2Id":1,"switch2Valid":false,"variableId":1,"variableValid":false,"variableValue":0},"directionFix":false,"image":{"tileId":0,"characterName":"People1","direction":2,"pattern":1,"characterIndex":3},"list":[{"code":101,"indent":0,"parameters":["People1",3,0,2,"Villager"]},{"code":401,"indent":0,"parameters":["The Crystal Tunnel used to shine so"]},{"code":401,"indent":0,"parameters":["beautifully, but now it's covered in the"]},{"code":401,"indent":0,"parameters":["dragon's dark icy crystals."]},{"code":0,"indent":0,"parameters":[]}],"moveFrequency":3,"moveRoute":{"list":[{"code":0,"parameters":[]}],"repeat":true,"skippable":false,"wait":false},"moveSpeed":2,"moveType":1,"priorityType":1,"stepAnime":false,"through":false,"trigger":0,"walkAnime":true}],"x":2,"y":22},
{"id":11,"name":"villager Generated","note":"Generated by add_npc.py v0.1","pages":[{"conditions":{"actorId":1,"actorValid":false,"itemId":1,"itemValid":false,"selfSwitchCh":"A","selfSwitchValid":false,"switch1Id":1,"switch1Valid":false,"switch2Id":1,"switch2Valid":false,"variableId":1,"variableValid":false,"variableValue":0},"directionFix":false,"image":{"tileId":0,"characterName":"People1","direction":2,"pattern":1,"characterIndex":4},"list":[{"code":101,"indent":0,"parameters":["People1",4,0,2,"Villager"]},{"code":401,"indent":0,"parameters":["In the past, Crystal Village was known for"]},{"code":401,"indent":0,"parameters":["its thriving trading hub overseas. It's a"]},{"code":401,"indent":0,"parameters":["shame we lost that after Malachi's attack."]},{"code":0,"indent":0,"parameters":[]}],"moveFrequency":3,"moveRoute":{"list":[{"code":0,"parameters":[]}],"repeat":true,"skippable":false,"wait":false},"moveSpeed":3,"moveType":1,"priorityType":1,"stepAnime":false,"through":false,"trigger":0,"walkAnime":true}],"x":12,"y":7},
{"id":12,"name":"villager Generated","note":"Generated by add_npc.py v0.1","pages":[{"conditions":{"actorId":1,"actorValid":false,"itemId":1,"itemValid":false,"selfSwitchCh":"A","selfSwitchValid":false,"switch1Id":1,"switch1Valid":false,"switch2Id":1,"switch2Valid":false,"variableId":1,"variableValid":false,"variableValue":0},"directionFix":false,"image":{"tileId":0,"characterName":"People1","direction":2,"pattern":1,"characterIndex":7},"list":[{"code":101,"indent":0,"parameters":["People1",7,0,2,"Villager"]},{"code":401,"indent":0,"parameters":["The village's prosperity was deeply"]},{"code":401,"indent":0,"parameters":["intertwined with the Crystal Tunnel. Now,"]},{"code":401,"indent":0,"parameters":["we're struggling without its resources."]},{"code":0,"indent":0,"parameters":[]}],"moveFrequency":3,"moveRoute":{"list":[{"code":0,"parameters":[]}],"repeat":true,"skippable":false,"wait":false},"moveSpeed":2,"moveType":1,"priorityType":1,"stepAnime":false,"through":false,"trigger":0,"walkAnime":true}],"x":9,"y":25},
{"id":13,"name":"villager Generated","note":"Generated by add_npc.py v0.1","pages":[{"conditions":{"actorId":1,"actorValid":false,"itemId":1,"itemValid":false,"selfSwitchCh":"A","selfSwitchValid":false,"switch1Id":1,"switch1Valid":false,"switch2Id":1,"switch2Valid":false,"variableId":1,"variableValid":false,"variableValue":0},"directionFix":false,"image":{"tileId":0,"characterName":"People1","direction":2,"pattern":1,"characterIndex":6},"list":[{"code":101,"indent":0,"parameters":["People1",6,0,2,"Villager"]},{"code":401,"indent":0,"parameters":["I've heard tales of Kasey, the brave"]},{"code":401,"indent":0,"parameters":["magician who ventured into the Crystal"]},{"code":401,"indent":0,"parameters":["Tunnel. I hope she's safe."]},{"code":0,"indent":0,"parameters":[]}],"moveFrequency":3,"moveRoute":{"list":[{"code":0,"parameters":[]}],"repeat":true,"skippable":false,"wait":false},"moveSpeed":2,"moveType":1,"priorityType":1,"stepAnime":false,"through":false,"trigger":0,"walkAnime":true}],"x":11,"y":12},
{"id":14,"name":"villager Generated","note":"Generated by add_npc.py v0.1","pages":[{"conditions":{"actorId":1,"actorValid":false,"itemId":1,"itemValid":false,"selfSwitchCh":"A","selfSwitchValid":false,"switch1Id":1,"switch1Valid":false,"switch2Id":1,"switch2Valid":false,"variableId":1,"variableValid":false,"variableValue":0},"directionFix":false,"image":{"tileId":0,"characterName":"People1","direction":2,"pattern":1,"characterIndex":2},"list":[{"code":101,"indent":0,"parameters":["People1",2,0,2,"Villager"]},{"code":401,"indent":0,"parameters":["Every day, we pray for Kasey's success in"]},{"code":401,"indent":0,"parameters":["defeating QuickSilver and restoring our"]},{"code":401,"indent":0,"parameters":["access to the Crystal Tunnel."]},{"code":0,"indent":0,"parameters":[]}],"moveFrequency":3,"moveRoute":{"list":[{"code":0,"parameters":[]}],"repeat":true,"skippable":false,"wait":false},"moveSpeed":2,"moveType":1,"priorityType":1,"stepAnime":false,"through":false,"trigger":0,"walkAnime":true}],"x":6,"y":8},
{"id":15,"name":"villager Generated","note":"Generated by add_npc.py v0.1","pages":[{"conditions":{"actorId":1,"actorValid":false,"itemId":1,"itemValid":false,"selfSwitchCh":"A","selfSwitchValid":false,"switch1Id":1,"switch1Valid":false,"switch2Id":1,"switch2Valid":false,"variableId":1,"variableValid":false,"variableValue":0},"directionFix":false,"image":{"tileId":0,"characterName":"People1","direction":2,"pattern":1,"characterIndex":7},"list":[{"code":101,"indent":0,"parameters":["People1",7,0,2,"Villager"]},{"code":401,"indent":0,"parameters":["QuickSilver's presence has made trading"]},{"code":401,"indent":0,"parameters":["difficult. We're running out of essential"]},{"code":401,"indent":0,"parameters":["supplies from the continent."]},{"code":0,"indent":0,"parameters":[]}],"moveFrequency":3,"moveRoute":{"list":[{"code":0,"parameters":[]}],"repeat":true,"skippable":false,"wait":false},"moveSpeed":2,"moveType":1,"priorityType":1,"stepAnime":false,"through":false,"trigger":0,"walkAnime":true}],"x":12,"y":18},
{"id":16,"name":"villager Generated","note":"Generated by add_npc.py v0.1","pages":[{"conditions":{"actorId":1,"actorValid":false,"itemId":1,"itemValid":false,"selfSwitchCh":"A","selfSwitchValid":false,"switch1Id":1,"switch1Valid":false,"switch2Id":1,"switch2Valid":false,"variableId":1,"variableValid":false,"variableValue":0},"directionFix":false,"image":{"tileId":0,"characterName":"People1","direction":2,"pattern":1,"characterIndex":3},"list":[{"code":101,"indent":0,"parameters":["People1",3,0,2,"Villager"]},{"code":401,"indent":0,"parameters":["I used to travel to the continent through"]},{"code":401,"indent":0,"parameters":["the Crystal Tunnel. Now, it's too"]},{"code":401,"indent":0,"parameters":["dangerous to even approach it."]},{"code":0,"indent":0,"parameters":[]}],"moveFrequency":3,"moveRoute":{"list":[{"code":0,"parameters":[]}],"repeat":true,"skippable":false,"wait":false},"moveSpeed":2,"moveType":1,"priorityType":1,"stepAnime":false,"through":false,"trigger":0,"walkAnime":true}],"x":14,"y":15},
{"id":17,"name":"villager Generated","note":"Generated by add_npc.py v0.1","pages":[{"conditions":{"actorId":1,"actorValid":false,"itemId":1,"itemValid":false,"selfSwitchCh":"A","selfSwitchValid":false,"switch1Id":1,"switch1Valid":false,"switch2Id":1,"switch2Valid":false,"variableId":1,"variableValid":false,"variableValue":0},"directionFix":false,"image":{"tileId":0,"characterName":"People1","direction":2,"pattern":1,"characterIndex":6},"list":[{"code":101,"indent":0,"parameters":["People1",6,0,2,"Villager"]},{"code":401,"indent":0,"parameters":["The dragon's silver scratch will"]},{"code":401,"indent":0,"parameters":["crystalize everything it touches. It's a"]},{"code":401,"indent":0,"parameters":["chilling sight to behold."]},{"code":0,"indent":0,"parameters":[]}],"moveFrequency":3,"moveRoute":{"list":[{"code":0,"parameters":[]}],"repeat":true,"skippable":false,"wait":false},"moveSpeed":2,"moveType":1,"priorityType":1,"stepAnime":false,"through":false,"trigger":0,"walkAnime":true}],"x":17,"y":16},
{"id":18,"name":"villager Generated","note":"Generated by add_npc.py v0.1","pages":[{"conditions":{"actorId":1,"actorValid":false,"itemId":1,"itemValid":false,"selfSwitchCh":"A","selfSwitchValid":false,"switch1Id":1,"switch1Valid":false,"switch2Id":1,"switch2Valid":false,"variableId":1,"variableValid":false,"variableValue":0},"directionFix":false,"image":{"tileId":0,"characterName":"People1","direction":2,"pattern":1,"characterIndex":7},"list":[{"code":101,"indent":0,"parameters":["People1",7,0,2,"Villager"]},{"code":401,"indent":0,"parameters":["We rely heavily on the continental village"]},{"code":401,"indent":0,"parameters":["for our deliveries. Without their"]},{"code":401,"indent":0,"parameters":["shipments, our supplies dwindle."]},{"code":0,"indent":0,"parameters":[]}],"moveFrequency":3,"moveRoute":{"list":[{"code":0,"parameters":[]}],"repeat":true,"skippable":false,"wait":false},"moveSpeed":3,"moveType":1,"priorityType":1,"stepAnime":false,"through":false,"trigger":0,"walkAnime":true}],"x":3,"y":11},
{"id":19,"name":"villager Generated","note":"Generated by add_npc.py v0.1","pages":[{"conditions":{"actorId":1,"actorValid":false,"itemId":1,"itemValid":false,"selfSwitchCh":"A","selfSwitchValid":false,"switch1Id":1,"switch1Valid":false,"switch2Id":1,"switch2Valid":false,"variableId":1,"variableValid":false,"variableValue":0},"directionFix":false,"image":{"tileId":0,"characterName":"People1","direction":2,"pattern":1,"characterIndex":5},"list":[{"code":101,"indent":0,"parameters":["People1",5,0,2,"Villager"]},{"code":401,"indent":0,"parameters":["Kasey's bravery has given us hope. We"]},{"code":401,"indent":0,"parameters":["eagerly await her triumphant return from"]},{"code":401,"indent":0,"parameters":["the Crystal Tunnel."]},{"code":0,"indent":0,"parameters":[]}],"moveFrequency":3,"moveRoute":{"list":[{"code":0,"parameters":[]}],"repeat":true,"skippable":false,"wait":false},"moveSpeed":2,"moveType":1,"priorityType":1,"stepAnime":false,"through":false,"trigger":0,"walkAnime":true}],"x":4,"y":10},
{"id":20,"name":"villager Generated","note":"Generated by add_npc.py v0.1","pages":[{"conditions":{"actorId":1,"actorValid":false,"itemId":1,"itemValid":false,"selfSwitchCh":"A","selfSwitchValid":false,"switch1Id":1,"switch1Valid":false,"switch2Id":1,"switch2Valid":false,"variableId":1,"variableValid":false,"variableValue":0},"directionFix":false,"image":{"tileId":0,"characterName":"People1","direction":2,"pattern":1,"characterIndex":6},"list":[{"code":101,"indent":0,"parameters":["People1",6,0,2,"Villager"]},{"code":401,"indent":0,"parameters":["The Crystal Tunnel was a symbol of unity"]},{"code":401,"indent":0,"parameters":["and prosperity. Now, it stands as a"]},{"code":401,"indent":0,"parameters":["reminder of our struggles."]},{"code":0,"indent":0,"parameters":[]}],"moveFrequency":3,"moveRoute":{"list":[{"code":0,"parameters":[]}],"repeat":true,"skippable":false,"wait":false},"moveSpeed":3,"moveType":1,"priorityType":1,"stepAnime":false,"through":false,"trigger":0,"walkAnime":true}],"x":11,"y":17},
{"id":21,"name":"villager Generated","note":"Generated by add_npc.py v0.1","pages":[{"conditions":{"actorId":1,"actorValid":false,"itemId":1,"itemValid":false,"selfSwitchCh":"A","selfSwitchValid":false,"switch1Id":1,"switch1Valid":false,"switch2Id":1,"switch2Valid":false,"variableId":1,"variableValid":false,"variableValue":0},"directionFix":false,"image":{"tileId":0,"characterName":"People1","direction":2,"pattern":1,"characterIndex":3},"list":[{"code":101,"indent":0,"parameters":["People1",3,0,2,"Villager"]},{"code":401,"indent":0,"parameters":["Trade is the lifeblood of this village. It"]},{"code":401,"indent":0,"parameters":["brings us not just goods, but also"]},{"code":401,"indent":0,"parameters":["cultural exchange and diversity."]},{"code":0,"indent":0,"parameters":[]}],"moveFrequency":3,"moveRoute":{"list":[{"code":0,"parameters":[]}],"repeat":true,"skippable":false,"wait":false},"moveSpeed":3,"moveType":1,"priorityType":1,"stepAnime":false,"through":false,"trigger":0,"walkAnime":true}],"x":18,"y":12},
{"id":22,"name":"villager Generated","note":"Generated by add_npc.py v0.1","pages":[{"conditions":{"actorId":1,"actorValid":false,"itemId":1,"itemValid":false,"selfSwitchCh":"A","selfSwitchValid":false,"switch1Id":1,"switch1Valid":false,"switch2Id":1,"switch2Valid":false,"variableId":1,"variableValid":false,"variableValue":0},"directionFix":false,"image":{"tileId":0,"characterName":"People1","direction":2,"pattern":1,"characterIndex":7},"list":[{"code":101,"indent":0,"parameters":["People1",7,0,2,"Villager"]},{"code":401,"indent":0,"parameters":["The Crystal Tunnel's crystalized walls"]},{"code":401,"indent":0,"parameters":["emit an otherworldly glow. It's a sight"]},{"code":401,"indent":0,"parameters":["that once filled us with wonder."]},{"code":0,"indent":0,"parameters":[]}],"moveFrequency":3,"moveRoute":{"list":[{"code":0,"parameters":[]}],"repeat":true,"skippable":false,"wait":false},"moveSpeed":3,"moveType":1,"priorityType":1,"stepAnime":false,"through":false,"trigger":0,"walkAnime":true}],"x":5,"y":15},
{"id":23,"name":"villager Generated","note":"Generated by add_npc.py v0.1","pages":[{"conditions":{"actorId":1,"actorValid":false,"itemId":1,"itemValid":false,"selfSwitchCh":"A","selfSwitchValid":false,"switch1Id":1,"switch1Valid":false,"switch2Id":1,"switch2Valid":false,"variableId":1,"variableValid":false,"variableValue":0},"directionFix":false,"image":{"tileId":0,"characterName":"People1","direction":2,"pattern":1,"characterIndex":2},"list":[{"code":101,"indent":0,"parameters":["People1",2,0,2,"Villager"]},{"code":401,"indent":0,"parameters":["I hope Kasey is safe... I'm so worried..."]},{"code":0,"indent":0,"parameters":[]}],"moveFrequency":3,"moveRoute":{"list":[{"code":0,"parameters":[]}],"repeat":true,"skippable":false,"wait":false},"moveSpeed":2,"moveType":1,"priorityType":1,"stepAnime":false,"through":false,"trigger":0,"walkAnime":true}],"x":5,"y":26},
{"id":24,"name":"villager Generated","note":"Generated by add_npc.py v0.1","pages":[{"conditions":{"actorId":1,"actorValid":false,"itemId":1,"itemValid":false,"selfSwitchCh":"A","selfSwitchValid":false,"switch1Id":1,"switch1Valid":false,"switch2Id":1,"switch2Valid":false,"variableId":1,"variableValid":false,"variableValue":0},"directionFix":false,"image":{"tileId":0,"characterName":"People1","direction":2,"pattern":1,"characterIndex":3},"list":[{"code":101,"indent":0,"parameters":["People1",3,0,2,"Villager"]},{"code":401,"indent":0,"parameters":["In the old days, Crystal Village was a"]},{"code":401,"indent":0,"parameters":["bustling hub where traders from all"]},{"code":401,"indent":0,"parameters":["corners of Terranova gathered."]},{"code":0,"indent":0,"parameters":[]}],"moveFrequency":3,"moveRoute":{"list":[{"code":0,"parameters":[]}],"repeat":true,"skippable":false,"wait":false},"moveSpeed":3,"moveType":1,"priorityType":1,"stepAnime":false,"through":false,"trigger":0,"walkAnime":true}],"x":18,"y":7},
{"id":25,"name":"villager Generated","note":"Generated by add_npc.py v0.1","pages":[{"conditions":{"actorId":1,"actorValid":false,"itemId":1,"itemValid":false,"selfSwitchCh":"A","selfSwitchValid":false,"switch1Id":1,"switch1Valid":false,"switch2Id":1,"switch2Valid":false,"variableId":1,"variableValid":false,"variableValue":0},"directionFix":false,"image":{"tileId":0,"characterName":"People1","direction":2,"pattern":1,"characterIndex":7},"list":[{"code":101,"indent":0,"parameters":["People1",7,0,2,"Villager"]},{"code":401,"indent":0,"parameters":["QuickSilver's lair in the Crystal Tunnel"]},{"code":401,"indent":0,"parameters":["feels like an impenetrable fortress. It's"]},{"code":401,"indent":0,"parameters":["a daunting challenge."]},{"code":0,"indent":0,"parameters":[]}],"moveFrequency":3,"moveRoute":{"list":[{"code":0,"parameters":[]}],"repeat":true,"skippable":false,"wait":false},"moveSpeed":2,"moveType":1,"priorityType":1,"stepAnime":false,"through":false,"trigger":0,"walkAnime":true}],"x":8,"y":23},
{"id":26,"name":"villager Generated","note":"Generated by add_npc.py v0.1","pages":[{"conditions":{"actorId":1,"actorValid":false,"itemId":1,"itemValid":false,"selfSwitchCh":"A","selfSwitchValid":false,"switch1Id":1,"switch1Valid":false,"switch2Id":1,"switch2Valid":false,"variableId":1,"variableValid":false,"variableValue":0},"directionFix":false,"image":{"tileId":0,"characterName":"People1","direction":2,"pattern":1,"characterIndex":5},"list":[{"code":101,"indent":0,"parameters":["People1",5,0,2,"Villager"]},{"code":401,"indent":0,"parameters":["We used to receive exotic spices, fabrics,"]},{"code":401,"indent":0,"parameters":["and treasures from the continent. Oh, how"]},{"code":401,"indent":0,"parameters":["I miss those days."]},{"code":0,"indent":0,"parameters":[]}],"moveFrequency":3,"moveRoute":{"list":[{"code":0,"parameters":[]}],"repeat":true,"skippable":false,"wait":false},"moveSpeed":3,"moveType":1,"priorityType":1,"stepAnime":false,"through":false,"trigger":0,"walkAnime":true}],"x":11,"y":25},
{"id":27,"name":"villager Generated","note":"Generated by add_npc.py v0.1","pages":[{"conditions":{"actorId":1,"actorValid":false,"itemId":1,"itemValid":false,"selfSwitchCh":"A","selfSwitchValid":false,"switch1Id":1,"switch1Valid":false,"switch2Id":1,"switch2Valid":false,"variableId":1,"variableValid":false,"variableValue":0},"directionFix":false,"image":{"tileId":0,"characterName":"People1","direction":2,"pattern":1,"characterIndex":2},"list":[{"code":101,"indent":0,"parameters":["People1",2,0,2,"Villager"]},{"code":401,"indent":0,"parameters":["I fear the day when our supplies run dry."]},{"code":401,"indent":0,"parameters":["We must find a way to reclaim the Crystal"]},{"code":401,"indent":0,"parameters":["Tunnel."]},{"code":0,"indent":0,"parameters":[]}],"moveFrequency":3,"moveRoute":{"list":[{"code":0,"parameters":[]}],"repeat":true,"skippable":false,"wait":false},"moveSpeed":3,"moveType":1,"priorityType":1,"stepAnime":false,"through":false,"trigger":0,"walkAnime":true}],"x":13,"y":24},
{"id":28,"name":"villager Generated","note":"Generated by add_npc.py v0.1","pages":[{"conditions":{"actorId":1,"actorValid":false,"itemId":1,"itemValid":false,"selfSwitchCh":"A","selfSwitchValid":false,"switch1Id":1,"switch1Valid":false,"switch2Id":1,"switch2Valid":false,"variableId":1,"variableValid":false,"variableValue":0},"directionFix":false,"image":{"tileId":0,"characterName":"People1","direction":2,"pattern":1,"characterIndex":4},"list":[{"code":101,"indent":0,"parameters":["People1",4,0,2,"Villager"]},{"code":401,"indent":0,"parameters":["Kasey's disappearance weighs heavily on"]},{"code":401,"indent":0,"parameters":["our hearts. We must not lose hope in her"]},{"code":401,"indent":0,"parameters":["abilities."]},{"code":0,"indent":0,"parameters":[]}],"moveFrequency":3,"moveRoute":{"list":[{"code":0,"parameters":[]}],"repeat":true,"skippable":false,"wait":false},"moveSpeed":2,"moveType":1,"priorityType":1,"stepAnime":false,"through":false,"trigger":0,"walkAnime":true}],"x":11,"y":8},
{"id":29,"name":"villager Generated","note":"Generated by add_npc.py v0.1","pages":[{"conditions":{"actorId":1,"actorValid":false,"itemId":1,"itemValid":false,"selfSwitchCh":"A","selfSwitchValid":false,"switch1Id":1,"switch1Valid":false,"switch2Id":1,"switch2Valid":false,"variableId":1,"variableValid":false,"variableValue":0},"directionFix":false,"image":{"tileId":0,"characterName":"People1","direction":2,"pattern":1,"characterIndex":4},"list":[{"code":101,"indent":0,"parameters":["People1",4,0,2,"Villager"]},{"code":401,"indent":0,"parameters":["Trade has shaped our village's identity."]},{"code":401,"indent":0,"parameters":["We've learned to adapt and thrive despite"]},{"code":401,"indent":0,"parameters":["the challenges we face."]},{"code":0,"indent":0,"parameters":[]}],"moveFrequency":3,"moveRoute":{"list":[{"code":0,"parameters":[]}],"repeat":true,"skippable":false,"wait":false},"moveSpeed":2,"moveType":1,"priorityType":1,"stepAnime":false,"through":false,"trigger":0,"walkAnime":true}],"x":6,"y":12},
{"id":30,"name":"villager Generated","note":"Generated by add_npc.py v0.1","pages":[{"conditions":{"actorId":1,"actorValid":false,"itemId":1,"itemValid":false,"selfSwitchCh":"A","selfSwitchValid":false,"switch1Id":1,"switch1Valid":false,"switch2Id":1,"switch2Valid":false,"variableId":1,"variableValid":false,"variableValue":0},"directionFix":false,"image":{"tileId":0,"characterName":"People1","direction":2,"pattern":1,"characterIndex":5},"list":[{"code":101,"indent":0,"parameters":["People1",5,0,2,"Villager"]},{"code":401,"indent":0,"parameters":["I often wonder if there's a way to"]},{"code":401,"indent":0,"parameters":["negotiate with QuickSilver, to find a"]},{"code":401,"indent":0,"parameters":["peaceful resolution."]},{"code":0,"indent":0,"parameters":[]}],"moveFrequency":3,"moveRoute":{"list":[{"code":0,"parameters":[]}],"repeat":true,"skippable":false,"wait":false},"moveSpeed":2,"moveType":1,"priorityType":1,"stepAnime":false,"through":false,"trigger":0,"walkAnime":true}],"x":13,"y":9},
{"id":31,"name":"villager Generated","note":"Generated by add_npc.py v0.1","pages":[{"conditions":{"actorId":1,"actorValid":false,"itemId":1,"itemValid":false,"selfSwitchCh":"A","selfSwitchValid":false,"switch1Id":1,"switch1Valid":false,"switch2Id":1,"switch2Valid":false,"variableId":1,"variableValid":false,"variableValue":0},"directionFix":false,"image":{"tileId":0,"characterName":"People1","direction":2,"pattern":1,"characterIndex":2},"list":[{"code":101,"indent":0,"parameters":["People1",2,0,2,"Villager"]},{"code":401,"indent":0,"parameters":["The Crystal Tunnel's closure has disrupted"]},{"code":401,"indent":0,"parameters":["the village's rhythm. We yearn for the"]},{"code":401,"indent":0,"parameters":["restoration of our trade routes."]},{"code":0,"indent":0,"parameters":[]}],"moveFrequency":3,"moveRoute":{"list":[{"code":0,"parameters":[]}],"repeat":true,"skippable":false,"wait":false},"moveSpeed":2,"moveType":1,"priorityType":1,"stepAnime":false,"through":false,"trigger":0,"walkAnime":true}],"x":11,"y":9},
{"id":32,"name":"villager Generated","note":"Generated by add_npc.py v0.1","pages":[{"conditions":{"actorId":1,"actorValid":false,"itemId":1,"itemValid":false,"selfSwitchCh":"A","selfSwitchValid":false,"switch1Id":1,"switch1Valid":false,"switch2Id":1,"switch2Valid":false,"variableId":1,"variableValid":false,"variableValue":0},"directionFix":false,"image":{"tileId":0,"characterName":"People1","direction":2,"pattern":1,"characterIndex":7},"list":[{"code":101,"indent":0,"parameters":["People1",7,0,2,"Villager"]},{"code":401,"indent":0,"parameters":["Before Malachi's attack, Crystal Village"]},{"code":401,"indent":0,"parameters":["was a beacon of commerce and prosperity."]},{"code":401,"indent":0,"parameters":["We'll rebuild it once again."]},{"code":0,"indent":0,"parameters":[]}],"moveFrequency":3,"moveRoute":{"list":[{"code":0,"parameters":[]}],"repeat":true,"skippable":false,"wait":false},"moveSpeed":3,"moveType":1,"priorityType":1,"stepAnime":false,"through":false,"trigger":0,"walkAnime":true}],"x":11,"y":21},
{"id":33,"name":"villager Generated","note":"Generated by add_npc.py v0.1","pages":[{"conditions":{"actorId":1,"actorValid":false,"itemId":1,"itemValid":false,"selfSwitchCh":"A","selfSwitchValid":false,"switch1Id":1,"switch1Valid":false,"switch2Id":1,"switch2Valid":false,"variableId":1,"variableValid":false,"variableValue":0},"directionFix":false,"image":{"tileId":0,"characterName":"People1","direction":2,"pattern":1,"characterIndex":1},"list":[{"code":101,"indent":0,"parameters":["People1",1,0,2,"Villager"]},{"code":401,"indent":0,"parameters":["Kasey's magic was our only hope against"]},{"code":401,"indent":0,"parameters":["QuickSilver's crystal powers. Her bravery"]},{"code":401,"indent":0,"parameters":["deserves our admiration."]},{"code":0,"indent":0,"parameters":[]}],"moveFrequency":3,"moveRoute":{"list":[{"code":0,"parameters":[]}],"repeat":true,"skippable":false,"wait":false},"moveSpeed":3,"moveType":1,"priorityType":1,"stepAnime":false,"through":false,"trigger":0,"walkAnime":true}],"x":13,"y":12},
{"id":34,"name":"villager Generated","note":"Generated by add_npc.py v0.1","pages":[{"conditions":{"actorId":1,"actorValid":false,"itemId":1,"itemValid":false,"selfSwitchCh":"A","selfSwitchValid":false,"switch1Id":1,"switch1Valid":false,"switch2Id":1,"switch2Valid":false,"variableId":1,"variableValid":false,"variableValue":0},"directionFix":false,"image":{"tileId":0,"characterName":"People1","direction":2,"pattern":1,"characterIndex":2},"list":[{"code":101,"indent":0,"parameters":["People1",2,0,2,"Villager"]},{"code":401,"indent":0,"parameters":["The Crystal Tunnel holds countless"]},{"code":401,"indent":0,"parameters":["memories of trade and camaraderie. We must"]},{"code":401,"indent":0,"parameters":["reclaim it from QuickSilver's grasp."]},{"code":0,"indent":0,"parameters":[]}],"moveFrequency":3,"moveRoute":{"list":[{"code":0,"parameters":[]}],"repeat":true,"skippable":false,"wait":false},"moveSpeed":3,"moveType":1,"priorityType":1,"stepAnime":false,"through":false,"trigger":0,"walkAnime":true}],"x":15,"y":21},
{"id":35,"name":"villager Generated","note":"Generated by add_npc.py v0.1","pages":[{"conditions":{"actorId":1,"actorValid":false,"itemId":1,"itemValid":false,"selfSwitchCh":"A","selfSwitchValid":false,"switch1Id":1,"switch1Valid":false,"switch2Id":1,"switch2Valid":false,"variableId":1,"variableValid":false,"variableValue":0},"directionFix":false,"image":{"tileId":0,"characterName":"People1","direction":2,"pattern":1,"characterIndex":1},"list":[{"code":101,"indent":0,"parameters":["People1",1,0,2,"Villager"]},{"code":401,"indent":0,"parameters":["Our lives revolve around waiting for news"]},{"code":401,"indent":0,"parameters":["of Kasey's progress. Her return would"]},{"code":401,"indent":0,"parameters":["bring renewed hope."]},{"code":0,"indent":0,"parameters":[]}],"moveFrequency":3,"moveRoute":{"list":[{"code":0,"parameters":[]}],"repeat":true,"skippable":false,"wait":false},"moveSpeed":3,"moveType":1,"priorityType":1,"stepAnime":false,"through":false,"trigger":0,"walkAnime":true}],"x":12,"y":17},
{"id":36,"name":"villager Generated","note":"Generated by add_npc.py v0.1","pages":[{"conditions":{"actorId":1,"actorValid":false,"itemId":1,"itemValid":false,"selfSwitchCh":"A","selfSwitchValid":false,"switch1Id":1,"switch1Valid":false,"switch2Id":1,"switch2Valid":false,"variableId":1,"variableValid":false,"variableValue":0},"directionFix":false,"image":{"tileId":0,"characterName":"People1","direction":2,"pattern":1,"characterIndex":6},"list":[{"code":101,"indent":0,"parameters":["People1",6,0,2,"Villager"]},{"code":401,"indent":0,"parameters":["Trade connects us with distant lands,"]},{"code":401,"indent":0,"parameters":["cultures, and opportunities. It's the"]},{"code":401,"indent":0,"parameters":["essence of Crystal Village."]},{"code":0,"indent":0,"parameters":[]}],"moveFrequency":3,"moveRoute":{"list":[{"code":0,"parameters":[]}],"repeat":true,"skippable":false,"wait":false},"moveSpeed":2,"moveType":1,"priorityType":1,"stepAnime":false,"through":false,"trigger":0,"walkAnime":true}],"x":12,"y":15},
{"id":37,"name":"villager Generated","note":"Generated by add_npc.py v0.1","pages":[{"conditions":{"actorId":1,"actorValid":false,"itemId":1,"itemValid":false,"selfSwitchCh":"A","selfSwitchValid":false,"switch1Id":1,"switch1Valid":false,"switch2Id":1,"switch2Valid":false,"variableId":1,"variableValid":false,"variableValue":0},"directionFix":false,"image":{"tileId":0,"characterName":"People1","direction":2,"pattern":1,"characterIndex":7},"list":[{"code":101,"indent":0,"parameters":["People1",7,0,2,"Villager"]},{"code":401,"indent":0,"parameters":["QuickSilver's presence has disrupted the"]},{"code":401,"indent":0,"parameters":["delicate balance of trade. We must find a"]},{"code":401,"indent":0,"parameters":["way to drive it away."]},{"code":0,"indent":0,"parameters":[]}],"moveFrequency":3,"moveRoute":{"list":[{"code":0,"parameters":[]}],"repeat":true,"skippable":false,"wait":false},"moveSpeed":2,"moveType":1,"priorityType":1,"stepAnime":false,"through":false,"trigger":0,"walkAnime":true}],"x":5,"y":19},
{"id":38,"name":"villager Generated","note":"Generated by add_npc.py v0.1","pages":[{"conditions":{"actorId":1,"actorValid":false,"itemId":1,"itemValid":false,"selfSwitchCh":"A","selfSwitchValid":false,"switch1Id":1,"switch1Valid":false,"switch2Id":1,"switch2Valid":false,"variableId":1,"variableValid":false,"variableValue":0},"directionFix":false,"image":{"tileId":0,"characterName":"People1","direction":2,"pattern":1,"characterIndex":7},"list":[{"code":101,"indent":0,"parameters":["People1",7,0,2,"Villager"]},{"code":401,"indent":0,"parameters":["We've lost so much since QuickSilver"]},{"code":401,"indent":0,"parameters":["claimed the Crystal Tunnel. It's time to"]},{"code":401,"indent":0,"parameters":["reclaim what's rightfully ours."]},{"code":0,"indent":0,"parameters":[]}],"moveFrequency":3,"moveRoute":{"list":[{"code":0,"parameters":[]}],"repeat":true,"skippable":false,"wait":false},"moveSpeed":2,"moveType":1,"priorityType":1,"stepAnime":false,"through":false,"trigger":0,"walkAnime":true}],"x":3,"y":16},
{"id":39,"name":"villager Generated","note":"Generated by add_npc.py v0.1","pages":[{"conditions":{"actorId":1,"actorValid":false,"itemId":1,"itemValid":false,"selfSwitchCh":"A","selfSwitchValid":false,"switch1Id":1,"switch1Valid":false,"switch2Id":1,"switch2Valid":false,"variableId":1,"variableValid":false,"variableValue":0},"directionFix":false,"image":{"tileId":0,"characterName":"People1","direction":2,"pattern":1,"characterIndex":2},"list":[{"code":101,"indent":0,"parameters":["People1",2,0,2,"Villager"]},{"code":401,"indent":0,"parameters":["Can you fight, travelers? If so, please"]},{"code":401,"indent":0,"parameters":["help us fight QuickSilver!"]},{"code":0,"indent":0,"parameters":[]}],"moveFrequency":3,"moveRoute":{"list":[{"code":0,"parameters":[]}],"repeat":true,"skippable":false,"wait":false},"moveSpeed":3,"moveType":1,"priorityType":1,"stepAnime":false,"through":false,"trigger":0,"walkAnime":true}],"x":10,"y":23},
{"id":40,"name":"villager Generated","note":"Generated by add_npc.py v0.1","pages":[{"conditions":{"actorId":1,"actorValid":false,"itemId":1,"itemValid":false,"selfSwitchCh":"A","selfSwitchValid":false,"switch1Id":1,"switch1Valid":false,"switch2Id":1,"switch2Valid":false,"variableId":1,"variableValid":false,"variableValue":0},"directionFix":false,"image":{"tileId":0,"characterName":"People1","direction":2,"pattern":1,"characterIndex":7},"list":[{"code":101,"indent":0,"parameters":["People1",7,0,2,"Villager"]},{"code":401,"indent":0,"parameters":["In the village's history, the Crystal"]},{"code":401,"indent":0,"parameters":["Tunnel played a pivotal role in our growth"]},{"code":401,"indent":0,"parameters":["and prosperity."]},{"code":0,"indent":0,"parameters":[]}],"moveFrequency":3,"moveRoute":{"list":[{"code":0,"parameters":[]}],"repeat":true,"skippable":false,"wait":false},"moveSpeed":2,"moveType":1,"priorityType":1,"stepAnime":false,"through":false,"trigger":0,"walkAnime":true}],"x":13,"y":12},
{"id":41,"name":"villager Generated","note":"Generated by add_npc.py v0.1","pages":[{"conditions":{"actorId":1,"actorValid":false,"itemId":1,"itemValid":false,"selfSwitchCh":"A","selfSwitchValid":false,"switch1Id":1,"switch1Valid":false,"switch2Id":1,"switch2Valid":false,"variableId":1,"variableValid":false,"variableValue":0},"directionFix":false,"image":{"tileId":0,"characterName":"People1","direction":2,"pattern":1,"characterIndex":6},"list":[{"code":101,"indent":0,"parameters":["People1",6,0,2,"Villager"]},{"code":401,"indent":0,"parameters":["Crystal Village was an old city remain"]},{"code":401,"indent":0,"parameters":["today. Is it interesting?"]},{"code":0,"indent":0,"parameters":[]}],"moveFrequency":3,"moveRoute":{"list":[{"code":0,"parameters":[]}],"repeat":true,"skippable":false,"wait":false},"moveSpeed":2,"moveType":1,"priorityType":1,"stepAnime":false,"through":false,"trigger":0,"walkAnime":true}],"x":11,"y":8},
{"id":42,"name":"villager Generated","note":"Generated by add_npc.py v0.1","pages":[{"conditions":{"actorId":1,"actorValid":false,"itemId":1,"itemValid":false,"selfSwitchCh":"A","selfSwitchValid":false,"switch1Id":1,"switch1Valid":false,"switch2Id":1,"switch2Valid":false,"variableId":1,"variableValid":false,"variableValue":0},"directionFix":false,"image":{"tileId":0,"characterName":"People1","direction":2,"pattern":1,"characterIndex":1},"list":[{"code":101,"indent":0,"parameters":["People1",1,0,2,"Villager"]},{"code":401,"indent":0,"parameters":["I remember when the Crystal Tunnel was"]},{"code":401,"indent":0,"parameters":["vibrant, echoing with the laughter of"]},{"code":401,"indent":0,"parameters":["traders. It feels like a dream now."]},{"code":0,"indent":0,"parameters":[]}],"moveFrequency":3,"moveRoute":{"list":[{"code":0,"parameters":[]}],"repeat":true,"skippable":false,"wait":false},"moveSpeed":2,"moveType":1,"priorityType":1,"stepAnime":false,"through":false,"trigger":0,"walkAnime":true}],"x":5,"y":21},
{"id":43,"name":"villager Generated","note":"Generated by add_npc.py v0.1","pages":[{"conditions":{"actorId":1,"actorValid":false,"itemId":1,"itemValid":false,"selfSwitchCh":"A","selfSwitchValid":false,"switch1Id":1,"switch1Valid":false,"switch2Id":1,"switch2Valid":false,"variableId":1,"variableValid":false,"variableValue":0},"directionFix":false,"image":{"tileId":0,"characterName":"People1","direction":2,"pattern":1,"characterIndex":1},"list":[{"code":101,"indent":0,"parameters":["People1",1,0,2,"Villager"]},{"code":401,"indent":0,"parameters":["Kasey's journey into the Crystal Tunnel is"]},{"code":401,"indent":0,"parameters":["fraught with danger. We pray for her"]},{"code":401,"indent":0,"parameters":["safety and success."]},{"code":0,"indent":0,"parameters":[]}],"moveFrequency":3,"moveRoute":{"list":[{"code":0,"parameters":[]}],"repeat":true,"skippable":false,"wait":false},"moveSpeed":2,"moveType":1,"priorityType":1,"stepAnime":false,"through":false,"trigger":0,"walkAnime":true}],"x":7,"y":14},
{"id":44,"name":"villager Generated","note":"Generated by add_npc.py v0.1","pages":[{"conditions":{"actorId":1,"actorValid":false,"itemId":1,"itemValid":false,"selfSwitchCh":"A","selfSwitchValid":false,"switch1Id":1,"switch1Valid":false,"switch2Id":1,"switch2Valid":false,"variableId":1,"variableValid":false,"variableValue":0},"directionFix":false,"image":{"tileId":0,"characterName":"People1","direction":2,"pattern":1,"characterIndex":4},"list":[{"code":101,"indent":0,"parameters":["People1",4,0,2,"Villager"]},{"code":401,"indent":0,"parameters":["We must unite and find a way to reclaim"]},{"code":401,"indent":0,"parameters":["the Crystal Tunnel. Our village's survival"]},{"code":401,"indent":0,"parameters":["depends on it."]},{"code":0,"indent":0,"parameters":[]}],"moveFrequency":3,"moveRoute":{"list":[{"code":0,"parameters":[]}],"repeat":true,"skippable":false,"wait":false},"moveSpeed":2,"moveType":1,"priorityType":1,"stepAnime":false,"through":false,"trigger":0,"walkAnime":true}],"x":11,"y":21},
{"id":45,"name":"villager Generated","note":"Generated by add_npc.py v0.1","pages":[{"conditions":{"actorId":1,"actorValid":false,"itemId":1,"itemValid":false,"selfSwitchCh":"A","selfSwitchValid":false,"switch1Id":1,"switch1Valid":false,"switch2Id":1,"switch2Valid":false,"variableId":1,"variableValid":false,"variableValue":0},"directionFix":false,"image":{"tileId":0,"characterName":"People1","direction":2,"pattern":1,"characterIndex":5},"list":[{"code":101,"indent":0,"parameters":["People1",5,0,2,"Villager"]},{"code":401,"indent":0,"parameters":["The Crystal Tunnel's closure has cut us"]},{"code":401,"indent":0,"parameters":["off from the mainland. It's a challenge we"]},{"code":401,"indent":0,"parameters":["must overcome together."]},{"code":0,"indent":0,"parameters":[]}],"moveFrequency":3,"moveRoute":{"list":[{"code":0,"parameters":[]}],"repeat":true,"skippable":false,"wait":false},"moveSpeed":3,"moveType":1,"priorityType":1,"stepAnime":false,"through":false,"trigger":0,"walkAnime":true}],"x":13,"y":8},
{"id":46,"name":"villager Generated","note":"Generated by add_npc.py v0.1","pages":[{"conditions":{"actorId":1,"actorValid":false,"itemId":1,"itemValid":false,"selfSwitchCh":"A","selfSwitchValid":false,"switch1Id":1,"switch1Valid":false,"switch2Id":1,"switch2Valid":false,"variableId":1,"variableValid":false,"variableValue":0},"directionFix":false,"image":{"tileId":0,"characterName":"People1","direction":2,"pattern":1,"characterIndex":4},"list":[{"code":101,"indent":0,"parameters":["People1",4,0,2,"Villager"]},{"code":401,"indent":0,"parameters":["QuickSilver's arrival changed everything."]},{"code":401,"indent":0,"parameters":["Our peaceful village turned into a"]},{"code":401,"indent":0,"parameters":["battleground for survival."]},{"code":0,"indent":0,"parameters":[]}],"moveFrequency":3,"moveRoute":{"list":[{"code":0,"parameters":[]}],"repeat":true,"skippable":false,"wait":false},"moveSpeed":2,"moveType":1,"priorityType":1,"stepAnime":false,"through":false,"trigger":0,"walkAnime":true}],"x":16,"y":18},
{"id":47,"name":"villager Generated","note":"Generated by add_npc.py v0.1","pages":[{"conditions":{"actorId":1,"actorValid":false,"itemId":1,"itemValid":false,"selfSwitchCh":"A","selfSwitchValid":false,"switch1Id":1,"switch1Valid":false,"switch2Id":1,"switch2Valid":false,"variableId":1,"variableValid":false,"variableValue":0},"directionFix":false,"image":{"tileId":0,"characterName":"People1","direction":2,"pattern":1,"characterIndex":3},"list":[{"code":101,"indent":0,"parameters":["People1",3,0,2,"Villager"]},{"code":401,"indent":0,"parameters":["Kasey's disappearance has left a void in"]},{"code":401,"indent":0,"parameters":["our hearts. We'll keep her spirit alive"]},{"code":401,"indent":0,"parameters":["until she returns."]},{"code":0,"indent":0,"parameters":[]}],"moveFrequency":3,"moveRoute":{"list":[{"code":0,"parameters":[]}],"repeat":true,"skippable":false,"wait":false},"moveSpeed":3,"moveType":1,"priorityType":1,"stepAnime":false,"through":false,"trigger":0,"walkAnime":true}],"x":12,"y":7}
]
}