{
"autoplayBgm":true,"autoplayBgs":false,"battleback1Name":"","battleback2Name":"","bgm":{"name":"FF4/06 Welcome to Our Town!","pan":0,"pitch":100,"volume":90},"bgs":{"name":"","pan":0,"pitch":100,"volume":90},"disableDashing":false,"displayName":"","encounterList":[],"encounterStep":30,"height":60,"note":"","parallaxLoopX":false,"parallaxLoopY":false,"parallaxName":"","parallaxShow":true,"parallaxSx":0,"parallaxSy":0,"scrollType":0,"specifyBattleback":false,"tilesetId":2,"width":50,
"data":[2816,2816,2816,2816,2816,2816,2816,2816,2816,2816,2816,2816,2816,2816,2816,2816,2816,2816,2816,2816,2816,2816,2816,2816,2816,2816,2816,2816,2816,2816,2816,2816,2816,2816,2816,2816,2816,2816,2816,2816,2816,2816,2816,2816,2816,2816,2816,2816,2816,2816,2816,2820,2844,2844,2844,2844,2844,2844,2844,2828,2844,2844,2844,2844,2844,2844,2844,2828,2844,2844,2844,2844,2844,2844,2844,2824,2816,2816,2816,2816,2816,2816,2816,2816,2816,2820,2844,2844,2844,2844,2844,2844,2844,2844,2844,2844,2844,2844,2824,2816,2816,2840,2898,2884,2884,2884,2884,2884,2900,2848,2898,2884,2884,2884,2884,2884,2900,2848,2898,2884,2884,2884,2884,2884,2900,2834,2844,2844,2844,2828,2844,2844,2824,2816,2816,2840,2898,2884,2884,2884,2884,2884,2884,2884,2884,2884,2884,2900,2832,2816,2816,2840,2880,2864,2864,2864,2864,2864,2888,2848,2880,2864,2864,2864,2864,2864,2888,2848,2880,2864,2864,2864,2864,2864,2888,2848,4643,4642,4646,2848,2898,2900,2832,2816,2816,2840,2880,2864,2864,2864,2864,2864,2864,2864,2864,2864,2864,2888,2832,2816,2816,2840,2880,2864,2864,2864,2864,2864,2888,2848,2880,2864,2864,2864,2864,2864,2888,2848,2880,2864,2864,2864,2864,2864,2888,2848,4649,4648,4652,2848,2880,2888,2832,2816,2816,2840,2880,2864,2864,2864,2864,2864,2864,2864,2864,2864,2864,2888,2832,2816,2816,2840,2880,2864,2864,2864,2864,2864,2888,2848,2880,2864,2864,2864,2864,2864,2888,2848,2880,2864,2864,2864,2864,2864,2888,2848,5035,5034,5038,2848,2880,2888,2832,2816,2816,2840,2880,2864,2864,2864,2864,2864,2864,2864,2864,2864,2864,2888,2832,2816,2816,2840,2880,2864,2864,2864,2864,2864,2888,2848,2880,2864,2864,2864,2864,2864,2888,2848,2880,2864,2864,2864,2864,2864,2888,2833,2852,2906,2859,2855,2880,2888,2832,2816,2816,2840,2880,2864,2864,2864,2864,2864,2864,2864,2864,2864,2864,2888,2832,2816,2816,2840,2880,2864,2864,2864,2864,2864,2888,2848,2880,2864,2864,2864,2864,2864,2888,2848,2880,2864,2864,2864,2864,2864,2888,2832,2840,2905,2897,2886,2869,2902,2832,2816,2816,2840,2880,2864,2864,2864,2864,2864,2864,2864,2864,2864,2864,2888,2832,2816,2816,2840,2880,2864,2864,2864,2864,2864,2888,2848,2880,2864,2864,2864,2864,2864,2888,2848,2880,2864,2864,2864,2864,2864,2888,2832,2818,2836,2852,2880,2888,2850,2817,2816,2816,2840,2880,2864,2864,2864,2864,2864,2864,2864,2864,2864,2864,2888,2832,2816,2816,2840,2880,2864,2864,2864,2864,2864,2888,2848,2880,2864,2864,2864,2864,2864,2888,2848,2880,2864,2864,2864,2864,2864,2888,2832,2816,2816,2840,2880,2888,2832,2816,2816,2816,2840,2880,2864,2864,2864,2864,2864,2864,2864,2864,2864,2864,2888,2832,2816,2816,2840,2904,2892,2892,2892,2892,2892,2902,2848,2904,2892,2892,2892,2892,2892,2902,2848,2904,2892,2892,2892,2892,2892,2902,2856,2844,2844,2854,2882,2902,2832,2816,2816,2816,2840,2904,2892,2892,2892,2892,2892,2892,2892,2876,2892,2892,2902,2832,2816,2816,2822,2849,2849,2849,2849,2849,2849,2849,2831,2849,2849,2849,2849,2849,2849,2849,2831,2849,2849,2849,2849,2849,2849,2861,2907,2897,2897,2897,2891,2850,2821,2844,2844,2844,2846,2849,2849,2849,2849,2849,2849,2849,2861,2896,2850,2836,2836,2817,2816,2816,2840,2898,2884,2884,2884,2884,2884,2900,2848,2898,2884,2884,2884,2884,2884,2900,2848,2898,2884,2884,2884,2884,2884,2900,2850,2836,2836,2852,2896,2856,2854,2899,2897,2897,2897,2897,2897,2897,2897,2897,2897,2897,2897,2891,2856,2844,2844,2824,2816,2816,2840,2880,2864,2864,2864,2864,2864,2888,2848,2880,2864,2864,2864,2864,2864,2888,2848,2880,2864,2864,2864,2864,2864,2888,2832,2816,2816,2840,2881,2885,2897,2903,2850,2836,2852,4643,4651,4650,4650,4650,4650,4650,4654,2896,4651,4654,4646,2832,2816,2816,2840,2880,2864,2864,2864,2864,2864,2888,2848,2880,2864,2864,2864,2864,2864,2888,2848,2880,2864,2864,2864,2864,2864,2888,2832,2816,2816,2840,2904,2889,2850,2836,2817,2816,2840,4645,5034,5034,5034,5034,5034,5034,5038,2896,5035,5034,4645,2832,2816,2816,2840,2880,2864,2864,2864,2864,2864,2888,2848,2880,2864,2864,2864,2864,2864,2888,2848,2880,2864,2864,2864,2864,2864,2888,2832,2816,2816,2818,2852,2896,2856,2824,2816,2816,2840,4645,2898,2884,2884,2884,2884,2884,2884,2867,2884,2900,4645,2832,2816,2816,2840,2880,2864,2864,2864,2864,2864,2888,2848,2880,2864,2864,2864,2864,2864,2888,2848,2880,2864,2864,2864,2864,2864,2888,2832,2816,2816,2820,2854,2883,2909,2832,2816,2816,2840,4645,2880,2864,2864,2864,2864,2864,2864,2864,2864,2888,4645,2832,2816,2816,2840,2880,2864,2864,2864,2864,2864,2888,2848,2880,2864,2864,2864,2864,2864,2888,2848,2880,2864,2864,2864,2864,2864,2888,2832,2816,2816,2840,2898,2890,2850,2817,2816,2816,2840,4645,2880,2864,2864,2864,2864,2864,2864,2864,2864,2888,4645,2832,2816,2816,2840,2880,2864,2864,2864,2864,2864,2888,2848,2880,2864,2864,2864,2864,2864,2888,2848,2880,2864,2864,2864,2864,2864,2888,2832,2816,2816,2840,2880,2888,2832,2816,2816,2816,2840,4645,2880,2864,2864,2864,2864,2864,2864,2864,2864,2888,4645,2832,2816,2816,2840,2880,2864,2864,2864,2864,2864,2888,2848,2880,2864,2864,2864,2864,2864,2888,2848,2880,2864,2864,2864,2864,2864,2888,2832,2816,2816,2840,2880,2888,2832,2816,2816,2816,2840,4645,2904,2892,2892,2892,2892,2892,2892,2892,2892,2902,4645,2832,2816,2816,2840,2904,2892,2892,2892,2892,2892,2902,2848,2904,2892,2892,2892,2892,2892,2902,2848,2904,2892,2892,2892,2892,2892,2902,2832,2816,2816,2840,2882,2902,2832,2816,2816,2816,2840,4649,4651,4650,4650,4650,4650,4650,4650,4650,4650,4654,4652,2832,2816,2816,2818,2836,2836,2836,2836,2836,2836,2836,2819,2836,2836,2836,2836,2836,2836,2836,2819,2836,2836,2836,2836,2836,2836,2836,2817,2816,2816,2840,2896,2850,2817,2816,2816,2816,2840,5035,5034,5034,5034,5034,5034,5034,5034,5034,5034,5034,5038,2832,2816,2816,2816,2816,2816,2816,2816,2816,2816,2816,2816,2816,2816,2816,2816,2816,2816,2816,2816,2816,2820,2844,2844,2844,2844,2844,2844,2844,2844,2841,2896,2856,2844,2844,2824,2816,2818,2836,2836,2836,2836,2836,2836,2836,2836,2836,2836,2836,2836,2817,2816,2816,2816,2816,2816,2820,2844,2844,2844,2824,2816,2816,2816,2816,2816,2816,2816,2816,2816,2816,2840,2899,2897,2897,2897,2887,2897,2897,2901,2860,2883,2897,2886,2900,2832,2816,2816,2816,2816,2816,2816,2816,2816,2816,2816,2816,2816,2816,2816,2816,2816,2816,2816,2816,2816,2840,4459,4458,4462,2832,2816,2816,2816,2816,2816,2816,2820,2844,2844,2844,2854,2896,2850,2836,2852,2896,2850,2852,2905,2897,2903,2858,2880,2888,2856,2844,2824,2816,2816,2816,2820,2844,2844,2844,2844,2824,2816,2816,2816,2816,2816,2816,2816,2816,2816,2840,4843,4842,4846,2856,2844,2844,2844,2844,2844,2844,2854,2899,2897,2897,2897,2903,2832,2816,2840,2896,2832,2818,2836,2836,2836,2842,2904,2878,2897,2901,2856,2844,2824,2816,2840,4555,4554,4554,4558,2832,2816,2816,2816,2816,2816,2816,2816,2816,2816,2818,2852,2907,2897,2897,2897,2897,2897,2897,2887,2897,2897,2903,2850,2836,2836,2836,2817,2816,2840,2896,2856,2824,2816,2816,2816,2822,2861,2896,2858,2905,2897,2901,2856,2844,2854,4939,4938,4938,4942,2832,2816,2816,2816,2816,2816,2816,2816,2816,2816,2816,2818,2836,2836,2836,2836,2836,2836,2852,2896,2850,2836,2836,2817,2816,2816,2816,2816,2816,2840,2881,2900,2856,2824,2816,2820,2854,2898,2890,2833,2836,2852,2905,2897,2897,2897,2897,2909,2850,2836,2817,2816,2816,2816,2816,2816,2816,2816,2816,2816,2816,2816,2816,2816,2816,2816,2816,2816,2840,2896,2832,2816,2816,2816,2816,2816,2816,2820,2844,2854,2880,2866,2900,2856,2844,2854,2898,2865,2888,2856,2844,2826,2836,2836,2836,2836,2836,2836,2817,2816,2816,2816,2816,2816,2816,2816,2816,2816,2816,2816,2816,2816,2820,2844,2844,2844,2844,2844,2854,2896,2832,2816,2816,2816,2816,2816,2816,2840,2899,2897,2893,2876,2894,2897,2897,2897,2893,2892,2894,2897,2901,2832,2816,2816,2816,2816,2816,2816,2816,2816,2816,2816,2816,2816,2816,2816,2816,2816,2816,2816,2816,2816,2840,2907,2897,2897,2897,2897,2897,2903,2832,2816,2816,2816,2816,2820,2844,2854,2896,2850,2852,2896,2850,2836,2836,2836,2836,2836,2836,2852,2896,2856,2824,2816,2816,2816,2816,2820,2844,2844,2844,2824,2816,2816,2816,2816,2816,2816,2816,2816,2816,2816,2818,2836,2836,2836,2836,2836,2836,2836,2817,2816,2816,2816,2816,2840,2899,2897,2903,2832,2840,2896,2832,2816,2816,2816,2816,2816,2816,2840,2905,2901,2856,2844,2824,2816,2816,2840,4459,4458,4462,2832,2816,2816,2816,2816,2816,2816,2816,2816,2816,2816,2816,2816,2816,2816,2816,2816,2816,2816,2816,2816,2816,2816,2820,2854,2896,2850,2836,2817,2840,2896,2856,2844,2824,2816,2816,2816,2816,2818,2852,2905,2897,2901,2856,2844,2844,2854,4843,4842,4846,2832,2816,2816,2816,2816,2816,2816,2816,2816,2816,2816,2816,2816,2816,2816,2816,2816,2816,2816,2820,2844,2844,2844,2841,2899,2903,2832,2816,2816,2840,2881,2884,2900,2856,2824,2816,2816,2816,2816,2818,2836,2852,2905,2897,2897,2897,2897,2897,2909,2850,2817,2816,2816,2816,2816,2816,2816,2816,2816,2816,2816,2816,2816,2816,2816,2816,2816,2816,2816,2840,4363,4362,4366,2848,2896,2850,2817,2816,2816,2840,2880,2864,2866,2900,2856,2824,2816,2816,2816,2816,2816,2818,2836,2836,2836,2836,2836,2836,2836,2817,2816,2816,2816,2816,2816,2816,2816,2816,2816,2816,2816,2816,2820,2844,2844,2844,2844,2844,2844,2854,4747,4746,4750,2860,2896,2832,2816,2816,2816,2840,2880,2864,2864,2866,2900,2856,2824,2816,2816,2816,2816,2816,2816,2816,2816,2816,2816,2816,2816,2816,2816,2816,2816,2816,2816,2816,2816,2816,2816,2816,2816,2816,2840,2899,2897,2897,2897,2897,2897,2897,2897,2887,2897,2897,2903,2832,2816,2816,2820,2854,2880,2864,2864,2864,2866,2900,2832,2816,2816,2816,2816,2816,2816,2816,2816,2816,2816,2816,2816,2816,2816,2816,2816,2816,2816,2816,2816,2816,2816,2816,2816,2820,2854,2896,2850,2836,2836,2836,2836,2836,2852,2896,2850,2836,2836,2817,2816,2816,2840,2898,2865,2864,2864,2864,2864,2888,2832,2816,2816,2816,2816,2816,2816,2816,2816,2816,2816,2816,2816,2816,2816,2816,2816,2816,2816,2816,2816,2816,2820,2844,2844,2854,2898,2890,2832,2816,2816,2816,2816,2816,2840,2896,2832,2816,2816,2816,2816,2816,2840,2880,2864,2864,2864,2864,2868,2902,2832,2820,2844,2844,2844,2824,2816,2816,2816,2816,2816,2816,2816,2816,2816,2816,2816,2816,2816,2816,2816,2816,2840,4411,4410,4414,2904,2889,2832,2816,2816,2816,2816,2820,2854,2896,2832,2816,2816,2816,2816,2816,2840,2904,2892,2872,2868,2892,2902,2850,2817,2840,5131,5130,5134,2832,2816,2816,2816,2816,2816,2816,2816,2816,2816,2816,2816,2816,2816,2816,2816,2816,2840,4795,4794,4798,2862,2896,2832,2816,2816,2816,2820,2854,2899,2903,2832,2816,2816,2816,2816,2816,2818,2836,2852,2904,2889,2850,2836,2817,2816,2840,4787,4786,4790,2832,2816,2816,2816,2816,2816,2816,2816,2816,2816,2816,2816,2816,2816,2816,2816,2816,2818,2852,2907,2897,2897,2903,2856,2844,2824,2816,2840,2899,2903,2850,2817,2816,2816,2816,2816,2816,2816,2816,2822,2861,2896,2832,2816,2816,2816,2840,4793,4792,4796,2832,2816,2816,2816,2816,2816,2816,2820,2844,2844,2844,2824,2816,2816,2816,2816,2816,2816,2818,2836,2836,2852,4411,4410,4414,2832,2820,2854,2896,2850,2817,2816,2816,2816,2816,2816,2816,2816,2816,2840,2899,2903,2832,2816,2816,2816,2818,2852,2906,2850,2817,2816,2816,2816,2816,2816,2816,2840,4699,4698,4702,2832,2816,2816,2816,2816,2816,2816,2816,2816,2816,2840,4795,4794,4798,2856,2854,2899,2903,2832,2816,2816,2816,2816,2816,2816,2816,2816,2816,2840,2896,2850,2817,2816,2816,2816,2816,2840,2896,2832,2816,2816,2816,2816,2816,2816,2816,2840,4883,4882,4886,2832,2816,2816,2816,2816,2816,2816,2816,2816,2816,2818,2852,2907,2897,2897,2897,2903,2850,2817,2816,2816,2816,2816,2816,2816,2816,2816,2820,2854,2896,2856,2844,2844,2824,2816,2816,2840,2896,2856,2824,2816,2816,2816,2816,2816,2816,2840,4889,4888,4892,2832,2816,2816,2816,2816,2816,2816,2816,2816,2816,2816,2818,2836,2836,2836,2836,2836,2817,2816,2816,2816,2816,2816,2816,2816,2816,2816,2840,2898,2867,2884,2884,2900,2856,2844,2824,2840,2881,2900,2856,2844,2824,2816,2816,2816,2816,2818,2852,2906,2850,2817,2816,2816,2816,2816,2816,2816,2816,2816,2816,2816,2816,2816,2816,2816,2816,2816,2816,2816,2816,2816,2816,2816,2816,2816,2816,2820,2854,2882,2892,2892,2892,2874,2884,2900,2856,2854,2882,2894,2897,2901,2834,2844,2844,2844,2844,2824,2840,2896,2832,2816,2816,2816,2816,2816,2816,2816,2816,2816,2816,2816,2816,2816,2816,2816,2816,2816,2816,2820,2844,2844,2844,2824,2816,2816,2816,2840,2898,2890,2850,2837,2861,2904,2892,2894,2886,2885,2903,2850,2852,2896,2860,2899,2897,2897,2901,2856,2854,2896,2832,2816,2816,2816,2816,2816,2816,2816,2816,2816,2816,2816,2816,2816,2816,2816,2816,2816,2816,2840,4507,4506,4510,2832,2816,2816,2816,2840,2880,2888,2834,2854,2906,2850,2836,2852,2880,2888,2859,2845,2854,2883,2897,2903,2850,2852,2905,2897,2897,2903,2832,2816,2816,2816,2816,2816,2816,2816,2816,2816,2816,2816,2816,2816,2816,2816,2816,2816,2816,2840,4891,4890,4894,2832,2816,2816,2816,2840,2880,2888,2848,2898,2890,2832,2820,2854,2882,2894,2897,2897,2897,2903,2850,2836,2817,2818,2836,2836,2836,2836,2817,2816,2816,2816,2816,2816,2816,2816,2816,2816,2816,2816,2816,2816,2816,2816,2816,2816,2816,2818,2852,2907,2901,2856,2844,2824,2816,2840,2880,2888,2848,2904,2902,2834,2854,2899,2903,2850,2836,2836,2836,2836,2817,2816,2816,2816,2816,2820,2844,2844,2844,2824,2816,2816,2816,2816,2816,2816,2816,2816,2816,2816,2816,2816,2816,2816,2816,2816,2816,2816,2818,2852,2905,2897,2901,2856,2844,2854,2880,2888,2857,2849,2849,2855,2898,2890,2850,2817,2816,2816,2816,2820,2844,2844,2844,2844,2844,2841,4651,4650,4654,2832,2816,2816,2816,2816,2816,2816,2816,2816,2816,2820,2844,2844,2844,2824,2816,2816,2816,2816,2816,2818,2836,2852,2883,2897,2897,2897,2873,2870,2897,2897,2897,2897,2893,2889,2856,2844,2844,2844,2844,2854,2899,2897,2897,2897,2901,2848,5035,5034,5038,2832,2816,2816,2816,2816,2816,2816,2816,2816,2816,2840,4411,4410,4414,2834,2844,2844,2844,2844,2844,2844,2844,2854,2896,2850,2837,2861,2882,2902,2850,2836,2836,2836,2852,2905,2897,2897,2897,2897,2897,2897,2903,2850,2836,2852,2896,2833,2852,2906,2850,2817,2816,2816,2816,2816,2816,2816,2816,2816,2816,2840,4795,4794,4798,2860,2899,2897,2897,2897,2897,2897,2897,2897,2903,2832,2840,2899,2903,2850,2817,2816,2816,2816,2818,2836,2836,2836,2836,2836,2836,2836,2836,2817,2816,2840,2896,2834,2854,2896,2832,2816,2816,2816,2816,2816,2816,2816,2816,2816,2816,2818,2852,2907,2897,2897,2903,2850,2836,2836,2836,2836,2836,2836,2836,2817,2840,2896,2850,2817,2816,2816,2816,2816,2816,2816,2816,2816,2816,2816,2816,2816,2816,2816,2816,2840,2896,2860,2899,2903,2832,2816,2816,2816,2816,2816,2816,2816,2816,2816,2816,2816,2818,2836,2836,2836,2836,2817,2816,2816,2816,2816,2816,2816,2816,2816,2840,2896,2832,2816,2816,2816,2816,2816,2816,2816,2816,2816,2816,2816,2816,2816,2816,2816,2816,2840,2905,2897,2903,2850,2817,2816,2816,2816,2816,2816,2816,2816,2816,2816,2816,2816,2816,2816,2816,2816,2816,2816,2816,2816,2816,2816,2816,2816,2816,2816,2840,2896,2832,2816,2816,2816,2816,2816,2816,2816,2816,2816,2816,2816,2816,2816,2816,2816,2816,2818,2836,2836,2836,2817,2816,2816,2816,2816,2816,2816,2816,2816,2816,2816,2816,2816,2816,2816,2816,2816,2816,2816,2816,2816,2816,2816,2816,2816,2816,2816,2840,2908,2832,2816,2816,2816,2816,2816,2816,2816,2816,2816,2816,2816,2816,2816,2816,2816,2816,2816,2816,2816,2816,2816,2816,2816,2816,2816,2816,2816,2816,2816,2816,2816,2816,2816,2816,2816,2816,2816,2816,2816,2816,2816,2816,2816,2816,2816,2816,2816,2818,2836,2817,2816,2816,2816,2816,2816,2816,2816,2816,2816,2816,2816,2816,2816,2816,2816,2816,2816,2816,2816,2816,2816,2816,2816,2816,2816,0,0,0,0,0,0,0,0,0,0,0,0,0,0,0,0,0,0,0,0,0,0,0,0,0,0,0,0,0,0,0,0,0,0,0,0,0,0,0,0,0,0,0,0,0,0,0,0,0,0,0,3139,3137,3137,3137,3137,3137,3137,3137,3137,3137,3137,3137,3137,3137,3137,3137,3137,3137,3137,3137,3137,3137,3137,3137,3127,3137,3137,3137,3137,3137,3137,3137,3137,3137,3127,3137,3137,3137,3137,3137,3137,3137,3137,3137,3137,3137,3137,3141,0,0,3136,0,4350,0,0,0,0,0,0,4350,0,0,0,0,0,0,0,0,0,0,0,0,4350,0,3136,3051,3041,3041,3041,3041,3041,3031,3041,3045,3136,0,0,0,0,0,0,0,0,0,0,0,0,3136,0,0,3136,0,0,0,0,0,0,0,0,0,0,4350,0,0,0,0,0,0,0,0,0,0,0,0,3136,0,0,0,0,0,0,3052,0,3040,3136,0,0,0,0,0,0,0,0,0,0,0,0,3136,0,0,3136,0,0,0,0,0,4350,0,0,0,0,0,0,0,0,4350,0,4350,0,0,0,0,0,0,3136,0,0,0,0,0,0,0,3051,3035,3136,0,0,0,0,0,0,0,0,0,0,0,0,3136,0,0,3136,0,0,0,4350,0,0,0,0,0,0,0,0,0,0,0,0,0,0,0,0,4350,0,0,3136,0,0,0,3050,0,0,0,0,3052,3136,0,0,0,0,0,0,0,0,0,0,0,0,3136,0,0,3136,0,0,0,0,0,0,0,0,0,4350,0,0,0,0,0,0,0,0,0,0,0,0,0,3136,0,0,0,3052,0,0,0,0,0,3136,0,0,0,0,0,0,0,0,0,0,0,0,3136,0,0,3136,0,0,0,0,0,0,0,0,0,0,4350,0,0,0,0,0,4350,0,0,0,0,0,0,3136,0,0,0,0,0,0,0,0,0,3136,0,0,0,0,0,0,0,0,0,0,0,0,3136,0,0,3136,0,0,4350,0,0,0,0,0,0,0,0,0,0,0,0,0,0,0,4350,0,0,0,0,3136,0,0,0,0,0,0,0,0,3050,3136,0,0,0,0,0,0,0,0,0,0,0,0,3136,0,0,3136,0,0,0,0,0,4350,0,0,0,0,0,0,0,0,0,0,0,0,0,0,0,0,0,3136,0,0,0,0,0,0,0,0,3052,3136,0,0,0,0,0,0,0,0,0,0,0,0,3136,0,0,3136,4350,0,0,4350,0,0,0,0,0,4350,0,0,4347,4337,4349,0,0,0,0,0,4350,0,0,3148,0,0,0,0,0,0,0,0,0,3136,0,0,0,0,0,0,0,0,0,0,0,0,3136,0,0,3136,0,0,0,0,0,0,0,0,0,0,0,0,0,0,0,0,0,0,0,0,0,0,0,0,0,0,0,0,0,0,0,0,0,3145,3137,3137,3137,3137,3137,3137,3137,3149,0,3147,3137,3137,3131,0,0,3136,0,0,4350,0,0,0,0,0,0,0,0,0,0,4347,4341,0,4338,4324,4325,4337,4349,0,0,3146,0,0,0,0,0,0,0,0,0,0,0,0,0,0,0,0,0,0,0,0,0,0,3136,0,0,3136,0,0,0,0,0,0,0,0,0,0,0,0,0,0,4336,0,4344,4332,4342,0,0,0,0,3136,0,0,0,0,0,0,0,0,0,0,0,0,0,0,0,0,0,0,0,0,0,0,3136,0,0,3136,0,0,0,0,0,0,0,0,4350,0,4350,0,0,0,4336,0,0,0,0,0,0,0,0,3136,3050,0,0,0,0,0,0,0,0,0,0,0,0,0,0,0,0,0,0,0,0,0,3136,0,0,3136,0,4350,0,0,4350,0,0,0,0,0,0,0,0,0,4348,0,0,0,0,0,0,0,0,3136,3040,0,0,0,0,0,0,0,0,3050,0,0,0,0,0,0,0,0,0,0,0,0,3136,0,0,3136,0,0,0,0,0,0,0,0,0,4347,4349,0,0,0,0,0,0,0,0,0,0,0,0,3136,3040,0,0,0,0,0,0,0,0,3040,0,0,0,0,0,0,0,0,0,0,0,0,3136,0,0,3136,0,4350,0,0,0,0,0,0,0,0,0,0,0,0,0,0,0,0,0,0,0,0,0,3136,3040,0,0,0,0,0,0,0,0,3040,0,0,0,0,0,0,0,0,0,0,0,0,3136,0,0,3136,0,0,0,0,0,0,0,0,0,0,4350,0,0,0,0,0,0,0,0,0,0,0,0,3136,3040,0,0,0,0,0,0,0,3043,3047,0,0,0,3146,0,3146,0,3146,0,0,0,0,3136,0,0,3136,0,0,0,0,4350,0,0,0,0,0,0,4350,0,0,0,0,0,0,0,0,0,0,0,3136,3025,3044,0,0,0,0,0,0,3052,0,0,0,0,3148,0,3148,0,3148,0,0,0,0,3136,0,0,3136,0,0,0,0,0,0,0,0,0,0,0,0,0,0,0,0,0,0,0,0,0,0,0,3136,3026,3046,0,0,0,0,0,0,0,0,0,0,0,0,0,0,0,0,0,0,0,0,3136,0,0,3123,3137,3137,3137,3137,3137,3137,3137,3137,3137,3137,3137,3137,3137,3137,3137,3137,3137,3137,3137,3137,3137,3137,3137,3143,3052,0,0,0,0,0,0,0,3054,0,0,0,0,0,0,0,0,0,0,0,0,0,3136,0,0,3136,3042,3029,3041,3041,3041,3041,3053,0,0,0,3042,3028,3028,3029,3053,0,0,0,0,0,0,0,0,0,0,0,0,0,0,0,0,0,0,0,3051,3041,3030,3029,3053,0,0,3051,3030,3028,3028,3044,3136,0,0,3136,3024,3032,0,0,0,0,0,0,0,0,3048,3016,3012,3046,0,0,0,0,0,0,0,0,0,0,0,0,0,0,0,0,0,0,0,0,0,0,3048,3046,0,0,0,0,3048,3036,3036,3033,3136,0,0,3136,3024,3032,0,0,0,0,0,0,0,0,0,3026,3046,0,0,0,0,0,0,0,0,0,0,0,0,0,0,0,0,0,0,0,0,0,0,0,0,0,0,0,0,0,0,0,0,3052,3136,0,0,3136,3026,3046,0,0,0,0,0,0,0,0,3051,3047,0,0,0,0,0,0,0,0,0,0,0,0,0,0,0,0,0,0,0,0,0,0,0,0,0,0,0,0,0,0,0,0,0,0,3136,0,0,3136,3040,0,0,0,0,0,0,0,0,0,0,0,0,0,0,0,0,0,0,0,0,0,0,0,0,0,0,0,0,0,0,0,0,0,0,0,0,0,0,0,0,0,0,0,0,0,3136,0,0,3136,3052,0,0,0,0,0,0,0,0,0,0,0,0,0,0,0,0,0,0,0,0,0,0,0,0,0,0,0,0,0,0,0,0,0,0,0,0,0,0,0,0,0,0,0,0,0,3136,0,0,3136,0,0,0,0,0,3054,0,0,0,0,0,0,0,0,3050,0,0,0,0,0,0,0,0,0,0,0,0,0,0,0,0,0,0,0,0,0,3042,3029,3053,0,0,0,0,0,0,0,3136,0,0,3136,0,0,0,0,0,0,0,0,0,0,0,0,0,3051,3035,0,3054,0,0,0,0,0,0,0,0,0,0,0,0,0,0,0,0,0,0,0,3024,3032,0,0,0,0,0,0,0,0,3136,0,0,3136,0,0,0,3050,0,0,0,0,0,0,0,0,0,0,3025,3044,0,0,0,0,0,0,0,0,0,0,0,0,0,0,0,0,0,0,0,3051,3017,3014,3053,0,0,0,0,0,0,3050,3136,0,0,3136,3050,0,0,3052,0,0,0,0,0,0,0,0,0,0,3026,3046,0,0,0,0,0,0,0,0,0,0,3054,0,0,0,0,0,0,0,0,0,3048,3046,0,0,0,0,0,0,0,3040,3136,0,0,3136,3040,0,0,0,0,0,0,0,3050,0,0,3054,0,3051,3047,0,0,0,0,0,0,0,3050,0,0,3054,0,0,0,0,0,0,0,0,0,0,0,0,0,0,0,0,0,0,0,3040,3136,0,0,3136,3040,0,3054,0,0,3050,0,0,3052,0,0,0,0,0,0,0,0,0,0,0,0,0,3052,0,0,0,3054,0,0,0,0,0,0,0,0,0,0,0,0,0,0,0,0,0,3042,3034,3136,0,0,3136,3049,3053,0,0,0,3052,0,0,0,0,0,0,0,0,0,0,0,0,0,0,3051,3053,0,0,0,0,0,0,0,0,0,0,0,0,0,0,0,0,0,0,0,0,0,0,3024,3032,3136,0,0,3136,0,0,0,0,0,0,0,0,0,0,0,0,0,0,0,0,0,0,0,0,0,0,0,0,0,0,0,0,0,0,0,0,0,0,0,0,0,0,0,0,0,0,0,0,3024,3032,3136,0,0,3136,0,0,0,0,0,0,0,0,0,0,0,0,0,0,0,0,0,0,0,0,0,0,0,0,0,0,0,0,0,0,0,0,0,0,0,0,0,0,0,0,0,0,0,3051,3017,3032,3136,0,0,3136,3050,0,0,0,0,0,0,0,0,0,0,0,0,0,0,0,0,0,0,0,0,0,0,0,0,0,0,0,0,0,0,0,0,0,3051,3031,3053,0,0,0,0,0,0,0,3048,3033,3136,0,0,3136,3025,3044,0,0,0,0,0,0,0,0,0,0,0,0,0,0,0,0,0,0,0,0,0,0,0,0,0,0,0,0,0,0,0,0,0,3040,0,0,3050,0,0,0,0,0,0,3052,3136,0,0,3136,3048,3046,0,0,0,0,0,0,0,0,0,0,0,0,0,0,0,0,0,0,0,0,0,0,0,0,0,0,0,0,0,0,0,0,0,3052,0,0,3049,3053,0,0,0,0,0,0,3136,0,0,3136,0,0,0,0,0,0,0,0,0,0,0,0,0,0,0,0,3050,0,0,0,0,3050,0,0,0,0,0,0,3043,3053,0,0,0,0,0,0,0,0,0,0,0,0,0,0,0,0,3136,0,0,3136,3050,0,0,0,0,0,0,0,0,0,0,0,0,0,0,0,3040,0,0,0,0,3040,0,0,0,0,0,3051,3047,0,0,0,0,0,3050,0,0,0,0,0,0,0,0,0,0,3050,3136,0,0,3136,3040,0,0,0,0,0,0,0,0,0,0,0,0,0,0,0,3049,3045,0,0,0,3027,3053,0,0,0,3054,0,0,0,0,0,0,0,3052,0,0,0,0,0,0,0,0,0,0,3040,3136,0,0,3136,3040,0,0,0,0,0,0,0,0,0,0,0,0,0,0,0,0,3052,0,0,0,3052,0,0,0,0,0,0,0,0,0,0,0,0,0,0,0,0,0,0,0,0,0,0,0,3040,3136,0,0,3136,3040,0,0,0,0,0,0,0,0,0,0,0,0,0,0,0,0,0,3051,3045,0,0,3054,0,0,0,0,0,3050,0,0,0,0,0,0,0,3051,3053,0,0,0,0,0,0,0,3040,3136,0,0,3136,3027,3053,0,0,0,0,0,0,0,0,0,0,0,0,0,3042,3044,0,0,3040,0,0,0,0,0,0,0,0,3052,0,0,0,0,0,0,0,0,0,0,0,0,0,0,0,0,3040,3136,0,0,3136,3040,0,0,0,0,0,0,0,0,0,0,0,0,0,0,3048,3022,3053,0,3040,0,0,0,0,0,0,0,0,0,0,0,0,0,0,0,0,0,0,0,0,0,0,0,0,3042,3034,3136,0,0,3136,3049,3030,3044,0,0,0,0,0,3050,0,0,0,0,0,0,0,3052,0,3043,3047,0,0,0,0,0,0,0,0,0,0,0,0,0,0,0,0,0,0,0,0,0,0,0,0,3048,3046,3136,0,0,3136,0,3048,3038,3053,0,0,0,3042,3015,3053,0,0,0,0,0,0,0,0,3052,0,0,3050,0,0,0,0,0,3050,0,0,0,0,0,0,0,0,0,0,0,0,0,0,0,0,0,0,3136,0,0,3136,0,0,0,0,0,0,0,3048,3046,0,0,0,0,0,0,0,0,0,0,0,3051,3047,0,0,0,0,0,3052,0,0,0,0,0,0,0,0,0,0,0,0,0,0,0,0,0,0,3136,0,0,3136,0,0,0,0,0,0,0,0,0,0,0,0,0,0,0,0,0,0,0,0,0,0,0,0,0,0,0,0,0,0,0,0,0,0,0,3042,3029,3053,0,0,0,0,0,0,0,0,3136,0,0,3136,0,0,0,0,0,0,0,0,0,0,0,0,0,3050,0,0,0,0,0,0,0,0,0,0,0,0,0,0,0,0,0,0,0,0,3051,3037,3046,0,0,0,0,0,0,0,0,0,3136,0,0,3136,0,3042,3044,0,0,0,3051,3041,3053,0,0,0,0,3027,3053,0,0,0,0,0,0,0,0,0,0,0,0,0,0,0,0,3051,3053,0,0,0,0,0,0,0,0,0,0,0,0,0,3136,0,0,3136,3051,3037,3022,3041,3053,0,0,0,0,0,0,0,0,3052,0,0,3054,0,0,3054,0,0,0,0,0,0,0,0,0,0,0,0,0,0,0,0,0,0,0,0,0,0,0,0,0,0,3136,0,0,3136,0,0,3040,0,0,0,0,0,0,0,0,0,0,0,0,0,0,0,0,0,0,0,0,0,0,0,3054,0,3051,3041,3053,0,0,0,0,0,0,0,0,0,0,0,0,0,0,3050,3136,0,0,3136,3050,0,3052,0,0,0,0,0,0,0,0,0,0,3054,0,0,0,0,0,0,0,0,0,0,0,0,0,0,0,0,0,0,0,0,0,0,0,0,0,0,0,0,0,0,0,3040,3136,0,0,3136,3025,3044,0,0,0,0,0,0,0,0,0,0,0,0,0,0,0,0,0,0,0,0,0,0,0,0,3042,3044,0,0,3042,3028,3044,0,0,0,3042,3028,3044,0,0,0,0,0,3042,3034,3136,0,0,3136,3048,3038,3041,3041,3041,3041,3053,0,0,0,0,0,0,0,0,0,0,0,0,0,0,0,0,0,3051,3041,3037,3038,3041,3041,3037,3036,3046,0,3051,3041,3037,3036,3038,3041,3041,3053,0,0,3048,3046,3136,0,0,3123,3137,3137,3137,3137,3137,3137,3137,3137,3137,3137,3137,3137,3137,3137,3137,3137,3137,3137,3137,3137,3149,0,3147,3137,3137,3137,3137,3137,3137,3137,3137,3137,3137,3137,3137,3137,3137,3137,3137,3137,3137,3137,3137,3137,3137,3137,3143,0,0,3136,0,0,0,0,0,0,0,0,0,0,0,0,0,0,0,0,0,0,0,0,0,0,0,0,0,0,0,0,0,0,0,0,0,0,0,0,0,0,0,0,0,0,0,0,0,0,0,0,0,0,0,0,0,0,0,0,0,0,0,0,0,0,0,0,0,0,0,0,0,0,0,0,0,0,0,0,0,0,0,0,0,0,0,0,0,0,0,0,0,0,0,0,0,0,0,0,0,0,0,0,0,0,0,0,0,0,0,0,0,0,0,0,0,0,0,0,0,0,0,0,0,0,0,0,0,0,0,0,0,0,0,0,0,0,0,0,0,0,0,0,0,0,0,0,0,0,0,0,0,0,0,0,0,0,0,0,0,0,0,0,0,0,0,0,0,0,0,0,0,0,0,0,0,0,0,0,0,0,0,0,0,0,0,0,0,0,0,0,0,0,0,0,0,0,0,0,0,0,0,0,0,0,0,0,0,0,0,0,0,0,0,0,0,0,0,0,0,0,0,0,0,0,0,0,0,0,0,0,0,0,0,0,0,0,0,0,0,0,0,0,0,0,0,0,0,0,0,0,0,0,0,0,0,0,0,0,0,0,0,0,0,0,0,0,0,0,0,0,0,0,0,0,0,0,0,0,0,0,0,0,0,0,0,0,0,0,0,0,0,0,0,0,0,0,0,0,0,0,0,0,0,0,0,0,0,0,0,0,0,0,0,0,0,0,0,0,0,0,0,0,0,0,0,0,0,132,0,0,0,0,0,0,0,0,0,0,0,0,0,0,0,0,0,0,0,0,0,0,0,0,0,0,0,0,0,0,0,0,0,0,0,0,0,0,0,0,0,0,0,0,0,0,0,0,0,0,0,0,0,0,0,153,0,0,0,0,0,0,0,0,0,0,0,0,0,0,0,0,0,0,0,0,0,0,0,0,0,0,0,0,0,0,0,0,0,0,0,0,0,0,0,0,0,0,0,0,0,0,0,0,0,153,0,0,0,0,0,0,0,0,0,0,0,0,0,0,0,0,0,0,0,0,0,0,0,0,0,0,0,0,0,0,0,0,0,0,0,0,0,0,0,0,0,0,0,152,0,0,0,0,0,0,0,0,0,0,0,0,0,0,0,0,0,0,0,0,0,0,0,0,0,0,0,0,0,0,0,0,0,0,0,0,0,0,0,0,0,0,0,0,0,0,0,0,0,152,0,0,0,0,0,0,0,0,0,0,0,0,0,0,0,0,0,0,0,0,0,0,0,0,0,0,0,0,0,0,0,0,0,0,0,0,0,0,0,0,0,0,0,0,0,0,0,0,0,0,0,0,0,0,152,152,0,0,0,0,0,0,0,0,0,0,0,0,0,0,0,0,0,0,0,0,0,0,0,0,0,0,0,0,0,0,0,0,0,0,0,0,0,0,0,0,0,0,0,0,0,0,0,0,0,0,0,0,0,0,0,0,0,0,0,0,0,0,0,0,0,0,0,0,0,0,0,0,0,0,0,0,0,0,0,0,0,0,0,0,0,0,0,0,0,0,0,0,0,0,0,0,0,0,0,0,0,0,0,0,0,0,0,0,0,0,0,0,0,0,0,0,0,0,0,0,0,0,0,0,0,0,0,0,0,0,0,0,0,0,0,0,0,0,0,0,0,0,0,0,0,0,0,0,0,0,0,0,0,0,0,0,0,0,0,0,0,0,0,0,0,0,0,0,0,0,0,0,0,0,0,0,0,0,0,0,0,0,0,0,0,0,0,0,0,0,0,0,0,0,0,0,0,153,0,0,0,0,0,0,0,0,0,0,0,0,0,0,0,0,0,0,0,0,0,0,0,0,0,0,0,0,0,0,0,0,0,0,0,0,0,0,0,0,0,0,0,0,0,0,162,0,0,152,152,0,0,0,0,182,182,0,0,0,0,0,0,0,0,0,0,0,0,0,0,0,0,0,0,0,0,0,0,0,0,0,0,0,0,0,0,0,0,0,0,0,0,0,0,0,0,0,0,0,152,0,0,0,0,182,182,0,0,0,0,0,0,0,0,0,0,0,0,0,0,0,0,0,0,0,0,0,0,0,0,0,0,0,0,0,0,0,0,0,0,0,0,0,0,0,0,0,0,152,152,0,0,0,0,0,0,0,0,0,0,0,0,0,0,0,0,0,0,0,0,0,0,0,0,0,0,0,0,0,0,0,0,0,0,0,0,0,0,0,0,0,0,0,0,0,152,0,0,152,153,152,0,0,0,0,0,0,0,0,0,0,0,0,0,0,0,0,0,0,0,0,0,0,0,0,0,0,0,0,0,0,0,0,0,0,0,0,0,0,0,0,0,0,0,0,0,0,0,153,153,152,0,0,0,0,167,0,0,0,0,0,0,0,0,0,0,0,0,0,0,0,0,0,0,0,0,0,0,0,0,0,0,0,0,0,0,0,0,0,0,0,0,0,0,0,0,0,0,153,0,0,0,0,0,0,0,0,0,0,0,0,0,0,0,0,0,0,0,0,0,0,0,0,0,0,0,0,0,0,0,0,0,0,0,0,0,0,0,0,0,0,0,0,0,0,152,0,0,0,0,0,0,0,0,0,0,0,0,0,0,0,0,0,0,0,0,0,0,0,0,0,0,0,0,0,0,0,0,0,0,0,0,0,0,0,0,0,0,0,0,0,0,0,0,0,0,0,0,0,0,0,0,0,0,0,0,0,0,0,0,0,0,0,0,0,0,0,0,0,0,0,0,0,0,0,0,0,0,0,0,0,0,0,0,0,0,0,0,0,0,0,0,0,0,0,0,0,0,0,0,0,0,153,0,152,0,0,152,0,0,0,0,0,0,0,0,0,0,0,0,0,0,0,0,0,0,0,0,0,0,0,0,0,0,0,0,0,0,0,0,0,0,0,0,0,0,0,0,0,0,0,0,0,0,153,152,153,152,152,0,0,0,0,0,0,0,0,0,0,0,0,0,0,132,0,0,152,0,0,0,0,0,0,0,0,0,0,0,0,0,0,0,0,0,0,152,0,0,0,0,0,0,153,152,153,152,152,0,0,0,0,0,0,165,0,0,0,0,0,0,0,0,0,0,0,0,0,0,0,0,0,0,0,0,0,0,0,0,0,0,0,0,0,0,0,152,0,0,0,0,0,0,0,0,152,153,152,0,132,0,0,0,0,0,0,0,0,0,0,0,0,0,0,152,153,152,152,0,0,0,0,0,0,0,0,0,0,0,0,0,0,0,0,0,0,0,0,0,0,0,0,0,0,0,0,0,0,0,0,0,0,0,152,0,0,0,0,0,0,0,177,0,152,152,0,152,153,152,0,0,0,152,152,0,152,0,0,0,152,0,0,0,0,0,0,0,0,0,0,0,0,0,152,0,0,0,0,0,0,0,0,0,152,0,0,0,0,0,0,0,185,0,0,152,152,152,153,0,152,152,0,152,0,0,152,0,152,0,0,0,0,0,0,0,0,0,0,0,0,0,0,0,0,0,152,0,0,0,0,152,0,0,0,0,0,0,0,0,0,0,0,0,0,153,0,0,0,0,0,0,0,152,152,0,0,152,152,152,0,0,0,0,0,0,153,0,0,0,0,0,152,0,152,0,0,0,0,0,0,0,0,0,0,0,0,0,0,0,0,0,0,0,0,153,152,153,153,152,152,153,153,152,153,0,0,153,152,0,0,0,152,0,0,153,0,0,0,0,0,0,152,0,0,0,152,0,0,152,0,0,0,0,0,0,0,0,0,0,0,0,0,0,0,153,0,153,153,0,153,152,0,152,0,0,0,0,153,0,0,0,153,0,0,152,0,152,152,0,0,0,0,152,0,0,0,152,0,0,0,0,132,0,0,0,0,0,0,0,0,0,0,0,152,152,0,152,153,0,152,153,152,152,152,162,0,0,0,0,0,153,0,0,0,0,0,0,152,0,0,0,0,152,0,0,0,0,0,0,0,0,0,0,0,0,0,0,0,0,0,0,0,0,152,153,0,152,153,0,0,0,153,152,0,0,0,0,0,0,0,0,0,0,0,0,0,0,153,0,0,0,152,153,0,0,0,153,0,0,152,0,0,0,0,0,0,0,0,0,0,0,0,0,0,0,0,0,152,152,0,0,162,162,0,132,0,0,0,0,0,0,152,152,0,0,0,0,0,0,0,0,152,152,152,152,153,0,0,0,0,0,0,152,0,0,0,0,0,0,0,0,0,0,0,152,0,0,0,0,0,0,0,0,0,0,0,0,0,0,0,0,0,153,0,0,0,0,0,0,0,0,0,152,152,152,153,0,0,0,0,0,152,152,0,0,0,0,0,0,0,0,0,0,0,0,0,0,152,152,152,152,153,177,0,0,0,0,0,0,0,0,152,0,0,0,0,0,0,0,0,152,152,152,152,0,0,0,152,152,166,0,152,152,0,0,0,0,0,0,0,0,0,0,0,0,0,0,0,153,153,152,153,153,152,0,0,152,0,0,0,0,152,0,0,0,0,0,0,0,0,152,152,153,152,152,0,152,152,0,152,0,0,0,0,0,0,0,0,0,0,0,0,0,0,0,0,0,0,152,165,152,152,152,152,0,0,152,0,0,0,0,152,0,0,0,0,0,0,153,0,153,0,0,0,152,0,153,152,0,0,152,0,0,0,0,0,0,0,0,0,0,0,0,132,0,0,0,0,152,152,152,153,152,0,0,0,0,152,0,0,152,0,0,152,0,0,152,0,0,0,153,0,0,0,152,152,153,152,152,152,152,0,0,0,0,0,0,0,0,0,0,0,0,0,0,0,0,0,0,0,0,152,0,0,0,152,0,152,0,0,0,0,0,152,152,0,152,0,0,153,152,0,131,0,0,152,153,153,153,152,152,152,0,0,0,0,0,0,0,0,0,0,0,0,0,0,0,0,0,0,152,0,0,152,152,0,0,0,0,152,0,0,0,152,0,0,0,153,153,153,153,152,0,152,0,152,153,153,152,152,0,152,0,0,0,0,0,0,0,0,0,0,0,0,152,0,0,132,0,0,152,0,0,0,0,0,0,0,0,152,0,0,0,152,0,153,152,153,152,0,152,153,0,0,153,153,152,152,152,0,0,0,0,0,0,0,0,0,0,0,0,0,0,0,152,152,152,0,0,0,0,0,152,0,0,0,152,0,0,0,152,152,0,152,0,153,152,153,0,153,152,152,0,152,153,153,0,0,0,152,0,0,0,132,0,0,0,0,0,0,0,0,0,0,152,152,152,152,152,0,0,0,0,0,0,0,0,0,152,0,152,152,0,0,0,0,0,0,0,152,153,153,0,0,152,152,152,0,0,152,0,0,0,0,0,0,0,0,0,0,0,0,0,0,0,152,0,0,152,0,0,0,152,0,152,0,0,0,152,0,0,0,0,0,0,0,0,0,0,0,153,153,0,0,0,0,152,0,0,0,0,152,0,0,0,0,0,0,0,0,0,0,0,0,0,0,0,0,0,0,0,0,0,0,0,0,0,0,0,0,152,153,0,0,152,0,0,0,0,0,0,0,0,152,152,0,0,0,0,0,0,0,0,0,0,0,0,0,0,0,0,0,0,0,0,152,0,0,0,0,0,0,0,0,0,0,0,0,0,152,152,0,0,0,153,0,0,0,152,152,0,0,152,153,0,0,0,0,0,0,0,0,0,0,0,0,0,0,0,0,0,0,0,152,152,152,0,0,0,0,0,0,0,0,0,132,0,0,0,0,0,0,0,0,152,0,0,0,0,0,0,0,0,0,0,0,0,0,0,0,0,0,0,0,0,0,0,0,0,0,0,0,0,152,152,152,0,152,0,152,152,0,152,0,152,0,0,0,0,0,152,153,0,0,0,0,0,152,0,0,0,0,0,0,152,0,0,0,0,0,0,0,0,0,0,0,0,0,0,0,0,0,0,0,152,0,152,0,0,152,152,0,152,0,0,0,0,0,0,0,0,152,0,0,152,0,0,0,0,0,0,152,152,0,0,0,0,0,0,0,0,0,0,0,0,0,0,0,0,0,0,0,0,152,0,152,0,0,0,0,152,0,0,0,0,152,152,0,0,0,0,0,0,0,0,0,0,0,0,0,152,0,0,0,152,152,0,0,0,0,0,0,0,132,0,0,0,0,0,0,0,0,0,0,0,0,0,0,0,0,152,0,152,0,0,0,0,0,0,0,0,152,0,0,0,152,166,0,0,0,0,0,0,0,0,0,0,0,152,152,0,0,0,0,0,0,0,0,0,0,0,0,0,0,0,0,0,132,0,0,0,0,0,0,0,0,0,0,0,0,0,0,0,152,152,0,0,0,0,0,0,0,0,152,152,0,152,0,152,152,0,0,0,0,0,0,0,0,0,0,0,0,0,0,0,0,0,0,0,0,0,152,0,0,0,0,0,0,0,0,0,0,0,0,0,0,0,0,152,0,0,0,0,157,0,0,0,0,0,0,0,0,0,0,0,0,0,0,0,0,0,0,0,0,0,0,0,0,0,0,0,0,0,0,0,0,0,0,0,0,0,0,0,0,0,0,0,0,0,0,0,0,0,0,0,0,0,0,0,0,0,0,0,0,0,0,0,0,0,0,0,0,0,0,0,0,0,0,0,0,0,0,0,0,0,0,0,0,0,0,0,0,0,0,0,0,0,0,0,0,0,0,0,0,0,0,0,0,0,0,0,0,0,0,0,0,0,0,0,0,0,0,0,0,0,0,0,0,0,0,0,0,0,0,0,0,0,0,0,0,0,0,0,0,0,0,0,0,0,0,0,0,0,0,0,0,0,0,0,0,0,0,0,0,0,0,0,0,0,0,0,0,0,0,0,0,0,0,0,0,0,0,0,0,0,0,0,0,0,0,0,0,0,0,0,0,0,0,0,0,0,0,0,0,0,0,0,0,0,0,0,0,0,0,0,0,0,0,0,0,0,0,0,0,0,0,0,0,0,0,0,0,0,0,0,0,0,0,0,0,0,0,0,0,0,0,0,0,0,0,0,0,0,0,0,0,0,0,0,0,0,0,0,0,0,0,0,0,0,0,0,0,0,0,0,0,0,0,0,0,0,0,0,0,0,0,0,0,0,0,0,0,0,0,0,0,0,0,0,0,0,0,0,0,0,0,0,0,0,0,0,0,0,0,0,0,0,0,0,0,172,0,172,172,172,172,172,0,0,174,174,174,174,174,174,0,173,173,173,173,173,0,173,0,0,0,0,0,0,0,0,0,0,0,147,147,147,139,0,0,0,0,0,0,0,0,0,0,0,0,172,172,172,172,172,172,172,0,174,174,0,174,174,174,174,0,173,173,173,173,173,173,173,0,0,0,0,162,0,0,0,156,0,0,0,0,0,0,0,0,0,0,0,0,0,0,0,0,0,0,172,172,172,172,172,0,172,0,174,174,174,174,174,174,0,0,0,173,173,173,173,173,173,0,0,0,0,0,0,0,161,0,0,0,0,139,0,0,0,0,0,0,0,0,0,0,0,0,0,0,172,172,172,0,172,172,172,0,174,174,174,174,174,174,174,0,173,173,173,173,0,173,173,0,99,133,99,0,0,0,0,153,0,0,0,0,0,0,0,0,0,0,0,0,0,0,0,0,0,0,172,172,172,172,172,172,172,0,174,0,174,174,174,174,174,0,173,173,173,173,173,173,173,0,0,0,0,0,0,0,0,161,162,0,0,0,0,0,0,0,0,0,0,0,0,0,0,0,0,0,172,172,172,172,172,172,172,0,174,174,0,174,174,174,174,0,0,173,173,173,173,173,173,0,0,0,0,0,0,0,156,161,0,0,0,0,0,0,0,0,0,0,0,0,0,0,0,0,0,0,172,172,0,172,172,172,172,0,174,174,174,174,174,174,174,0,173,173,0,173,173,173,173,0,152,157,152,0,0,0,0,0,0,0,0,0,0,0,0,0,0,0,0,0,0,0,0,0,0,0,172,172,172,172,172,0,172,0,174,174,174,174,174,174,174,0,173,173,173,173,173,173,173,0,0,165,0,0,0,0,152,152,0,0,0,0,0,0,0,0,0,0,0,0,0,0,0,0,0,0,0,172,172,0,172,172,172,0,174,0,174,174,0,0,0,0,173,173,173,173,0,173,173,0,149,0,152,0,0,157,153,161,162,0,0,0,0,0,0,0,0,0,0,0,0,0,0,0,0,0,0,0,0,0,0,0,0,156,0,0,0,0,0,0,0,0,0,0,0,0,0,0,0,0,0,0,0,0,162,165,152,152,0,0,0,0,0,0,0,0,0,0,0,0,0,0,0,0,0,0,173,173,0,173,173,173,173,0,175,175,175,175,175,0,0,0,0,0,0,0,0,172,172,0,0,161,0,0,0,0,0,0,0,0,0,0,0,0,0,0,0,0,0,0,0,0,0,0,0,0,173,173,173,173,173,173,173,0,175,175,175,175,175,175,0,0,0,0,0,172,172,172,172,0,0,0,162,0,0,0,0,0,0,0,0,0,0,0,0,0,0,0,0,0,0,0,0,0,0,0,173,173,173,173,173,173,173,0,0,175,0,175,175,175,0,0,172,172,172,172,172,172,172,0,0,0,0,0,0,156,152,0,0,162,0,0,0,0,0,0,0,0,0,0,0,0,0,0,0,0,173,0,173,173,0,173,173,0,175,175,175,175,175,175,0,0,172,172,172,172,172,172,172,0,0,0,161,0,0,153,153,0,0,0,0,181,181,182,182,0,0,0,0,0,0,0,0,0,0,0,173,173,173,173,173,173,173,0,175,0,0,175,175,175,175,0,172,172,172,172,172,172,172,0,0,0,0,0,0,0,153,0,0,0,0,189,189,182,182,0,0,0,0,0,0,0,0,0,0,0,173,0,173,173,173,173,173,0,175,175,175,175,175,175,175,0,172,172,172,172,172,172,172,0,0,162,0,0,0,153,153,152,162,0,0,182,0,0,0,0,0,0,0,0,0,0,0,0,0,0,173,173,173,173,173,173,173,0,175,175,0,175,175,175,175,0,172,172,172,172,172,172,172,0,0,152,162,0,0,153,176,177,0,0,0,0,0,0,0,0,0,0,0,0,0,0,0,0,0,0,173,173,173,173,0,173,173,0,175,175,175,0,175,175,175,0,172,172,172,172,172,172,172,0,0,0,152,0,0,157,184,185,0,0,0,170,170,0,0,0,0,0,0,0,0,0,0,0,0,0,173,173,173,173,173,173,173,170,175,175,175,175,175,175,175,0,172,172,172,172,172,172,172,0,0,0,152,0,0,165,153,0,0,0,0,0,0,0,0,0,0,0,0,0,0,0,0,0,0,0,0,0,0,0,0,0,0,0,0,0,0,0,0,0,0,0,0,0,0,0,0,0,0,0,0,152,162,0,152,0,0,0,0,0,0,0,0,0,0,0,0,0,0,0,0,0,0,0,0,0,0,0,0,0,0,0,0,0,0,0,0,0,0,0,0,0,0,0,0,0,0,0,0,0,0,152,152,0,0,162,0,0,0,0,0,0,0,0,0,0,0,0,0,0,0,0,0,0,0,0,0,0,157,0,0,0,0,162,0,162,0,0,0,0,162,0,162,0,0,0,0,0,0,0,0,0,161,0,0,0,0,0,153,161,153,153,0,0,153,152,152,152,0,0,0,0,0,0,0,0,0,0,165,0,66,0,0,157,0,0,0,0,0,0,0,0,0,162,0,0,162,0,0,0,162,0,0,0,161,0,0,162,153,153,153,161,153,162,153,162,152,152,0,0,157,0,0,0,0,0,0,0,0,96,133,96,0,165,152,152,0,0,152,152,0,0,0,0,0,0,160,0,0,0,161,152,162,152,0,0,0,0,0,162,153,161,153,153,0,76,0,0,0,0,157,0,0,0,0,0,0,0,0,0,0,0,0,0,0,0,0,0,0,0,0,152,152,152,0,0,0,162,0,0,0,152,153,152,153,0,0,0,0,0,0,153,166,153,96,133,96,96,0,0,165,0,0,0,0,0,0,0,0,152,153,162,153,153,152,152,152,0,152,152,152,152,152,152,0,157,0,0,0,0,0,152,152,152,0,0,0,152,152,152,0,0,0,0,0,0,152,152,152,176,177,0,0,0,0,0,176,176,177,153,153,0,153,157,153,152,152,0,153,153,0,153,152,152,152,165,152,152,0,0,0,152,152,152,0,0,0,152,152,161,152,152,0,0,0,0,0,0,152,184,185,0,0,0,0,0,184,184,185,152,153,153,153,165,152,153,153,0,153,0,0,153,0,153,152,152,0,0,0,0,0,0,0,0,0,0,0,0,0,152,152,166,0,0,152,152,166,152,152,152,0,0,0,0,0,0,0,0,153,0,139,0,0,0,0,0,0,0,153,153,0,0,153,153,153,152,0,152,153,0,153,162,152,152,0,157,0,162,0,166,152,0,0,0,0,152,152,152,152,152,0,0,0,0,0,0,0,153,153,0,157,153,176,177,153,153,166,162,153,156,0,0,162,153,0,0,0,153,153,0,162,153,0,0,0,165,0,162,0,0,152,166,0,0,156,152,0,75,0,152,0,0,0,0,0,0,0,153,153,153,165,153,184,185,0,166,153,0,153,0,0,153,153,161,0,0,153,156,0,0,153,0,153,153,152,152,152,152,166,0,0,0,153,152,152,152,96,133,96,0,0,0,0,0,0,0,0,166,0,153,153,0,153,157,0,153,166,153,153,153,161,153,153,0,0,0,166,153,0,0,0,0,0,153,152,152,152,152,153,153,153,0,0,0,0,0,0,0,0,0,0,0,0,0,0,0,0,0,0,161,166,0,153,165,152,152,152,162,153,0,68,0,161,0,0,0,0,0,153,0,0,0,0,166,152,152,152,176,177,153,153,153,166,153,152,162,152,152,157,0,0,0,0,0,0,0,164,0,161,152,152,152,152,162,156,152,152,161,161,96,133,96,0,0,156,0,152,153,153,0,0,0,0,0,152,152,152,184,185,153,153,157,153,152,152,152,152,152,165,0,0,0,0,0,0,0,0,161,0,152,166,152,0,0,0,0,0,0,0,0,0,0,0,0,0,0,152,152,166,0,0,0,29,30,31,0,0,152,153,153,153,165,153,152,152,152,152,176,177,0,0,0,0,0,0,0,0,0,0,152,152,152,0,162,153,153,153,176,161,0,0,0,0,0,0,157,152,162,0,0,0,0,37,38,39,0,153,153,153,153,0,0,0,153,153,162,152,184,185,0,0,0,0,0,0,0,0,0,156,0,162,0,0,153,166,157,153,184,185,153,0,152,162,152,0,165,152,162,0,0,0,0,45,46,47,153,153,153,166,153,153,0,153,153,0,153,152,152,0,0,0,0,0,0,0,0,0,0,0,65,0,0,0,153,153,166,153,153,153,153,0,152,162,152,0,0,152,162,0,0,0,0,0,0,166,153,161,0,70,0,153,0,157,153,0,0,153,0,164,0,157,0,0,0,0,0,0,162,96,133,96,0,0,0,153,153,153,166,153,0,0,152,0,161,0,0,162,0,152,157,0,0,156,152,0,0,161,96,96,96,153,153,165,153,153,153,153,152,0,0,165,0,0,0,0,0,0,162,162,0,0,0,0,0,152,152,152,166,0,0,152,161,0,162,0,0,0,0,152,165,153,0,153,0,0,162,153,96,133,96,0,153,176,177,156,153,153,162,152,152,0,0,0,0,0,0,0,162,162,0,0,0,0,67,0,152,157,152,0,161,156,152,0,0,152,157,152,0,0,153,0,0,0,161,161,161,161,153,0,153,0,153,184,185,153,153,152,162,0,0,0,0,0,0,0,0,0,162,0,152,161,152,96,133,96,152,165,0,0,0,0,0,152,0,152,165,152,0,152,153,0,166,153,161,153,152,153,161,0,153,176,177,153,153,153,152,152,152,96,96,96,0,0,0,0,0,0,162,162,0,153,153,153,0,0,0,0,0,161,152,152,152,166,152,0,0,176,177,0,153,0,162,153,166,0,161,153,153,0,153,184,185,0,0,152,157,152,152,96,133,96,0,0,0,0,0,0,0,0,0,153,153,153,153,157,152,0,152,152,152,152,0,0,152,157,0,184,185,152,0,0,0,0,0,0,153,176,177,0,0,153,153,157,152,152,165,152,152,152,0,0,0,0,0,0,0,0,162,0,0,152,166,152,152,165,152,0,152,161,152,166,0,0,0,165,0,152,152,152,0,0,0,0,0,0,0,184,185,0,0,0,0,165,152,152,152,152,176,177,0,0,0,0,0,0,0,0,0,0,0,152,152,152,152,0,152,0,161,0,0,0,0,0,152,0,0,153,156,0,0,157,152,152,0,0,0,0,0,0,153,153,0,0,0,0,0,0,184,185,0,0,0,0,0,0,0,0,0,0,0,152,166,152,0,0,0,152,156,0,0,0,77,0,152,0,153,153,0,0,0,165,152,0,0,166,153,0,0,153,156,152,0,0,0,176,177,0,0,0,0,157,0,0,0,0,0,164,0,152,157,176,177,152,0,0,152,152,152,152,152,96,133,96,0,0,153,0,0,0,0,153,0,0,0,152,152,0,0,0,0,0,0,0,0,184,185,0,157,0,0,165,0,0,0,0,0,0,0,152,165,184,185,152,156,152,176,177,152,157,152,162,0,0,0,0,0,153,157,0,0,152,0,0,166,0,0,0,152,152,152,162,0,0,0,152,152,152,165,0,0,0,0,0,0,0,0,0,0,152,152,162,152,164,152,152,184,185,152,165,0,152,152,0,0,0,152,152,165,0,0,162,152,152,152,0,0,152,166,162,152,0,0,0,152,152,152,152,0,0,74,0,0,0,0,0,0,162,0,0,156,152,161,0,0,0,152,157,152,152,0,0,162,162,162,0,0,0,0,0,0,0,0,0,0,0,0,166,0,0,152,162,162,0,0,0,0,0,0,96,133,96,0,0,0,0,0,0,0,0,0,0,152,0,71,0,152,165,152,161,0,152,152,0,162,0,0,152,137,0,0,152,161,162,152,152,0,0,0,0,0,0,0,0,152,176,177,0,0,0,0,157,0,0,0,0,0,0,157,0,0,0,166,96,133,96,0,0,0,0,0,0,0,0,0,0,152,152,0,0,162,162,152,0,152,0,0,0,152,176,177,157,152,162,152,184,185,0,157,0,0,165,0,0,0,0,0,0,165,0,0,166,0,0,0,0,0,0,162,152,0,152,162,0,0,157,0,0,0,0,0,0,0,0,152,157,152,152,0,184,185,165,0,0,0,0,0,0,165,0,0,0,0,0,0,0,0,0,0,0,0,0,0,0,0,0,0,0,166,0,0,0,0,0,0,165,0,0,0,0,0,0,0,0,0,165,0,0,0,0,165,0,0,0,0,0,0,0,0,0,157,0,0,0,0,0,0,0,0,0,0,0,0,0,0,0,0,0,0,0,0,0,0,0,0,0,0,0,0,0,0,0,0,0,0,0,0,0,0,0,0,0,0,0,0,0,0,0,0,0,165,0,0,0,0,0,0,0,0,0,0,0,0,0,0,0,0,0,0,0,0,0,0,0,0,0,0,0,0,0,0,0,0,0,0,0,0,0,0,0,0,0,0,0,0,0,0,0,0,0,0,0,0,0,0,0,0,0,0,0,0,0,0,0,0,0,0,0,0,0,0,0,0,0,0,0,0,0,0,0,0,0,0,0,0,0,0,0,0,0,0,0,0,0,0,0,0,0,0,0,0,0,0,0,0,0,0,0,0,0,0,0,0,0,0,0,0,0,0,0,0,0,0,0,0,0,0,0,0,0,0,0,0,0,0,0,0,0,0,0,0,0,0,0,0,0,0,0,0,0,0,0,0,0,0,0,0,0,0,0,0,0,0,0,0,0,0,0,0,0,0,0,0,0,0,0,0,0,0,0,0,0,0,0,0,0,0,0,0,0,0,0,0,0,0,0,0,0,0,0,0,0,0,0,0,0,0,0,0,0,0,0,0,0,0,0,0,0,0,0,0,0,0,0,0,0,0,0,0,0,0,0,0,0,0,0,0,0,0,0,0,0,0,0,0,0,0,0,0,0,0,0,0,0,0,0,0,0,0,0,0,0,0,0,0,0,0,0,0,0,0,0,0,0,0,0,0,0,0,0,0,0,0,0,0,0,0,0,0,0,0,0,0,0,0,0,0,0,0,0,0,0,0,0,0,0,0,0,0,0,0,0,0,0,0,0,0,0,0,0,0,0,0,0,0,0,0,0,0,0,0,0,0,0,5,0,0,0,0,0,0,0,0,0,0,0,0,0,0,0,0,0,0,0,0,0,0,0,0,0,0,0,0,0,0,0,0,0,0,0,0,0,0,0,0,0,0,0,0,0,0,0,0,0,5,0,0,0,0,0,0,0,0,0,0,0,0,0,0,0,0,0,0,0,0,0,0,0,0,0,0,0,0,0,0,0,0,0,0,0,0,0,0,0,0,0,0,0,0,0,0,0,0,0,0,0,0,0,0,0,0,0,0,0,0,0,0,0,0,0,0,0,0,0,0,0,0,0,0,0,0,0,0,0,0,0,0,0,0,0,0,0,0,0,0,0,0,0,0,0,0,0,0,0,0,0,0,0,0,0,0,0,0,0,0,0,0,0,0,0,0,0,0,0,0,0,0,0,0,0,0,0,0,0,0,0,0,0,0,0,0,0,0,0,0,0,0,0,0,0,0,0,0,0,0,0,0,0,0,0,0,0,0,0,0,0,0,0,0,0,0,0,0,0,0,0,0,0,0,0,0,0,0,0,0,0,0,0,0,0,0,0,0,0,0,0,0,0,0,0,0,0,0,0,0,0,0,0,0,0,0,0,0,0,0,0,0,0,0,0,0,0,0,0,0,0,0,0,0,0,0,0,0,0,0,0,0,0,0,0,0,0,0,0,0,0,0,0,0,0,0,0,0,0,0,0,0,0,0,0,0,0,0,0,0,0,0,0,0,0,0,0,0,0,0,0,0,0,0,0,0,0,0,0,0,0,0,0,0,0,0,0,0,0,0,0,0,0,0,0,0,0,0,0,0,0,0,0,0,0,0,0,0,0,0,0,0,0,0,0,0,0,0,0,0,0,0,0,0,0,0,0,0,0,0,0,0,0,0,0,0,0,0,0,0,0,0,0,0,0,0,0,0,0,0,0,0,0,0,0,0,0,0,0,0,0,0,0,0,0,0,0,0,0,0,0,0,0,0,0,0,0,0,0,0,0,0,0,0,0,0,0,0,0,0,0,0,0,0,0,0,0,0,0,0,0,0,0,0,0,0,0,0,0,0,0,0,0,0,0,0,0,0,0,0,0,0,0,0,0,0,0,0,0,0,0,0,0,0,0,0,0,0,0,0,0,0,0,0,0,0,0,0,0,0,0,0,0,0,0,0,0,0,0,0,0,0,0,0,5,0,0,0,5,0,0,0,0,0,0,0,0,0,0,0,0,0,0,0,0,0,0,0,0,0,0,0,0,0,0,0,0,0,0,0,0,0,0,0,0,0,0,5,0,0,0,0,0,0,0,0,0,0,5,0,0,0,0,0,0,0,0,0,0,0,0,0,0,0,0,0,0,0,0,0,0,0,0,0,0,0,0,0,0,0,0,0,0,0,0,0,0,5,0,0,0,0,0,0,0,0,0,0,5,0,0,0,0,0,0,0,0,0,0,0,0,0,0,0,0,0,0,0,0,0,0,0,0,0,0,0,0,0,0,0,0,0,0,0,0,0,0,5,0,0,0,0,0,0,0,0,0,0,5,0,0,0,0,0,0,0,0,0,0,0,0,0,0,0,0,0,0,0,0,0,0,0,0,0,0,0,0,0,0,0,0,0,0,0,0,0,0,5,0,0,0,0,0,0,0,0,0,0,5,0,0,0,0,0,0,0,0,0,0,0,0,0,0,0,0,0,0,0,0,0,0,0,0,0,0,0,0,0,0,0,0,0,0,0,0,0,0,5,0,0,0,0,0,0,0,0,0,0,5,0,0,0,0,0,0,0,0,0,0,0,0,0,0,0,0,0,0,0,0,0,0,0,0,0,0,0,0,0,0,0,0,0,0,0,0,0,0,0,0,0,0,0,0,0,0,0,0,0,5,0,0,0,0,0,0,0,0,0,0,0,0,0,0,0,0,0,0,0,0,0,0,0,0,0,0,0,0,0,0,0,0,0,0,0,0,0,0,0,0,0,0,0,0,0,0,0,0,0,5,0,0,0,0,0,0,0,0,0,0,0,0,0,0,0,0,0,0,0,0,0,0,0,0,0,0,0,0,0,0,0,0,0,0,0,0,0,0,0,0,0,0,0,0,0,0,0,0,0,0,0,0,0,0,0,0,0,0,0,0,0,0,0,0,0,0,0,0,0,0,0,0,0,0,0,0,0,0,0,0,0,0,0,0,0,0,0,0,0,0,0,0,0,0,0,0,0,0,0,0,0,0,0,0,0,0,0,0,0,0,0,0,0,0,0,0,0,0,0,0,0,0,0,0,0,0,0,0,0,0,0,0,0,0,0,0,0,0,0,0,0,0,0,0,0,0,0,0,0,0,0,0,0,0,0,0,0,0,0,5,0,0,0,0,0,0,0,0,0,0,0,0,0,0,0,0,0,0,0,0,0,0,0,0,0,0,0,0,0,0,0,0,0,0,0,0,0,0,0,0,0,0,0,0,0,0,0,0,0,0,0,0,0,0,0,0,0,0,0,0,0,0,0,0,0,0,0,0,0,0,0,0,0,0,0,0,0,0,0,0,0,0,0,0,0,5,0,0,0,0,0,0,0,0,0,0,0,0,0,0,0,0,0,0,0,0,0,0,0,0,0,0,0,0,0,0,0,0,0,0,0,0,0,0,0,0,0,0,0,0,0,0,0,0,0,0,0,0,0,0,0,0,0,0,0,0,0,0,0,0,0,0,0,0,0,0,0,0,0,0,0,0,0,0,0,0,0,0,0,0,0,0,0,0,0,0,0,0,0,0,0,0,0,0,0,0,0,0,0,0,0,0,0,0,0,0,0,0,0,0,0,0,0,0,0,0,0,0,0,0,0,0,0,0,0,0,0,0,0,0,0,0,0,0,0,0,0,0,0,0,0,0,0,0,0,0,0,0,0,0,0,0,0,0,0,0,0,0,0,0,0,0,0,0,0,0,0,0,0,0,0,0,0,0,0,0,0,0,0,0,0,0,0,0,0,0,0,0,0,0,0,0,0,0,0,0,0,0,0,0,0,0,0,0,0,0,0,0,0,0,0,0,0,0,0,0,0,0,0,0,0,0,0,0,0,0,0,0,0,0,0,0,0,0,0,0,0,0,0,0,0,0,0,0,0,0,0,0,0,0,0,0,0,0,0,0,0,0,0,0,0,0,0,0,0,0,0,0,0,0,0,0,0,0,0,0,0,0,0,0,0,0,0,0,0,0,0,0,0,0,0,0,0,0,0,0,5,0,0,0,0,0,0,0,0,0,0,0,0,0,0,0,0,0,0,0,0,0,0,0,0,0,0,0,0,0,0,0,0,0,0,0,0,0,0,0,0,0,0,0,0,0,0,0,0,0,0,0,0,0,0,0,0,0,0,0,0,0,0,0,0,0,0,0,0,0,0,0,0,0,0,0,0,0,0,0,0,0,0,0,0,0,0,0,0,0,0,0,0,0,0,0,0,0,0,0,0,0,0,0,0,0,0,0,0,0,0,0,0,0,0,0,0,0,0,0,0,0,0,5,0,0,0,0,0,0,0,0,0,0,0,0,0,0,0,0,0,0,0,0,0,0,0,0,0,0,0,0,0,0,0,0,0,0,0,0,0,0,0,0,0,0,0,0,0,0,0,0,0,0,0,0,0,0,0,0,0,0,0,0,0,0,0,0,0,0,0,0,0,0,0,0,0,0,0,0,0,0,0,0,0,0,0,0,0,0,0,0,0,0,0,0,0,0,0,0,0,0,0,0,0,0,0,0,0,0,0,0,0,0,0,0,0,0,0,0,0,0,0,0,0,0,0,0,0,0,0,0,0,0,0,0,0,0,0,0,0,0,0,0,0,0,0,0,0,0,0,0,0,0,0,0,0,0,0,0,0,0,0,0,0,0,0,0,0,0,0,0,0,0,0,0,0,0,0,0,0,0,0,0,0,0,0,0,0,0,0,0,0,0,0,0,0,0,0,0,0,0,0,0,0,0,0,0,0,0,0,0,0,0,0,0,0,0,0,0,0,0,0,0,0,0,0,0,0,0,0,0,0,0,0,0,0,0,0,0,0,0,5,0,0,0,0,0,0,0,0,0,0,0,0,0,0,0,0,0,0,0,0,0,0,0,0,0,0,0,0,5,0,0,0,0,0,0,0,0,0,0,0,0,0,0,0,0,0,0,0,0,0,0,0,0,0,0,0,0,0,0,0,0,0,0,0,0,0,0,0,0,0,0,0,0,0,0,0,0,0,5,0,0,0,0,0,0,0,0,0,0,0,0,0,0,0,0,0,0,0,0,0,0,0,0,0,0,0,0,0,0,0,0,0,0,0,0,0,0,0,0,0,0,0,0,0,0,0,0,0,0,0,0,0,0,0,0,0,0,0,0,0,0,0,0,0,0,0,0,0,0,0,0,0,0,5,0,0,0,0,0,0,0,0,0,0,0,0,0,0,0,0,0,0,0,0,0,0,0,0,0,0,0,0,0,0,0,0,0,0,0,5,0,0,0,0,0,0,0,0,0,0,0,0,0,0,0,0,0,0,0,0,0,0,0,0,0,0,0,0,0,0,0,0,0,0,0,0,0,0,0,0,0,0,0,0,0,0,0,0,0,5,0,0,0,0,0,0,0,0,0,0,0,0,0,0,0,0,0,0,0,0,0,0,0,0,0,0,0,0,0,0,0,0,0,0,0,0,0,0,0,0,0,0,0,0,0,0,0,0,0,0,0,0,0,0,0,0,0,0,0,0,0,0,0,0,0,0,0,0,0,0,0,0,0,0,0,0,0,0,0,0,0,0,0,0,0,0,0,0,0,0,0,0,0,0,0,0,0,0,0,0,0,0,0,0,0,0,0,0,0,0,0,0,0,0,0,0,0,0,0,0,0,0,0,0,0,0,0,0,0,0,0,0,0,0,0,0,0,0,0,0,0,0,0,0,0,0,0,0,0,0,0,0,0,0,0,0,0,0,0,0,0,0,0,0,0,0,0,0,0,0,0,0,0,0,0,0,0,0,0,0,0,0,0,0,0,0,0,0,0,0,0,0,0,0,0,0,0,0,0,0,0,0,0,0,0,0,0,0,0,0,0,0,0,0,0,0,0,0,0,0,0,5,0,0,0,0,0,0,0,0,0,0,0,0,0,0,0,0,0,0,0,0,0,0,0,0,0,0,0,0,0,0,0,0,0,0,0,0,0,0,0,0,0,0,0,0,0,0,0,0,0,0,0,0,0,0,0,0,0,0,0,0,0,0,0,0,0,0,0,0,0,0,0,0,0,0,0,0,0,0,0,0,0,0,0,0,0,0,0,0,0,0,0,0,0,0,0,0,0,0,0,0,0,0,0,0,0,0,0,0,0,0,0,0,0,0,0,0,0,0,0,0,0,0,0,0,0,0,0,0,0,0,0,0,0,0,0,0,0,0,0,0,0,0,0,0,0,0,0,0,0,0,0,0,0,0,0,0,0,0,0,0,0,0,0,0,0,0,0,0,0,0,0,0,0,0,0,0,0,5,0,0,0,0,0,0,0,0,0,0,0,0,0,0,0,0,0,0,0,0,0,0,0,0,0,0,0,0,0,0,0,0,0,0,0,0,0,0,0,0,0,0,0,0,0,0,0,0,0,0,0,0,0,0,0,0,0,0,0,0,0,0,0,5,0,0,0,0,0,0,0,0,0,0,0,0,0,0,0,0,0,0,0,0,0,0,0,0,0,0,0,0,0,0,0,0,0,0,0,0,0,0,0,0,0,0,0,0,0,0,0,0,0,0,0,0,0,0,0,0,0,0,0,0,0,0,0,0,0,0,0,0,0,0,0,0,0,0,0,0,0,0,0,0,0,0,0,0,0,0,0,0,0,0,0,0,0,0,0,0,0,0,0,0,0,0,0,0,0,0,0,0,0,0,0,0,0,0,0,0,0,0,0,0,0,0,0,0,0,0,0,0,0,0,0,0,0,0,0,0,0,0,0,0,0,0,0,0,0,0,0,0,0,0,0,0,0,0,0,0,0,0,0,0,0,0,0,0,0,0,0,0,0,0,0,0,0,0,0,0,0,0,0,0,0,0,0,0,0,0,0,0,0,0,0,0,0,0,0,0,0,0,0,0,0,0,0,0,0,0,0,0,0,0,0,0,0,0,0,0,0,0,0,0,0,0,0,0,0,0,0,0,0,0,0,0,0,0,0,0,0,0,0,0,0,0,0,0,0,0,0,0,0,0,0,0,0,0,0,0,0,0,0,0,0,0,0,0,0,0,0,0,0,0,0,0,0,0,0,0,0,0,0,0,0,0,0,0,0,0,0,0,0,0,0,0,0,0,0,0,0,0,0,0,0,0,0,0,0,0,0,0,0,0,0,0,0,0,0,0,0,0,0,0,0,0,0,0,0,0,0,0,0,0,0,0,0,0,0,0,0,0,0,0,0,0,0,0,0,0,0,0,0,0,0,0,0,0,0,0,0,0,0,0,0,0,0,0,0,0,0,0,0,0,0,0,0,0,0,0,0,0,0,0,0,0,0,0,0,0,0,0,0,0,0,0,0,0,0,0,0,0,0,0,0,0,0,0,0,0,0,0,0,0,0,0,0,0,0,0,0,0,0,0,0,0,0,0,0,0,0,0,0,0,0,0,0,0,0,0,0,0,0,0,0,0,0,0,0,0,0,0,0,0,0,0,0,0,0,0,0,0,0,0,0,0,0,0,0,0,0,0,0,0,0,0,0,0,0,0,0,0,0,0,0,0,0,0,0,0,0,0,0,0,0,0,0,0,0,0,0,0,0,0,0,0,0,0,0,0,0,0,0,0,0,0,0,0,0,0,0,0,0,0,0,0,0,0,0,0,0,0,0,0,0,0,0,0,0,0,0,0,0,0,0,0,0,0,0,0,0,0,0,0,0,0,0,0,0,0,0,0,0,0,0,0,0,0,0,0,0,0,0,0,0,0,0,0,0,0,0,0,0,0,0,0,0,0,0,0,0,0,0,0,0,0,0,0,0,0,0,0,0,0,0,0,0,0,0,0,0,0,0,0,0,0,0,0,0,0,0,0,0,0,0,0,0,0,0,0,0,0,0,0,0,0,0,0,0,0,0,0,0,0,0,0,0,0,0,0,0,0,0,0,0,0,0,0,0,0,0,0,0,0,0,0,0,0,0,0,0,0,0,0,0,0,0,0,0,0,0,0,0,0,0,0,0,0,0,0,0,0,0,0,0,0,0,0,0,0,0,0,0,0,0,0,0,0,0,0,0,0,0,0,0,0,0,0,0,0,0,0,0,0,0,0,0,0,0,0,0,0,0,0,0,0,0,0,0,0,0,0,0,0,0,0,0,0,0,0,0,0,0,0,0,0,0,0,0,0,0,0,0,0,0,0,0,0,0,0,0,0,0,0,0,0,0,0,0,0,0,0,0,0,0,0,0,0,0,0,0,0,0,0,0,0,0,0,0,0,0,0,0,0,0,0,0,0,0,0,0,0,0,0,0,0,0,0,0,0,0,0,0,0,0,0,0,0,0,0,0,0,0,0,0,0,0,0,0,0,0,0,0,0,0,0,0,0,0,0,0,0,0,0,0,0,0,0,0,0,0,0,0,0,0,0,0,0,0,0,0,0,0,0,0,0,0,0,0,0,0,0,0,0,0,0,0,0,0,0,0,0,0,0,0,0,0,0,0,0,0,0,0,0,0,0,0,0,0,0,0,0,0,0,0,0,0,0,0,0,0,0,0,0,0,0,0,0,0,0,0,0,0,0,0,0,0,0,0,0,0,0,0,0,0,0,0,0,0,0,0,0,0,0,0,0,0,0,0,0,0,0,0,0,0,0,0,0,0,0,0,0,0,0,0,0,0,0,0,0,0,0,0,0,0,0,0,0,0,0,0,0,0,0,0,0,0,0,0,0,0,0,0,0,0,0,0,0,0,0,0,0,0,0,0,0,0,0,0,0,0,0,0,0,0,0,0,0,0,0,0,0,0,0,0,0,0,0,0,0,0,0,0,0,0,0,0,0,0,0,0,0,0,0,0,0,0,0,0,0,0,0,0,0,0,0,0,0,0,0,0,0,0,0,0,0,0,0,0,0,0,0,0,0,0,0,0,0,0,0,0,0,0,0,0,0,0,0,0,0,0,0,0,0,0,0,0,0,0,0,0,0,0,0,0,0,0,0,0,0,0,0,0,0,0,0,0,0,0,0,0,0,0,0,0,0,0,0,0,0,0,0,0,0,0,0,0,0,0,0,0,0,0,0,0,0,0,0,0,0,0,0,0,0,0,0,0,0,0,0,0,0,0,0,0,0,0,0,0,0,0,0,0,0,0,0,0,0,0,0,0,0,0,0,0,0,0,0,0,0,0,0,0,0,0,0,0,0,0,0,0,0,0,0,0,0,0,0,0,0,0,0,0,0,0,0,0,0,0,0,0,0,0,0,0,0,0,0,0,0,0,0,0,0,0,0,0,0,0,0,0,0,0,0,0,0,0,0,0,0,0,0,0,0,0,0,0,0,0,0,0,0,0,0,0,0,0,0,0,0,0,0,0,0,0,0,0,0,0,0,0,0,0,0,0,0,0,0,0,0,0,0,0,0,0,0,0,0,0,0,0,0,0,0,0,0,0,0,0,0,0,0,0,0,0,0,0,0,0,0,0,0,0,0,0,0,0,0,0,0,0,0,0,0,0,0,0,0,0,0,0,0,0,0,0,0,0,0,0,0,0,0,0,0,0,0,0,0,0,0,0,0,0,0,0,0,0,0,0,0,0,0,0,0,0,0,0,0,0,0,0,0,0,0,0,0,0,0,0,0,0,0,0,0,0,0,0,0,0,0,0,0,0,0,0,0,0,0,0,0,0,0,0,0,0,0,0,0,0,0,0,0,0,0,0,0,0,0,0,0,0,0,0,0,0,0,0,0,0,0,0,0,0,0,0,0,0,0,0,0,0,0,0,0,0,0,0,0,0,0,0,0,0,0,0,0,0,0,0,0,0,0,0,0,0,0,0,0,0,0,0,0,0,0,0,0,0,0,0,0,0,0,0,0,0,0,0,0,0,0,0,0,0,0,0,0,0,0,0,0,0,0,0,0,0,0,0,0,0,0,0,0,0,0,0,0,0,0,0,0,0,0,0,0,0,0,0,0,0,0,0,0,0,0,0,0,0,0,0,0,0,0,0,0,0,0,0,0,0,0,0,0,0,0,0,0,0,0,0,0,0,0,0,0,0,0,0,0,0,0,0,0,0,0,0,0,0,0,0,0,0,0,0,0,0,0,0,0,0,0,0,0,0,0,0,0,0,0,0,0,0,0,0,0,0,0,0,0,0,0,0,0,0,0,0,0,0,0,0,0,0,0,0,0,0,0,0,0,0,0,0,0,0,0,0,0,0,0,0,0,0,0,0,0,0,0,0,0,0,0,0,0,0,0,0,0,0,0,0,0,0,0,0,0,0,0,0,0,0,0,0,0,0,0,0,0,0,0,0,0,0,0,0,0,0,0,0,0,0,0,0,0,0,0,0,0,0,0,0,0,0,0,0,0,0,0,0,0,0,0,0,0,0,0,0,0,0,0,0,0,0,0,0,0,0,0,0,0,0,0,0,0,0,0,0,0,0,0,0,0,0,0,0,0,0,0,0,0,0,0,0,0,0,0,0,0,0,0,0,0,0,0,0,0,0,0,0,0,0,0,0,0,0,0,0,0,0,0,0,0,0,0,0,0,0,0,0,0,0,0,0,0,0,0,0,0,0,0,0,0,0,0,0,0,0,0,0,0,0,0,0,0,0,0,0,0,0,0,0,0,0,0,0,0,0,0,0,0,0,0,0,0,0,0,0,0,0,0,0,0,0,0,0,0,0,0,0,0,0,0,0,0,0,0,0,0,0,0,0,0,0,0,0,0,0,0,0,0,0,0,0,0,0,0,0,0,0,0,0,0,0,0,0,0,0,0,0,0,0,0,0,0,0,0,0,0,0,0,0,0,0,0,0,0,0,0,0,0,0,0,0,0,0,0,0,0,0,0,0,0,0,0,0,0,0,0,0,0,0,0,0,0,0,0,0,0,0,0,0,0,0,0,0,0,0,0,0,0,0,0,0,0,0,0,0,0,0,0,0,0,0,0,0,0,0,0,0,0,0,0,0,0,0,0,0,0,0,0,0,0,0,0,0,0,0,0,0,0,0,0,0,0,0,0,0,0,0,0,0,0,0,0,0,0,0,0,0,0,0,0,0,0,0,0,0,0,0,0,0,0,0,0,0,0,0,0,0,0,0,0,0,0,0,0,0,0,0,0,0,0,0,0,0,0,0,0,0,0,0,0,0,0,0,0,0,0,0,0,0,0,0,0,0,0,0,0,0,0,0,0,0,0,0,0,0,0,0,0,0,0,0,0,0,0,0,0,0,0,0,0,0,0,0,0,0,0,0,0,0,0,0,0,0,0,0,0,0,0,0,0,0,0,0,0,0,0,0,0,0,0,0,0,0,0,0,0,0,0,0,0,0,0,0,0,0,0,0,0,0,0,0,0,0,0,0,0,0,0,0,0,0,0,0,0,0,0,0,0,0,0,0,0,0,0,0,0,0,0,0,0,0,0,0,0,0,0,0,0,0,0,0,0,0,0,0,0,0,0,0,0,0,0,0,0,0,0,0,0,0,0,0,0,0,0,0,0,0,0,0,0,0,0,0,0,0,0,0,0,0,0,0,0,0,0,0,0,0,0,0,0,0,0,0,0,0,0,0,0,0,0,0,0,0,0,0,0,0,0,0,0,0,0,0,0,0,0,0,0,0,0,0,0,0,0,0,0,0,0,0,0,0,0,0,0,0,0,0,0,0,0,0,0,0,0,0,0,0,0,0,0,0,0,0,0,0,0,0,0,0,0,0,0,0,0,0,0,0,0,0,0,0,0,0,0,0,0,0,0,0,0,0,0,0,0,0,0,0,0,0,0,0,0,0,0,0,0,0,0,0,0,0,0,0,0,0,0,0,0,0,0,0,0,0,0,0,0,0,0,0,0,0,0,0,0,0,0,0,0,0,0,0,0,0,0,0,0,0,0,0,0,0,0,0,0,0,0,0,0,0,0,0,0,0,0,0,0,0,0,0,0,0,0,0,0,0,0,0,0,0,0,0,0,0,0,0,0,0,0,0,0,0,0,0,0,0,0,0,0,0,0,0,0,0,0,0,0,0,0,0,0,0,0,0,0,0,0,0,0,0,0,0,0,0,0,0,0,0,0,0,0,0,0,0,0,0,0,0,0,0,0,0,0,0,0,0,0,0,0,0,0,0,0,0,0,0,0,0,0,0,0,0,0,0,0,0,0,0,0,0,0,0,0,0,0,0,0,0,0,0,0,0,0,0,0,0,0,0,0,0,0,0,0,0,0,0,0,0,0,0,0,0,0,0,0,0,0,0,0,0,0,0,0,0,0,0,0,0,0,0,0,0,0,0,0,0,0,0,0,0,0,0,0,0,0,0,0,0,0,0,0,0,0,0,0,0,0,0,0,0,0,0,0,0,0,0,0,0,0,0,0,0,0,0,0,0,0,0,0,0,0,0,0,0,0,0,0,0,0,0,0,0,0,0,0,0,0,0,0,0,0,0,0,0,0,0,0,0,0,0,0,0,0,0,0,0,0,0,0,0,0,0,0,0,0,0,0,0,0,0,0,0,0,0,0,0,0,0,0,0,0,0,0,0,0,0,0,0,0,0,0,0,0,0,0,0,0,0,0,0,0,0,0,0,0,0,0,0,0,0,0,0,0,0,0,0,0,0,0,0,0,0,0,0,0,0,0,0,0,0,0,0,0,0,0,0,0,0,0,0,0,0,0,0,0,0,0,0,0,0,0,0,0,0,0,0,0,0,0,0,0,0,0,0,0,0,0,0,0,0,0,0,0,0,0,0,0,0,0,0,0,0,0,0,0,0,0,0,0,0,0,0,0,0,0,0,0,0,0,0,0,0,0,0,0,0,0,0,0,0,0,0,0,0,0,0,0,0,0,0,0,0,0,0,0,0,0,0,0,0,0,0,0,0,0,0,0,0,0,0,0,0,0,0,0,0,0,0,0,0,0,0,0,0,0,0,0,0,0,0,0,0,0,0,0,0,0,0,0,0,0,0,0,0,0,0,0,0,0,0,0,0,0,0,0,0,0,0,0,0,0,0,0,0,0,0,0,0,0,0,0,0,0,0,0,0,0,0,0,0,0,0,0,0,0,0,0,0,0,0,0,0,0,0,0,0,0,0,0,0,0,0,0,0,0,0,0,0,0,0,0,0,0,0,0,0,0,0,0,0,0,0,0,0,0,0,0,0,0,0,0,0,0,0,0,0,0,0,0,0,0,0,0,0,0,0,0,0,0,0,0,0,0,0,0,0,0,0,0,0,0,0,0,0,0,0,0,0,0,0,0,0,0,0,0,0,0,0,0,0,0,0,0,0,0,0,0,0,0,0,0,0,0,0,0,0,0,0,0,0,0,0,0,0,0,0,0,0,0,0,0,0,0,0,0,0,0,0,0,0,0,0,0,0,0,0,0,0,0,0,0,0,0,0,0,0,0,0,0,0,0,0,0,0,0,0,0,0,0,0,0,0,0,0,0,0,0,0,0,0,0,0,0,0,0,0,0,0,0,0,0,0,0,0,0,0,0,0,0,0,0,0,0,0,0,0,0,0,0,0,0,0,0,0,0,0,0,0,0,0,0,0,0,0,0,0,0,0,0,0,0,0,0,0,0,0,0,0,0,0,0,0,0,0,0,0,0,0,0,0,0,0,0,0,0,0,0,0,0,0,0,0,0,0,0,0,0,0,0,0,0,0,0,0,0,0,0,0,0,0,0,0,0,0,0,0,0,0,0,0,0,0,0,0,0,0,0,0,0,0,0,0,0,0,0,0,0,0,0,0,0,0,0,0,0,0,0,0,0,0,0,0,0,0,0,0,0,0,0,0,0,0,0,0,0,0,0,0,0,0,0,0,0,0,0,0,0,0,0,0,0,0,0,0,0,0,0,0,0,0,0,0,0,0,0,0,0,0,0,0,0,0,0,0,0,0,0,0,0,0,0,0,0],
"events":[
null,
{"id":1,"name":"pig","note":"","pages":[{"conditions":{"actorId":1,"actorValid":false,"itemId":1,"itemValid":false,"selfSwitchCh":"A","selfSwitchValid":false,"switch1Id":1,"switch1Valid":false,"switch2Id":1,"switch2Valid":false,"variableId":1,"variableValid":false,"variableValue":0},"directionFix":false,"image":{"tileId":0,"characterName":"Nature","direction":2,"pattern":0,"characterIndex":2},"list":[{"code":101,"indent":0,"parameters":["Nature",2,0,2,""]},{"code":401,"indent":0,"parameters":["oink oink oink..."]},{"code":0,"indent":0,"parameters":[]}],"moveFrequency":3,"moveRoute":{"list":[{"code":0,"parameters":[]}],"repeat":true,"skippable":false,"wait":false},"moveSpeed":2,"moveType":0,"priorityType":1,"stepAnime":false,"through":false,"trigger":0,"walkAnime":true}],"x":39,"y":5},
{"id":2,"name":"pig","note":"","pages":[{"conditions":{"actorId":1,"actorValid":false,"itemId":1,"itemValid":false,"selfSwitchCh":"A","selfSwitchValid":false,"switch1Id":1,"switch1Valid":false,"switch2Id":1,"switch2Valid":false,"variableId":1,"variableValid":false,"variableValue":0},"directionFix":false,"image":{"tileId":0,"characterName":"Nature","direction":2,"pattern":0,"characterIndex":2},"list":[{"code":101,"indent":0,"parameters":["Nature",2,0,2,""]},{"code":401,"indent":0,"parameters":["oink oink oink..."]},{"code":0,"indent":0,"parameters":[]}],"moveFrequency":3,"moveRoute":{"list":[{"code":0,"parameters":[]}],"repeat":true,"skippable":false,"wait":false},"moveSpeed":2,"moveType":0,"priorityType":1,"stepAnime":false,"through":false,"trigger":0,"walkAnime":true}],"x":38,"y":6},
{"id":3,"name":"pig","note":"","pages":[{"conditions":{"actorId":1,"actorValid":false,"itemId":1,"itemValid":false,"selfSwitchCh":"A","selfSwitchValid":false,"switch1Id":1,"switch1Valid":false,"switch2Id":1,"switch2Valid":false,"variableId":1,"variableValid":false,"variableValue":0},"directionFix":false,"image":{"tileId":0,"characterName":"Nature","direction":2,"pattern":0,"characterIndex":2},"list":[{"code":101,"indent":0,"parameters":["Nature",2,0,2,""]},{"code":401,"indent":0,"parameters":["oink oink oink..."]},{"code":0,"indent":0,"parameters":[]}],"moveFrequency":3,"moveRoute":{"list":[{"code":0,"parameters":[]}],"repeat":true,"skippable":false,"wait":false},"moveSpeed":2,"moveType":0,"priorityType":1,"stepAnime":false,"through":false,"trigger":0,"walkAnime":true}],"x":38,"y":8},
{"id":4,"name":"pig","note":"","pages":[{"conditions":{"actorId":1,"actorValid":false,"itemId":1,"itemValid":false,"selfSwitchCh":"A","selfSwitchValid":false,"switch1Id":1,"switch1Valid":false,"switch2Id":1,"switch2Valid":false,"variableId":1,"variableValid":false,"variableValue":0},"directionFix":false,"image":{"tileId":0,"characterName":"Nature","direction":2,"pattern":0,"characterIndex":2},"list":[{"code":101,"indent":0,"parameters":["Nature",2,0,2,""]},{"code":401,"indent":0,"parameters":["oink oink oink..."]},{"code":0,"indent":0,"parameters":[]}],"moveFrequency":3,"moveRoute":{"list":[{"code":0,"parameters":[]}],"repeat":true,"skippable":false,"wait":false},"moveSpeed":2,"moveType":0,"priorityType":1,"stepAnime":false,"through":false,"trigger":0,"walkAnime":true}],"x":45,"y":8},
{"id":5,"name":"pig","note":"","pages":[{"conditions":{"actorId":1,"actorValid":false,"itemId":1,"itemValid":false,"selfSwitchCh":"A","selfSwitchValid":false,"switch1Id":1,"switch1Valid":false,"switch2Id":1,"switch2Valid":false,"variableId":1,"variableValid":false,"variableValue":0},"directionFix":false,"image":{"tileId":0,"characterName":"Nature","direction":2,"pattern":0,"characterIndex":2},"list":[{"code":101,"indent":0,"parameters":["Nature",2,0,2,""]},{"code":401,"indent":0,"parameters":["oink oink oink..."]},{"code":0,"indent":0,"parameters":[]}],"moveFrequency":3,"moveRoute":{"list":[{"code":0,"parameters":[]}],"repeat":true,"skippable":false,"wait":false},"moveSpeed":2,"moveType":0,"priorityType":1,"stepAnime":false,"through":false,"trigger":0,"walkAnime":true}],"x":44,"y":3},
{"id":6,"name":"pig","note":"","pages":[{"conditions":{"actorId":1,"actorValid":false,"itemId":1,"itemValid":false,"selfSwitchCh":"A","selfSwitchValid":false,"switch1Id":1,"switch1Valid":false,"switch2Id":1,"switch2Valid":false,"variableId":1,"variableValid":false,"variableValue":0},"directionFix":false,"image":{"tileId":0,"characterName":"Nature","direction":2,"pattern":0,"characterIndex":2},"list":[{"code":101,"indent":0,"parameters":["Nature",2,0,2,""]},{"code":401,"indent":0,"parameters":["oink oink oink..."]},{"code":0,"indent":0,"parameters":[]}],"moveFrequency":3,"moveRoute":{"list":[{"code":0,"parameters":[]}],"repeat":true,"skippable":false,"wait":false},"moveSpeed":2,"moveType":0,"priorityType":1,"stepAnime":false,"through":false,"trigger":0,"walkAnime":true}],"x":42,"y":4},
{"id":7,"name":"pig","note":"","pages":[{"conditions":{"actorId":1,"actorValid":false,"itemId":1,"itemValid":false,"selfSwitchCh":"A","selfSwitchValid":false,"switch1Id":1,"switch1Valid":false,"switch2Id":1,"switch2Valid":false,"variableId":1,"variableValid":false,"variableValue":0},"directionFix":false,"image":{"tileId":0,"characterName":"Nature","direction":2,"pattern":0,"characterIndex":2},"list":[{"code":101,"indent":0,"parameters":["Nature",2,0,2,""]},{"code":401,"indent":0,"parameters":["oink oink oink..."]},{"code":0,"indent":0,"parameters":[]}],"moveFrequency":3,"moveRoute":{"list":[{"code":0,"parameters":[]}],"repeat":true,"skippable":false,"wait":false},"moveSpeed":2,"moveType":0,"priorityType":1,"stepAnime":false,"through":false,"trigger":0,"walkAnime":true}],"x":42,"y":6},
{"id":8,"name":"Transfer (MAP001)","note":"","pages":[{"conditions":{"actorId":1,"actorValid":false,"itemId":1,"itemValid":false,"selfSwitchCh":"A","selfSwitchValid":false,"switch1Id":1,"switch1Valid":false,"switch2Id":1,"switch2Valid":false,"variableId":1,"variableValid":false,"variableValue":0},"directionFix":false,"image":{"characterIndex":0,"characterName":"","direction":2,"pattern":0,"tileId":0},"list":[{"code":250,"indent":0,"parameters":[{"name":"Move1","volume":90,"pitch":100,"pan":0}]},{"code":201,"indent":0,"parameters":[0,1,47,28,2,0]},{"code":0,"indent":0,"parameters":[]}],"moveFrequency":3,"moveRoute":{"list":[{"code":0,"parameters":[]}],"repeat":true,"skippable":false,"wait":false},"moveSpeed":3,"moveType":0,"priorityType":0,"stepAnime":false,"through":false,"trigger":1,"walkAnime":true}],"x":23,"y":58}
]
}